%!PS-Adobe-2.0 EPSF-2.0
%%BoundingBox:  0 0 567 418
%%Title: dataset/plots/overtrain_SelectBTracks.eps: TMVA comparison SelectBTracks
%%Creator: ROOT Version 6.18/00
%%CreationDate: Sun Sep 29 15:50:23 2019
%%DocumentNeededResources: ProcSet (FontSetInit)
%%EndComments
%%BeginProlog
80 dict begin
/s {stroke} def /l {lineto} def /m {moveto} def /t {translate} def
/r {rotate} def /rl {roll}  def /R {repeat} def
/d {rlineto} def /rm {rmoveto} def /gr {grestore} def /f {eofill} def
/c {setrgbcolor} def /black {0 setgray} def /sd {setdash} def
/cl {closepath} def /sf {scalefont setfont} def /lw {setlinewidth} def
/box {m dup 0 exch d exch 0 d 0 exch neg d cl} def
/NC{systemdict begin initclip end}def/C{NC box clip newpath}def
/bl {box s} def /bf {gsave box gsave f grestore 1 lw [] 0 sd s grestore} def /Y { 0 exch d} def /X { 0 d} def 
/K {{pop pop 0 moveto} exch kshow} bind def
/ita {/ang 15 def gsave [1 0 ang dup sin exch cos div 1 0 0] concat} def 
/mp {newpath /y exch def /x exch def} def
/side {[w .77 mul w .23 mul] .385 w mul sd w 0 l currentpoint t -144 r} def
/mr {mp x y w2 0 360 arc} def /m24 {mr s} def /m20 {mr f} def
/mb {mp x y w2 add m w2 neg 0 d 0 w neg d w 0 d 0 w d cl} def
/mt {mp x y w2 add m w2 neg w neg d w 0 d cl} def
/w4 {w 4 div} def
/w6 {w 6 div} def
/w8 {w 8 div} def
/m21 {mb f} def /m25 {mb s} def /m22 {mt f} def /m26{mt s} def
/m23 {mp x y w2 sub m w2 w d w neg 0 d cl f} def
/m27 {mp x y w2 add m w3 neg w2 neg d w3 w2 neg d w3 w2 d cl s} def
/m28 {mp x w2 sub y w2 sub w3 add m w3 0 d  0 w3 neg d w3 0 d 0 w3 d w3 0 d  0 w3 d w3 neg 0 d 0 w3 d w3 neg 0 d 0 w3 neg d w3 neg 0 d cl s } def
/m29 {mp gsave x w2 sub y w2 add w3 sub m currentpoint t 4 {side} repeat cl fill gr} def
/m30 {mp gsave x w2 sub y w2 add w3 sub m currentpoint t 4 {side} repeat cl s gr} def
/m31 {mp x y w2 sub m 0 w d x w2 sub y m w 0 d x w2 sub y w2 add m w w neg d x w2 sub y w2 sub m w w d s} def
/m32 {mp x y w2 sub m w2 w d w neg 0 d cl s} def
/m33 {mp x y w2 add m w3 neg w2 neg d w3 w2 neg d w3 w2 d cl f} def
/m34 {mp x w2 sub y w2 sub w3 add m w3 0 d  0 w3 neg d w3 0 d 0 w3 d w3 0 d  0 w3 d w3 neg 0 d 0 w3 d w3 neg 0 d 0 w3 neg d w3 neg 0 d cl f } def
/m35 {mp x y w2 add m w2 neg w2 neg d w2 w2 neg d w2 w2 d w2 neg w2 d x y w2 sub m 0 w d x w2 sub y m w 0 d s} def
/m36 {mb x w2 sub y w2 add m w w neg d x w2 sub y w2 sub m w w d s} def
/m37 {mp x y m w4 neg w2 d w4 neg w2 neg d w2 0 d  w4 neg w2 neg d w2 0 d w4 neg w2 d w2 0 d w4 neg w2 d w4 neg w2 neg d cl s} def
/m38 {mp x w4 sub y w2 add m w4 neg w4 neg d 0 w2 neg d w4 w4 neg d w2 0 d w4 w4 d 0 w2 d w4 neg w4 d w2 neg 0 d x y w2 sub m 0 w d x w2 sub y m w 0 d cl s} def
/m39 {mp x y m w4 neg w2 d w4 neg w2 neg d w2 0 d  w4 neg w2 neg d w2 0 d w4 neg w2 d w2 0 d w4 neg w2 d w4 neg w2 neg d cl f} def
/m40 {mp x y m w4 w2 d w4 w4 neg d w2 neg w4 neg d w2 w4 neg d w4 neg w4 neg d w4 neg w2 d w4 neg w2 neg d w4 neg w4 d w2 w4 d w2 neg w4 d w4 w4 d w4 w2 neg d cl s} def
/m41 {mp x y m w4 w2 d w4 w4 neg d w2 neg w4 neg d w2 w4 neg d w4 neg w4 neg d w4 neg w2 d w4 neg w2 neg d w4 neg w4 d w2 w4 d w2 neg w4 d w4 w4 d w4 w2 neg d cl f} def
/m42 {mp x y w2 add m w8 neg w2 -3 4 div mul d w2 -3 4 div mul w8 neg d w2 3 4 div mul w8 neg d w8 w2 -3 4 div mul d w8 w2 3 4 div mul d w2 3 4 div mul w8 d w2 -3 4 div mul w8 d w8 neg w2 3 4 div mul d cl s} def
/m43 {mp x y w2 add m w8 neg w2 -3 4 div mul d w2 -3 4 div mul w8 neg d w2 3 4 div mul w8 neg d w8 w2 -3 4 div mul d w8 w2 3 4 div mul d w2 3 4 div mul w8 d w2 -3 4 div mul w8 d w8 neg w2 3 4 div mul d cl f} def
/m44 {mp x y m w6 neg w2 d w2 2 3 div mul 0 d w6 neg w2 neg d w2 w6 d 0 w2 -2 3 div mul d w2 neg w6 d w6 w2 neg d w2 -2 3 div mul 0 d w6 w2 d w2 neg w6 neg d 0 w2 2 3 div mul d w2 w6 neg d cl s} def
/m45 {mp x y m w6 neg w2 d w2 2 3 div mul 0 d w6 neg w2 neg d w2 w6 d 0 w2 -2 3 div mul d w2 neg w6 d w6 w2 neg d w2 -2 3 div mul 0 d w6 w2 d w2 neg w6 neg d 0 w2 2 3 div mul d w2 w6 neg d cl f} def
/m46 {mp x y w4 add m w4 neg w4 d w4 neg w4 neg d  w4 w4 neg d w4 neg w4 neg d w4 w4 neg d w4 w4 d w4 w4 neg d w4 w4 d w4 neg w4 d w4 w4 d w4 neg w4 d w4 neg w4 neg d cl s} def
/m47 {mp x y w4 add m w4 neg w4 d w4 neg w4 neg d w4 w4 neg d w4 neg w4 neg d  w4 w4 neg d w4 w4 d w4 w4 neg d w4 w4 d w4 neg w4 d w4 w4 d w4 neg w4 d w4 neg w4 neg d cl f} def
/m48 {mp x y w4 add m w4 neg w4 d w4 neg w4 neg d w4 w4 neg d  w4 neg w4 neg d w4 w4 neg d w4 w4 d w4 w4 neg d w4 w4 d w4 neg w4 d w4 w4 d w4 neg w4 d w4 neg w4 neg d  w4 w4 neg d w4 neg w4 neg d w4 neg w4 d w4 w4 d cl f} def
/m49 {mp x w2 sub w3 add y w2 sub w3 add m  0 w3 neg d w3 0 d 0 w3 d w3 0 d 0 w3 d w3 neg 0 d 0 w3 d w3 neg 0 d 0 w3 neg d w3 neg 0 d 0 w3 neg d w3 0 d 0 w3 d w3 0 d 0 w3 neg d w3 neg 0 d cl f } def
/m2 {mp x y w2 sub m 0 w d x w2 sub y m w 0 d s} def
/m5 {mp x w2 sub y w2 sub m w w d x w2 sub y w2 add m w w neg d s} def
%%IncludeResource: ProcSet (FontSetInit)
%%IncludeResource: font Times-Roman
%%IncludeResource: font Times-Italic
%%IncludeResource: font Times-Bold
%%IncludeResource: font Times-BoldItalic
%%IncludeResource: font Helvetica
%%IncludeResource: font Helvetica-Oblique
%%IncludeResource: font Helvetica-Bold
%%IncludeResource: font Helvetica-BoldOblique
%%IncludeResource: font Courier
%%IncludeResource: font Courier-Oblique
%%IncludeResource: font Courier-Bold
%%IncludeResource: font Courier-BoldOblique
%%IncludeResource: font Symbol
%%IncludeResource: font ZapfDingbats
/reEncode {exch findfont dup length dict begin {1 index /FID eq  {pop pop} {def} ifelse } forall /Encoding exch def currentdict end dup /FontName get exch definefont pop } def [/Times-Bold /Times-Italic /Times-BoldItalic /Helvetica /Helvetica-Oblique
 /Helvetica-Bold /Helvetica-BoldOblique /Courier /Courier-Oblique /Courier-Bold /Courier-BoldOblique /Times-Roman /AvantGarde-Book /AvantGarde-BookOblique /AvantGarde-Demi /AvantGarde-DemiOblique /Bookman-Demi /Bookman-DemiItalic /Bookman-Light
 /Bookman-LightItalic /Helvetica-Narrow /Helvetica-Narrow-Bold /Helvetica-Narrow-BoldOblique /Helvetica-Narrow-Oblique /NewCenturySchlbk-Roman /NewCenturySchlbk-Bold /NewCenturySchlbk-BoldItalic /NewCenturySchlbk-Italic /Palatino-Bold
 /Palatino-BoldItalic /Palatino-Italic /Palatino-Roman ] {ISOLatin1Encoding reEncode } forall
%%EndProlog
%%BeginSetup
%%EndSetup
newpath  gsave  .25 .25 scale  gsave  0 0 t 0.490196 0.545098 0.615686 c[  ] 0 sd 3 lw 0.941176 0.941176 0.941176 c 2268 1672 0 0 bf black 1 1 0.992157 c 1916 1304 238 201 bf black 1916 1304 238 201 bl 1 1 0.992157 c 1916 1304 238 201 bf black 1916
 1304 238 201 bl 238 201 m 1916 X s 238 243 m -42 Y s 334 222 m -21 Y s 430 222 m -21 Y s 526 222 m -21 Y s 621 222 m -21 Y s 717 243 m -42 Y s 813 222 m -21 Y s 909 222 m -21 Y s 1005 222 m -21 Y s 1100 222 m -21 Y s 1196 243 m -42 Y s 1292 222 m
 -21 Y s 1388 222 m -21 Y s 1484 222 m -21 Y s 1579 222 m -21 Y s 1675 243 m -42 Y s 1771 222 m -21 Y s 1867 222 m -21 Y s 1963 222 m -21 Y s 2059 222 m -21 Y s 2154 243 m -42 Y s 2154 243 m -42 Y s
 gsave  2268 1672 0 0 C 235.114 128.934 t 0 r /Helvetica-Bold findfont 60.6747 sf 0 0 m (1) show NC gr 
 gsave  2268 1672 0 0 C 204.777 128.934 t 0 r /Symbol findfont 60.6747 sf 0 0 m (-) show NC gr 
 gsave  2268 1672 0 0 C 690.175 128.934 t 0 r /Helvetica-Bold findfont 60.6747 sf 0 0 m (0.5) show NC gr 
 gsave  2268 1672 0 0 C 656.045 128.934 t 0 r /Symbol findfont 60.6747 sf 0 0 m (-) show NC gr 
 gsave  2268 1672 0 0 C 1175.57 128.934 t 0 r /Helvetica-Bold findfont 60.6747 sf 0 0 m (0) show NC gr 
 gsave  2268 1672 0 0 C 1630.63 128.934 t 0 r /Helvetica-Bold findfont 60.6747 sf 0 0 m (0.5) show NC gr 
 gsave  2268 1672 0 0 C 2138.78 128.934 t 0 r /Helvetica-Bold findfont 60.6747 sf 0 0 m (1) show NC gr 
 gsave  2268 1672 0 0 C 1304.51 30.3373 t 0 r /Helvetica-Bold findfont 72.0512 sf 0 0 m (SelectBTracks response) show NC gr  238 1505 m 1916 X s 238 1463 m 42 Y s 334 1484 m 21 Y s 430 1484 m 21 Y s 526 1484 m 21 Y s 621 1484 m 21 Y s 717 1463 m 42 Y
 s 813 1484 m 21 Y s 909 1484 m 21 Y s 1005 1484 m 21 Y s 1100 1484 m 21 Y s 1196 1463 m 42 Y s 1292 1484 m 21 Y s 1388 1484 m 21 Y s 1484 1484 m 21 Y s 1579 1484 m 21 Y s 1675 1463 m 42 Y s 1771 1484 m 21 Y s 1867 1484 m 21 Y s 1963 1484 m 21 Y s
 2059 1484 m 21 Y s 2154 1463 m 42 Y s 2154 1463 m 42 Y s 238 201 m 1304 Y s 291 201 m -53 X s 265 251 m -27 X s 265 301 m -27 X s 265 351 m -27 X s 265 402 m -27 X s 291 452 m -53 X s 265 502 m -27 X s 265 552 m -27 X s 265 603 m -27 X s 265 653 m
 -27 X s 291 703 m -53 X s 265 754 m -27 X s 265 804 m -27 X s 265 854 m -27 X s 265 904 m -27 X s 291 955 m -53 X s 265 1005 m -27 X s 265 1055 m -27 X s 265 1105 m -27 X s 265 1156 m -27 X s 291 1206 m -53 X s 265 1256 m -27 X s 265 1306 m -27 X s
 265 1357 m -27 X s 265 1407 m -27 X s 291 1457 m -53 X s 291 1457 m -53 X s
 gsave  2268 1672 0 0 C 174.44 178.232 t 0 r /Helvetica-Bold findfont 60.6747 sf 0 0 m (0) show NC gr 
 gsave  2268 1672 0 0 C 174.44 432.307 t 0 r /Helvetica-Bold findfont 60.6747 sf 0 0 m (5) show NC gr 
 gsave  2268 1672 0 0 C 140.31 682.59 t 0 r /Helvetica-Bold findfont 60.6747 sf 0 0 m (10) show NC gr 
 gsave  2268 1672 0 0 C 140.31 932.873 t 0 r /Helvetica-Bold findfont 60.6747 sf 0 0 m (15) show NC gr 
 gsave  2268 1672 0 0 C 140.31 1183.16 t 0 r /Helvetica-Bold findfont 60.6747 sf 0 0 m (20) show NC gr 
 gsave  2268 1672 0 0 C 140.31 1437.23 t 0 r /Helvetica-Bold findfont 60.6747 sf 0 0 m (25) show NC gr 
 gsave  2268 1672 0 0 C 64.4669 1422.06 t 90 r /Helvetica-Bold findfont 72.0512 sf 0 0 m (dx) show NC gr 
 gsave  2268 1672 0 0 C 30.3373 1410.69 t 90 r /Helvetica-Bold findfont 45.506 sf 0 0 m ( ) show NC gr 
 gsave  2268 1672 0 0 C 64.4669 1387.93 t 90 r /Helvetica-Bold findfont 72.0512 sf 0 0 m (/) show NC gr 
 gsave  2268 1672 0 0 C 30.3373 1376.56 t 90 r /Helvetica-Bold findfont 45.506 sf 0 0 m ( ) show NC gr 
 gsave  2268 1672 0 0 C 60.6747 1099.73 t 90 r /Helvetica-Bold findfont 72.0512 sf 0 0 m (\(1/N\) dN) show NC gr  2154 201 m 1304 Y s 2101 201 m 53 X s 2128 251 m 26 X s 2128 301 m 26 X s 2128 351 m 26 X s 2128 402 m 26 X s 2101 452 m 53 X s 2128 502
 m 26 X s 2128 552 m 26 X s 2128 603 m 26 X s 2128 653 m 26 X s 2101 703 m 53 X s 2128 754 m 26 X s 2128 804 m 26 X s 2128 854 m 26 X s 2128 904 m 26 X s 2101 955 m 53 X s 2128 1005 m 26 X s 2128 1055 m 26 X s 2128 1105 m 26 X s 2128 1156 m 26 X s
 2101 1206 m 53 X s 2128 1256 m 26 X s 2128 1306 m 26 X s 2128 1357 m 26 X s 2128 1407 m 26 X s 2101 1457 m 53 X s 2101 1457 m 53 X s 0.490196 0.545098 0.615686 c 1 1 1 c 0.490196 0.545098 0.615686 c 907 201 238 1304 bl 238 1304 m 907 X s 1145 1304 m
 201 Y s 1145 1505 m -907 X s 238 1505 m -201 Y s black
 gsave  2268 1672 0 0 C 417.138 1433.44 t 0 r /Helvetica-Bold findfont 53.0904 sf 0 0 m (Signal \(test sample\)) show NC gr  0.49 0.6 0.82 c 265 1420 m 127 X 70 Y -127 X f 0 0 0.933333 c 265 1490 m 127 X s 265 1420 m 127 X s 392 1420 m 70 Y s 265
 1420 m 70 Y s black
 gsave  2268 1672 0 0 C 417.138 1334.84 t 0 r /Helvetica-Bold findfont 53.0904 sf 0 0 m (Background \(test sample\)) show NC gr  1 0 0 c 392 1354 m -35 -35 d s 380 1390 m -71 -71 d s 331 1390 m -66 -66 d s 283 1390 m -18 -18 d s 0 0 0.933333 c 1 0 0
 c 265 1390 m 127 X s 265 1319 m 127 X s 392 1319 m 71 Y s 265 1319 m 71 Y s 0 0 0.933333 c 0.49 0.6 0.82 c black 0.49 0.6 0.82 c 238 201 m 1 Y 48 X -1 Y 1725 X 1 Y 48 X 1 Y 47 X 989 Y 48 X -991 Y f 0 0 0.933333 c 0.49 0.6 0.82 c 0 0 0.933333 c 238
 202 m 48 X -1 Y 1725 X 1 Y 48 X 1 Y 47 X 989 Y 48 X -991 Y s 1 0 0 c black 1 0 0 c 2142 217 m -17 -16 d s 2078 202 m -1 -1 d s 2030 202 m -1 -1 d s 1982 202 m -1 -1 d s 1935 203 m -3 -2 d s 1885 201 m -1 X s 1838 202 m -2 -1 d s 1789 202 m -1 -1 d s
 1740 201 m s 1692 201 m s 1644 201 m s 1597 202 m -1 -1 d s 1549 202 m -1 -1 d s 1500 201 m s 1452 201 m -1 X s 1403 201 m s 1355 201 m s 1307 201 m s 1261 202 m -2 -1 d s 1212 202 m -1 -1 d s 1164 202 m -1 -1 d s 1116 202 m -1 -1 d s 1067 201 m s
 1019 201 m -1 X s 970 201 m s 923 201 m -1 X s 875 201 m -1 X s 827 201 m -1 X s 778 201 m s 730 201 m s 682 201 m s 634 201 m s 587 202 m -1 -1 d s 538 202 m -1 -1 d s 490 202 m -1 -1 d s 443 203 m -2 -2 d s 395 202 m -2 -1 d s 348 203 m -3 -2 d s
 303 207 m -6 -6 d s 286 238 m -37 -37 d s 286 286 m -48 -48 d s 286 334 m -48 -48 d s 286 382 m -48 -48 d s 286 430 m -48 -48 d s 286 478 m -48 -47 d s 286 527 m -48 -48 d s 286 575 m -48 -48 d s 286 623 m -48 -48 d s 286 671 m -48 -48 d s 286 719 m
 -48 -48 d s 286 767 m -48 -48 d s 286 815 m -48 -48 d s 286 863 m -48 -48 d s 286 911 m -48 -48 d s 286 959 m -48 -47 d s 286 1008 m -48 -48 d s 286 1056 m -48 -48 d s 286 1104 m -48 -48 d s 286 1152 m -48 -48 d s 240 1154 m -2 -2 d s 238 1154 m 48
 X -947 Y 48 X -4 Y 48 X -1 Y 48 X 1 Y 48 X -1 Y 143 X -1 Y 479 X 1 Y 192 X -1 Y 240 X 1 Y 95 X -1 Y 144 X 1 Y 96 X -1 Y 48 X 2 Y 48 X -1 Y 143 X 15 Y 48 X -16 Y s 0.490196 0.545098 0.615686 c 1 1 1 c 0.490196 0.545098 0.615686 c 952 201 1202 1304 bl
 1202 1304 m 952 X s 2154 1304 m 201 Y s 2154 1505 m -952 X s 1202 1505 m -201 Y s black
 gsave  2268 1672 0 0 C 1296.92 1433.44 t 0 r /Helvetica-Bold findfont 56.8825 sf 0 0 m (Signal \(training sample\)) show NC gr  0 0 0.933333 c /w 21 def /w2 {w 2 div} def /w3 {w 3 div} def 1250 1455 m20 black
 gsave  2268 1672 0 0 C 1296.92 1334.84 t 0 r /Helvetica-Bold findfont 56.8825 sf 0 0 m (Background \(training sample\)) show NC gr  1 0 0 c 1250 1355 m20 0 0 0.933333 c 1 1 1 c 0 0 0.933333 c 1484 201 m 16 X s 1515 201 m 17 X s 1484 193 m 15 Y s
 1532 193 m 15 Y s 1508 201 m20 1675 201 m 17 X s 1707 201 m 16 X s 1675 193 m 15 Y s 1723 193 m 15 Y s 1699 201 m20 1771 201 m 16 X s 1803 201 m 16 X s 1771 193 m 15 Y s 1819 193 m 15 Y s 1795 201 m20 1819 201 m 16 X s 1851 201 m 16 X s 1819 193 m
 15 Y s 1867 193 m 15 Y s 1843 201 m20 1915 201 m 16 X s 1946 201 m 17 X s 1915 193 m 15 Y s 1963 193 m 15 Y s 1939 201 m20 1963 201 m 16 X s 1994 201 m 17 X s 1963 193 m 15 Y s 2011 193 m 15 Y s 1987 201 m20 2011 201 m 16 X s 2042 201 m 17 X s 2011
 193 m 16 Y s 2059 193 m 16 Y s 2035 201 m20 2059 201 m 16 X s 2090 201 m 16 X s 2059 194 m 15 Y s 2106 194 m 15 Y s 2082 201 m20 2130 1195 m 2 Y s 2130 1212 m 1 Y s 2106 1204 m 17 X s 2138 1204 m 16 X s 2123 1195 m 15 X s 2123 1213 m 15 X s 2106
 1197 m 15 Y s 2154 1197 m 15 Y s 2130 1204 m20 1 0 0 c 1 1 1 c 1 0 0 c 262 1166 m 15 Y s 262 1196 m 15 Y s 238 1189 m 16 X s 270 1189 m 16 X s 254 1166 m 16 X s 254 1211 m 16 X s 238 1181 m 15 Y s 286 1181 m 15 Y s 262 1189 m20 286 204 m 16 X s 318
 204 m 16 X s 286 197 m 15 Y s 334 197 m 15 Y s 310 204 m20 334 202 m 16 X s 365 202 m 17 X s 334 195 m 15 Y s 382 195 m 15 Y s 358 202 m20 382 201 m 16 X s 413 201 m 17 X s 382 194 m 15 Y s 430 194 m 15 Y s 406 201 m20 430 202 m 16 X s 461 202 m 17
 X s 430 195 m 15 Y s 478 195 m 15 Y s 454 202 m20 478 201 m 16 X s 509 201 m 17 X s 478 194 m 15 Y s 526 194 m 15 Y s 502 201 m20 526 202 m 16 X s 557 202 m 16 X s 526 195 m 15 Y s 573 195 m 15 Y s 549 202 m20 573 201 m 17 X s 605 201 m 16 X s 573
 194 m 15 Y s 621 194 m 15 Y s 597 201 m20 621 202 m 17 X s 653 202 m 16 X s 621 194 m 15 Y s 669 194 m 15 Y s 645 202 m20 669 202 m 17 X s 701 202 m 16 X s 669 195 m 15 Y s 717 195 m 15 Y s 693 202 m20 765 202 m 16 X s 797 202 m 16 X s 765 194 m 15
 Y s 813 194 m 15 Y s 789 202 m20 813 202 m 16 X s 845 202 m 16 X s 813 195 m 15 Y s 861 195 m 15 Y s 837 202 m20 1053 201 m 16 X s 1084 201 m 16 X s 1053 194 m 15 Y s 1100 194 m 15 Y s 1076 201 m20 1100 201 m 17 X s 1132 201 m 16 X s 1100 194 m 15 Y
 s 1148 194 m 15 Y s 1124 201 m20 1244 201 m 16 X s 1276 201 m 16 X s 1244 194 m 15 Y s 1292 194 m 15 Y s 1268 201 m20 1292 201 m 16 X s 1324 201 m 16 X s 1292 194 m 15 Y s 1340 194 m 15 Y s 1316 201 m20 1388 201 m 16 X s 1419 201 m 17 X s 1388 194 m
 15 Y s 1436 194 m 15 Y s 1412 201 m20 black
 gsave  2268 1672 0 0 C 272.126 1237.54 t 0 r /Helvetica-Bold findfont 49.2982 sf 0 0 m (Kolmogorov\255Smirnov test: signal \(background\) probability =     0 \(    0\)) show NC gr  238 201 m 1916 X s 238 243 m -42 Y s 334 222 m -21 Y s 430 222 m -21
 Y s 526 222 m -21 Y s 621 222 m -21 Y s 717 243 m -42 Y s 813 222 m -21 Y s 909 222 m -21 Y s 1005 222 m -21 Y s 1100 222 m -21 Y s 1196 243 m -42 Y s 1292 222 m -21 Y s 1388 222 m -21 Y s 1484 222 m -21 Y s 1579 222 m -21 Y s 1675 243 m -42 Y s
 1771 222 m -21 Y s 1867 222 m -21 Y s 1963 222 m -21 Y s 2059 222 m -21 Y s 2154 243 m -42 Y s 2154 243 m -42 Y s 238 1505 m 1916 X s 238 1463 m 42 Y s 334 1484 m 21 Y s 430 1484 m 21 Y s 526 1484 m 21 Y s 621 1484 m 21 Y s 717 1463 m 42 Y s 813
 1484 m 21 Y s 909 1484 m 21 Y s 1005 1484 m 21 Y s 1100 1484 m 21 Y s 1196 1463 m 42 Y s 1292 1484 m 21 Y s 1388 1484 m 21 Y s 1484 1484 m 21 Y s 1579 1484 m 21 Y s 1675 1463 m 42 Y s 1771 1484 m 21 Y s 1867 1484 m 21 Y s 1963 1484 m 21 Y s 2059
 1484 m 21 Y s 2154 1463 m 42 Y s 2154 1463 m 42 Y s 238 201 m 1304 Y s 291 201 m -53 X s 265 251 m -27 X s 265 301 m -27 X s 265 351 m -27 X s 265 402 m -27 X s 291 452 m -53 X s 265 502 m -27 X s 265 552 m -27 X s 265 603 m -27 X s 265 653 m -27 X
 s 291 703 m -53 X s 265 754 m -27 X s 265 804 m -27 X s 265 854 m -27 X s 265 904 m -27 X s 291 955 m -53 X s 265 1005 m -27 X s 265 1055 m -27 X s 265 1105 m -27 X s 265 1156 m -27 X s 291 1206 m -53 X s 265 1256 m -27 X s 265 1306 m -27 X s 265
 1357 m -27 X s 265 1407 m -27 X s 291 1457 m -53 X s 291 1457 m -53 X s 2154 201 m 1304 Y s 2101 201 m 53 X s 2128 251 m 26 X s 2128 301 m 26 X s 2128 351 m 26 X s 2128 402 m 26 X s 2101 452 m 53 X s 2128 502 m 26 X s 2128 552 m 26 X s 2128 603 m 26
 X s 2128 653 m 26 X s 2101 703 m 53 X s 2128 754 m 26 X s 2128 804 m 26 X s 2128 854 m 26 X s 2128 904 m 26 X s 2101 955 m 53 X s 2128 1005 m 26 X s 2128 1055 m 26 X s 2128 1105 m 26 X s 2128 1156 m 26 X s 2101 1206 m 53 X s 2128 1256 m 26 X s 2128
 1306 m 26 X s 2128 1357 m 26 X s 2128 1407 m 26 X s 2101 1457 m 53 X s 2101 1457 m 53 X s
 gsave  2268 1672 0 0 C 2211.02 192.32 t 90 r /Helvetica-Bold findfont 45.506 sf 0 0 m (U/O\255flow \(S,B\): \(0.0, 0.0\)% / \(0.0, 0.0\)%) show NC gr  0.490196 0.545098 0.615686 c 0.364706 0.419608 0.490196 c 1587 96 23 1568 bf 0.490196 0.545098
 0.615686 c 23 1568 m 1587 X s 1610 1568 m 96 Y s 1610 1664 m -1587 X s 23 1664 m -96 Y s 1 1 1 c black 1 1 1 c
 gsave  2268 1672 0 0 C 75.8434 1600.29 t 0 r /Helvetica-Bold findfont 56.8825 sf 0 0 m (TMVA overtraining check for classifier: SelectBTracks) show NC gr 
 gr  gr showpage
end
%%EOF
