%!PS-Adobe-2.0 EPSF-2.0
%%BoundingBox:  0 0 567 293
%%Title: dataset/plots/variables_id_c1.eps: Input variables (training sample)
%%Creator: ROOT Version 6.18/00
%%CreationDate: Sun Sep 29 15:46:15 2019
%%DocumentNeededResources: ProcSet (FontSetInit)
%%EndComments
%%BeginProlog
80 dict begin
/s {stroke} def /l {lineto} def /m {moveto} def /t {translate} def
/r {rotate} def /rl {roll}  def /R {repeat} def
/d {rlineto} def /rm {rmoveto} def /gr {grestore} def /f {eofill} def
/c {setrgbcolor} def /black {0 setgray} def /sd {setdash} def
/cl {closepath} def /sf {scalefont setfont} def /lw {setlinewidth} def
/box {m dup 0 exch d exch 0 d 0 exch neg d cl} def
/NC{systemdict begin initclip end}def/C{NC box clip newpath}def
/bl {box s} def /bf {gsave box gsave f grestore 1 lw [] 0 sd s grestore} def /Y { 0 exch d} def /X { 0 d} def 
/K {{pop pop 0 moveto} exch kshow} bind def
/ita {/ang 15 def gsave [1 0 ang dup sin exch cos div 1 0 0] concat} def 
/mp {newpath /y exch def /x exch def} def
/side {[w .77 mul w .23 mul] .385 w mul sd w 0 l currentpoint t -144 r} def
/mr {mp x y w2 0 360 arc} def /m24 {mr s} def /m20 {mr f} def
/mb {mp x y w2 add m w2 neg 0 d 0 w neg d w 0 d 0 w d cl} def
/mt {mp x y w2 add m w2 neg w neg d w 0 d cl} def
/w4 {w 4 div} def
/w6 {w 6 div} def
/w8 {w 8 div} def
/m21 {mb f} def /m25 {mb s} def /m22 {mt f} def /m26{mt s} def
/m23 {mp x y w2 sub m w2 w d w neg 0 d cl f} def
/m27 {mp x y w2 add m w3 neg w2 neg d w3 w2 neg d w3 w2 d cl s} def
/m28 {mp x w2 sub y w2 sub w3 add m w3 0 d  0 w3 neg d w3 0 d 0 w3 d w3 0 d  0 w3 d w3 neg 0 d 0 w3 d w3 neg 0 d 0 w3 neg d w3 neg 0 d cl s } def
/m29 {mp gsave x w2 sub y w2 add w3 sub m currentpoint t 4 {side} repeat cl fill gr} def
/m30 {mp gsave x w2 sub y w2 add w3 sub m currentpoint t 4 {side} repeat cl s gr} def
/m31 {mp x y w2 sub m 0 w d x w2 sub y m w 0 d x w2 sub y w2 add m w w neg d x w2 sub y w2 sub m w w d s} def
/m32 {mp x y w2 sub m w2 w d w neg 0 d cl s} def
/m33 {mp x y w2 add m w3 neg w2 neg d w3 w2 neg d w3 w2 d cl f} def
/m34 {mp x w2 sub y w2 sub w3 add m w3 0 d  0 w3 neg d w3 0 d 0 w3 d w3 0 d  0 w3 d w3 neg 0 d 0 w3 d w3 neg 0 d 0 w3 neg d w3 neg 0 d cl f } def
/m35 {mp x y w2 add m w2 neg w2 neg d w2 w2 neg d w2 w2 d w2 neg w2 d x y w2 sub m 0 w d x w2 sub y m w 0 d s} def
/m36 {mb x w2 sub y w2 add m w w neg d x w2 sub y w2 sub m w w d s} def
/m37 {mp x y m w4 neg w2 d w4 neg w2 neg d w2 0 d  w4 neg w2 neg d w2 0 d w4 neg w2 d w2 0 d w4 neg w2 d w4 neg w2 neg d cl s} def
/m38 {mp x w4 sub y w2 add m w4 neg w4 neg d 0 w2 neg d w4 w4 neg d w2 0 d w4 w4 d 0 w2 d w4 neg w4 d w2 neg 0 d x y w2 sub m 0 w d x w2 sub y m w 0 d cl s} def
/m39 {mp x y m w4 neg w2 d w4 neg w2 neg d w2 0 d  w4 neg w2 neg d w2 0 d w4 neg w2 d w2 0 d w4 neg w2 d w4 neg w2 neg d cl f} def
/m40 {mp x y m w4 w2 d w4 w4 neg d w2 neg w4 neg d w2 w4 neg d w4 neg w4 neg d w4 neg w2 d w4 neg w2 neg d w4 neg w4 d w2 w4 d w2 neg w4 d w4 w4 d w4 w2 neg d cl s} def
/m41 {mp x y m w4 w2 d w4 w4 neg d w2 neg w4 neg d w2 w4 neg d w4 neg w4 neg d w4 neg w2 d w4 neg w2 neg d w4 neg w4 d w2 w4 d w2 neg w4 d w4 w4 d w4 w2 neg d cl f} def
/m42 {mp x y w2 add m w8 neg w2 -3 4 div mul d w2 -3 4 div mul w8 neg d w2 3 4 div mul w8 neg d w8 w2 -3 4 div mul d w8 w2 3 4 div mul d w2 3 4 div mul w8 d w2 -3 4 div mul w8 d w8 neg w2 3 4 div mul d cl s} def
/m43 {mp x y w2 add m w8 neg w2 -3 4 div mul d w2 -3 4 div mul w8 neg d w2 3 4 div mul w8 neg d w8 w2 -3 4 div mul d w8 w2 3 4 div mul d w2 3 4 div mul w8 d w2 -3 4 div mul w8 d w8 neg w2 3 4 div mul d cl f} def
/m44 {mp x y m w6 neg w2 d w2 2 3 div mul 0 d w6 neg w2 neg d w2 w6 d 0 w2 -2 3 div mul d w2 neg w6 d w6 w2 neg d w2 -2 3 div mul 0 d w6 w2 d w2 neg w6 neg d 0 w2 2 3 div mul d w2 w6 neg d cl s} def
/m45 {mp x y m w6 neg w2 d w2 2 3 div mul 0 d w6 neg w2 neg d w2 w6 d 0 w2 -2 3 div mul d w2 neg w6 d w6 w2 neg d w2 -2 3 div mul 0 d w6 w2 d w2 neg w6 neg d 0 w2 2 3 div mul d w2 w6 neg d cl f} def
/m46 {mp x y w4 add m w4 neg w4 d w4 neg w4 neg d  w4 w4 neg d w4 neg w4 neg d w4 w4 neg d w4 w4 d w4 w4 neg d w4 w4 d w4 neg w4 d w4 w4 d w4 neg w4 d w4 neg w4 neg d cl s} def
/m47 {mp x y w4 add m w4 neg w4 d w4 neg w4 neg d w4 w4 neg d w4 neg w4 neg d  w4 w4 neg d w4 w4 d w4 w4 neg d w4 w4 d w4 neg w4 d w4 w4 d w4 neg w4 d w4 neg w4 neg d cl f} def
/m48 {mp x y w4 add m w4 neg w4 d w4 neg w4 neg d w4 w4 neg d  w4 neg w4 neg d w4 w4 neg d w4 w4 d w4 w4 neg d w4 w4 d w4 neg w4 d w4 w4 d w4 neg w4 d w4 neg w4 neg d  w4 w4 neg d w4 neg w4 neg d w4 neg w4 d w4 w4 d cl f} def
/m49 {mp x w2 sub w3 add y w2 sub w3 add m  0 w3 neg d w3 0 d 0 w3 d w3 0 d 0 w3 d w3 neg 0 d 0 w3 d w3 neg 0 d 0 w3 neg d w3 neg 0 d 0 w3 neg d w3 0 d 0 w3 d w3 0 d 0 w3 neg d w3 neg 0 d cl f } def
/m2 {mp x y w2 sub m 0 w d x w2 sub y m w 0 d s} def
/m5 {mp x w2 sub y w2 sub m w w d x w2 sub y w2 add m w w neg d s} def
%%IncludeResource: ProcSet (FontSetInit)
%%IncludeResource: font Times-Roman
%%IncludeResource: font Times-Italic
%%IncludeResource: font Times-Bold
%%IncludeResource: font Times-BoldItalic
%%IncludeResource: font Helvetica
%%IncludeResource: font Helvetica-Oblique
%%IncludeResource: font Helvetica-Bold
%%IncludeResource: font Helvetica-BoldOblique
%%IncludeResource: font Courier
%%IncludeResource: font Courier-Oblique
%%IncludeResource: font Courier-Bold
%%IncludeResource: font Courier-BoldOblique
%%IncludeResource: font Symbol
%%IncludeResource: font ZapfDingbats
/reEncode {exch findfont dup length dict begin {1 index /FID eq  {pop pop} {def} ifelse } forall /Encoding exch def currentdict end dup /FontName get exch definefont pop } def [/Times-Bold /Times-Italic /Times-BoldItalic /Helvetica /Helvetica-Oblique
 /Helvetica-Bold /Helvetica-BoldOblique /Courier /Courier-Oblique /Courier-Bold /Courier-BoldOblique /Times-Roman /AvantGarde-Book /AvantGarde-BookOblique /AvantGarde-Demi /AvantGarde-DemiOblique /Bookman-Demi /Bookman-DemiItalic /Bookman-Light
 /Bookman-LightItalic /Helvetica-Narrow /Helvetica-Narrow-Bold /Helvetica-Narrow-BoldOblique /Helvetica-Narrow-Oblique /NewCenturySchlbk-Roman /NewCenturySchlbk-Bold /NewCenturySchlbk-BoldItalic /NewCenturySchlbk-Italic /Palatino-Bold
 /Palatino-BoldItalic /Palatino-Italic /Palatino-Roman ] {ISOLatin1Encoding reEncode } forall
%%EndProlog
%%BeginSetup
%%EndSetup
newpath  gsave  .25 .25 scale  gsave  0 0 t 0.490196 0.545098 0.615686 c[  ] 0 sd 3 lw 0.941176 0.941176 0.941176 c 2268 1174 0 0 bf 0.490196 0.545098 0.615686 c 0.941176 0.941176 0.941176 c 710 563 23 599 bf black 1 1 0.992157 c 548 426 143 680 bf
 black 548 426 143 680 bl 0 0 0.933333 c 6 lw 0.49 0.6 0.82 c black 3 lw 0.49 0.6 0.82 c 143 680 m 4 Y 14 X 2 Y 14 X 1 Y 14 X -2 Y 13 X 1 Y 14 X 4 Y 27 X 1 Y 14 X 1 Y 14 X -2 Y 13 X 3 Y 14 X 6 Y 14 X 1 Y 13 X 3 Y 14 X 14 Y 14 X 9 Y 13 X 20 Y 14 X 36
 Y 14 X 77 Y 13 X 102 Y 14 X 46 Y 14 X -69 Y 13 X -54 Y 14 X -44 Y 14 X -48 Y 13 X -22 Y 14 X -27 Y 14 X -8 Y 13 X -9 Y 14 X -14 Y 14 X -7 Y 13 X -3 Y 14 X -2 Y 14 X -5 Y 14 X -5 Y 13 X 2 Y 14 X -3 Y 27 X -5 Y 14 X -4 Y 14 X f 6 lw 0 0 0.933333 c
 0.49 0.6 0.82 c 0 0 0.933333 c 143 684 m 14 X 2 Y 14 X 1 Y 14 X -2 Y 13 X 1 Y 14 X 4 Y 27 X 1 Y 14 X 1 Y 14 X -2 Y 13 X 3 Y 14 X 6 Y 14 X 1 Y 13 X 3 Y 14 X 14 Y 14 X 9 Y 13 X 20 Y 14 X 36 Y 14 X 77 Y 13 X 102 Y 14 X 46 Y 14 X -69 Y 13 X -54 Y 14 X
 -44 Y 14 X -48 Y 13 X -22 Y 14 X -27 Y 14 X -8 Y 13 X -9 Y 14 X -14 Y 14 X -7 Y 13 X -3 Y 14 X -2 Y 14 X -5 Y 14 X -5 Y 13 X 2 Y 14 X -3 Y 27 X -5 Y 14 X -4 Y 14 X s black 3 lw 143 680 m 548 X s 215 693 m -13 Y s 232 686 m -6 Y s 250 686 m -6 Y s
 268 686 m -6 Y s 286 686 m -6 Y s 304 693 m -13 Y s 321 686 m -6 Y s 339 686 m -6 Y s 357 686 m -6 Y s 375 686 m -6 Y s 393 693 m -13 Y s 410 686 m -6 Y s 428 686 m -6 Y s 446 686 m -6 Y s 464 686 m -6 Y s 482 693 m -13 Y s 499 686 m -6 Y s 517 686
 m -6 Y s 535 686 m -6 Y s 553 686 m -6 Y s 571 693 m -13 Y s 588 686 m -6 Y s 606 686 m -6 Y s 624 686 m -6 Y s 642 686 m -6 Y s 660 693 m -13 Y s 215 693 m -13 Y s 197 686 m -6 Y s 179 686 m -6 Y s 161 686 m -6 Y s 660 693 m -13 Y s 678 686 m -6 Y
 s
 gsave  710 563 23 599 C 198.923 653.602 t 0 r /Helvetica findfont 25.6068 sf 0 0 m (80) show NC gr 
 gsave  710 563 23 599 C 287.017 653.602 t 0 r /Helvetica findfont 25.6068 sf 0 0 m (85) show NC gr 
 gsave  710 563 23 599 C 377.953 653.602 t 0 r /Helvetica findfont 25.6068 sf 0 0 m (90) show NC gr 
 gsave  710 563 23 599 C 466.047 653.602 t 0 r /Helvetica findfont 25.6068 sf 0 0 m (95) show NC gr 
 gsave  710 563 23 599 C 545.616 653.602 t 0 r /Helvetica findfont 25.6068 sf 0 0 m (100) show NC gr 
 gsave  710 563 23 599 C 636.552 653.602 t 0 r /Helvetica findfont 25.6068 sf 0 0 m (105) show NC gr 
 gsave  710 563 23 599 C 508.673 608.134 t 0 r /Helvetica findfont 28.4519 sf 0 0 m (FatElectron_M) show NC gr  143 1106 m 548 X s 215 1093 m 13 Y s 232 1099 m 7 Y s 250 1099 m 7 Y s 268 1099 m 7 Y s 286 1099 m 7 Y s 304 1093 m 13 Y s 321 1099 m 7 Y
 s 339 1099 m 7 Y s 357 1099 m 7 Y s 375 1099 m 7 Y s 393 1093 m 13 Y s 410 1099 m 7 Y s 428 1099 m 7 Y s 446 1099 m 7 Y s 464 1099 m 7 Y s 482 1093 m 13 Y s 499 1099 m 7 Y s 517 1099 m 7 Y s 535 1099 m 7 Y s 553 1099 m 7 Y s 571 1093 m 13 Y s 588
 1099 m 7 Y s 606 1099 m 7 Y s 624 1099 m 7 Y s 642 1099 m 7 Y s 660 1093 m 13 Y s 215 1093 m 13 Y s 197 1099 m 7 Y s 179 1099 m 7 Y s 161 1099 m 7 Y s 660 1093 m 13 Y s 678 1099 m 7 Y s 143 680 m 426 Y s 160 680 m -17 X s 152 689 m -9 X s 152 698 m
 -9 X s 152 707 m -9 X s 160 716 m -17 X s 152 725 m -9 X s 152 734 m -9 X s 152 743 m -9 X s 160 752 m -17 X s 152 761 m -9 X s 152 770 m -9 X s 152 779 m -9 X s 160 788 m -17 X s 152 797 m -9 X s 152 806 m -9 X s 152 815 m -9 X s 160 824 m -17 X s
 152 833 m -9 X s 152 842 m -9 X s 152 851 m -9 X s 160 860 m -17 X s 152 869 m -9 X s 152 878 m -9 X s 152 887 m -9 X s 160 896 m -17 X s 152 905 m -9 X s 152 914 m -9 X s 152 923 m -9 X s 160 932 m -17 X s 152 941 m -9 X s 152 950 m -9 X s 152 960
 m -9 X s 160 969 m -17 X s 152 978 m -9 X s 152 987 m -9 X s 152 996 m -9 X s 160 1005 m -17 X s 152 1014 m -9 X s 152 1023 m -9 X s 152 1032 m -9 X s 160 1041 m -17 X s 152 1050 m -9 X s 152 1059 m -9 X s 152 1068 m -9 X s 160 1077 m -17 X s 160
 1077 m -17 X s 152 1086 m -9 X s 152 1095 m -9 X s 152 1104 m -9 X s
 gsave  710 563 23 599 C 119.354 670.653 t 0 r /Helvetica findfont 25.6068 sf 0 0 m (0) show NC gr 
 gsave  710 563 23 599 C 85.2525 704.754 t 0 r /Helvetica findfont 25.6068 sf 0 0 m (0.02) show NC gr 
 gsave  710 563 23 599 C 85.2525 741.697 t 0 r /Helvetica findfont 25.6068 sf 0 0 m (0.04) show NC gr 
 gsave  710 563 23 599 C 85.2525 778.639 t 0 r /Helvetica findfont 25.6068 sf 0 0 m (0.06) show NC gr 
 gsave  710 563 23 599 C 85.2525 812.74 t 0 r /Helvetica findfont 25.6068 sf 0 0 m (0.08) show NC gr 
 gsave  710 563 23 599 C 102.303 849.683 t 0 r /Helvetica findfont 25.6068 sf 0 0 m (0.1) show NC gr 
 gsave  710 563 23 599 C 85.2525 886.626 t 0 r /Helvetica findfont 25.6068 sf 0 0 m (0.12) show NC gr 
 gsave  710 563 23 599 C 85.2525 923.569 t 0 r /Helvetica findfont 25.6068 sf 0 0 m (0.14) show NC gr 
 gsave  710 563 23 599 C 85.2525 957.67 t 0 r /Helvetica findfont 25.6068 sf 0 0 m (0.16) show NC gr 
 gsave  710 563 23 599 C 85.2525 994.612 t 0 r /Helvetica findfont 25.6068 sf 0 0 m (0.18) show NC gr 
 gsave  710 563 23 599 C 99.4613 1031.56 t 0 r /Helvetica findfont 25.6068 sf 0 0 m (0.2) show NC gr 
 gsave  710 563 23 599 C 85.2525 1065.66 t 0 r /Helvetica findfont 25.6068 sf 0 0 m (0.22) show NC gr 
 gsave  710 563 23 599 C 45.468 1031.56 t 90 r /Helvetica findfont 28.4519 sf 0 0 m (0.768 ) show NC gr 
 gsave  710 563 23 599 C 31.2593 1028.71 t 90 r /Helvetica findfont 19.9164 sf 0 0 m ( ) show NC gr 
 gsave  710 563 23 599 C 45.468 1017.35 t 90 r /Helvetica findfont 28.4519 sf 0 0 m (/) show NC gr 
 gsave  710 563 23 599 C 53.9933 1014.5 t 90 r /Helvetica findfont 19.9164 sf 0 0 m ( ) show NC gr 
 gsave  710 563 23 599 C 45.468 909.36 t 90 r /Helvetica findfont 28.4519 sf 0 0 m (\(1/N\) dN) show NC gr  691 680 m 426 Y s 674 680 m 17 X s 683 689 m 8 X s 683 698 m 8 X s 683 707 m 8 X s 674 716 m 17 X s 683 725 m 8 X s 683 734 m 8 X s 683 743 m
 8 X s 674 752 m 17 X s 683 761 m 8 X s 683 770 m 8 X s 683 779 m 8 X s 674 788 m 17 X s 683 797 m 8 X s 683 806 m 8 X s 683 815 m 8 X s 674 824 m 17 X s 683 833 m 8 X s 683 842 m 8 X s 683 851 m 8 X s 674 860 m 17 X s 683 869 m 8 X s 683 878 m 8 X s
 683 887 m 8 X s 674 896 m 17 X s 683 905 m 8 X s 683 914 m 8 X s 683 923 m 8 X s 674 932 m 17 X s 683 941 m 8 X s 683 950 m 8 X s 683 960 m 8 X s 674 969 m 17 X s 683 978 m 8 X s 683 987 m 8 X s 683 996 m 8 X s 674 1005 m 17 X s 683 1014 m 8 X s 683
 1023 m 8 X s 683 1032 m 8 X s 674 1041 m 17 X s 683 1050 m 8 X s 683 1059 m 8 X s 683 1068 m 8 X s 674 1077 m 17 X s 674 1077 m 17 X s 683 1086 m 8 X s 683 1095 m 8 X s 683 1104 m 8 X s 0.490196 0.545098 0.615686 c 0.364706 0.419608 0.490196 c 415
 37 30 1122 bf 0.490196 0.545098 0.615686 c 30 1122 m 415 X s 445 1122 m 37 Y s 445 1159 m -415 X s 30 1159 m -37 Y s 1 1 1 c black 1 1 1 c
 gsave  710 563 23 599 C 34.101 1133.86 t 0 r /Helvetica-Bold findfont 28.4519 sf 0 0 m (Input variable: FatElectron_M) show NC gr  1 0 0 c 6 lw black 3 lw 1 0 0 c 677 680 m -1 X s 674 693 m -13 -13 d s 659 693 m -13 -13 d s 650 698 m -19 -18 d s 639
 703 m -23 -23 d s 627 706 m -26 -26 d s 610 705 m -24 -25 d s 595 704 m -24 -24 d s 582 706 m -1 -1 d s 580 705 m -24 -25 d s 566 706 m -25 -26 d s 554 708 m -29 -28 d s 547 716 m -7 -6 d s 536 706 m -26 -26 d s 521 706 m -26 -26 d s 513 712 m -33
 -32 d s 508 722 m -43 -42 d s 488 718 m -38 -38 d s 479 724 m -44 -44 d s 453 713 m -33 -33 d s 444 719 m -39 -39 d s 442 732 m -52 -52 d s 428 733 m -53 -53 d s 417 737 m -57 -57 d s 405 740 m -2 -1 d s 399 734 m -54 -54 d s 380 731 m -4 -5 d s 375
 726 m -46 -46 d s 362 728 m -48 -48 d s 362 743 m -63 -63 d s 351 747 m -67 -67 d s 343 754 m -8 -8 d s 334 745 m -65 -65 d s 321 747 m -67 -67 d s 311 752 m -72 -72 d s 296 752 m -72 -72 d s 293 764 m -84 -84 d s 280 767 m -86 -87 d s 262 764 m -83
 -84 d s 250 766 m -86 -86 d s 239 771 m -90 -91 d s 234 780 m -91 -90 d s 223 785 m -80 -80 d s 212 789 m -69 -69 d s 198 790 m -55 -55 d s 195 802 m -52 -52 d s 176 798 m -33 -33 d s 171 808 m -28 -27 d s 171 823 m -28 -27 d s 171 838 m -14 -13 d s
 147 815 m -4 -4 d s 6 lw 143 815 m 14 X 25 Y 14 X -42 Y 14 X 4 Y 13 X -12 Y 14 X -5 Y 14 X -5 Y 13 X -14 Y 14 X -2 Y 14 X 3 Y 13 X -3 Y 14 X -12 Y 27 X -7 Y 14 X 9 Y 14 X -7 Y 13 X -21 Y 14 X 5 Y 14 X 3 Y 13 X 6 Y 14 X -7 Y 14 X -1 Y 13 X -19 Y 14 X
 5 Y 14 X 6 Y 13 X -6 Y 14 X 4 Y 14 X -16 Y 27 X 10 Y 14 X -10 Y 13 X -1 Y 14 X 1 Y 14 X -3 Y 14 X 2 Y 13 X 1 Y 14 X -3 Y 14 X -10 Y 27 X -13 Y 14 X s 0.490196 0.545098 0.615686 c 3 lw 1 1 1 c 0.490196 0.545098 0.615686 c 285 85 143 1021 bl 143 1021
 m 285 X s 428 1021 m 85 Y s 428 1106 m -285 X s 143 1106 m -85 Y s black
 gsave  710 563 23 599 C 227.34 1077.02 t 0 r /Helvetica-Bold findfont 31.2971 sf 0 0 m (Signal) show NC gr  0.49 0.6 0.82 c 156 1070 m 60 X 29 Y -60 X f 0 0 0.933333 c 6 lw 156 1099 m 60 X s 156 1070 m 60 X s 216 1070 m 29 Y s 156 1070 m 29 Y s
 black
 gsave  710 563 23 599 C 227.34 1034.4 t 0 r /Helvetica-Bold findfont 31.2971 sf 0 0 m (Background) show NC gr  1 0 0 c 3 lw 216 1035 m -8 -8 d s 216 1050 m -23 -23 d s 207 1057 m -29 -30 d s 192 1057 m -29 -30 d s 177 1057 m -21 -21 d s 162 1057 m
 -6 -6 d s 6 lw 0 0 0.933333 c 1 0 0 c 156 1057 m 60 X s 156 1027 m 60 X s 216 1027 m 30 Y s 156 1027 m 30 Y s black 3 lw 143 680 m 548 X s 215 693 m -13 Y s 232 686 m -6 Y s 250 686 m -6 Y s 268 686 m -6 Y s 286 686 m -6 Y s 304 693 m -13 Y s 321
 686 m -6 Y s 339 686 m -6 Y s 357 686 m -6 Y s 375 686 m -6 Y s 393 693 m -13 Y s 410 686 m -6 Y s 428 686 m -6 Y s 446 686 m -6 Y s 464 686 m -6 Y s 482 693 m -13 Y s 499 686 m -6 Y s 517 686 m -6 Y s 535 686 m -6 Y s 553 686 m -6 Y s 571 693 m -13
 Y s 588 686 m -6 Y s 606 686 m -6 Y s 624 686 m -6 Y s 642 686 m -6 Y s 660 693 m -13 Y s 215 693 m -13 Y s 197 686 m -6 Y s 179 686 m -6 Y s 161 686 m -6 Y s 660 693 m -13 Y s 678 686 m -6 Y s 143 1106 m 548 X s 215 1093 m 13 Y s 232 1099 m 7 Y s
 250 1099 m 7 Y s 268 1099 m 7 Y s 286 1099 m 7 Y s 304 1093 m 13 Y s 321 1099 m 7 Y s 339 1099 m 7 Y s 357 1099 m 7 Y s 375 1099 m 7 Y s 393 1093 m 13 Y s 410 1099 m 7 Y s 428 1099 m 7 Y s 446 1099 m 7 Y s 464 1099 m 7 Y s 482 1093 m 13 Y s 499 1099
 m 7 Y s 517 1099 m 7 Y s 535 1099 m 7 Y s 553 1099 m 7 Y s 571 1093 m 13 Y s 588 1099 m 7 Y s 606 1099 m 7 Y s 624 1099 m 7 Y s 642 1099 m 7 Y s 660 1093 m 13 Y s 215 1093 m 13 Y s 197 1099 m 7 Y s 179 1099 m 7 Y s 161 1099 m 7 Y s 660 1093 m 13 Y s
 678 1099 m 7 Y s 143 680 m 426 Y s 160 680 m -17 X s 152 689 m -9 X s 152 698 m -9 X s 152 707 m -9 X s 160 716 m -17 X s 152 725 m -9 X s 152 734 m -9 X s 152 743 m -9 X s 160 752 m -17 X s 152 761 m -9 X s 152 770 m -9 X s 152 779 m -9 X s 160 788
 m -17 X s 152 797 m -9 X s 152 806 m -9 X s 152 815 m -9 X s 160 824 m -17 X s 152 833 m -9 X s 152 842 m -9 X s 152 851 m -9 X s 160 860 m -17 X s 152 869 m -9 X s 152 878 m -9 X s 152 887 m -9 X s 160 896 m -17 X s 152 905 m -9 X s 152 914 m -9 X
 s 152 923 m -9 X s 160 932 m -17 X s 152 941 m -9 X s 152 950 m -9 X s 152 960 m -9 X s 160 969 m -17 X s 152 978 m -9 X s 152 987 m -9 X s 152 996 m -9 X s 160 1005 m -17 X s 152 1014 m -9 X s 152 1023 m -9 X s 152 1032 m -9 X s 160 1041 m -17 X s
 152 1050 m -9 X s 152 1059 m -9 X s 152 1068 m -9 X s 160 1077 m -17 X s 160 1077 m -17 X s 152 1086 m -9 X s 152 1095 m -9 X s 152 1104 m -9 X s 691 680 m 426 Y s 674 680 m 17 X s 683 689 m 8 X s 683 698 m 8 X s 683 707 m 8 X s 674 716 m 17 X s 683
 725 m 8 X s 683 734 m 8 X s 683 743 m 8 X s 674 752 m 17 X s 683 761 m 8 X s 683 770 m 8 X s 683 779 m 8 X s 674 788 m 17 X s 683 797 m 8 X s 683 806 m 8 X s 683 815 m 8 X s 674 824 m 17 X s 683 833 m 8 X s 683 842 m 8 X s 683 851 m 8 X s 674 860 m
 17 X s 683 869 m 8 X s 683 878 m 8 X s 683 887 m 8 X s 674 896 m 17 X s 683 905 m 8 X s 683 914 m 8 X s 683 923 m 8 X s 674 932 m 17 X s 683 941 m 8 X s 683 950 m 8 X s 683 960 m 8 X s 674 969 m 17 X s 683 978 m 8 X s 683 987 m 8 X s 683 996 m 8 X s
 674 1005 m 17 X s 683 1014 m 8 X s 683 1023 m 8 X s 683 1032 m 8 X s 674 1041 m 17 X s 683 1050 m 8 X s 683 1059 m 8 X s 683 1068 m 8 X s 674 1077 m 17 X s 674 1077 m 17 X s 683 1086 m 8 X s 683 1095 m 8 X s 683 1104 m 8 X s
 gsave  710 563 23 599 C 719.017 677.427 t 90 r /Helvetica-Bold findfont 19.9164 sf 0 0 m (U/O\255flow \(S,B\): \(0.0, 0.0\)% / \(0.0, 0.0\)%) show NC gr  0.490196 0.545098 0.615686 c 0.364706 0.419608 0.490196 c 415 37 30 1122 bf 0.490196 0.545098
 0.615686 c 30 1122 m 415 X s 445 1122 m 37 Y s 445 1159 m -415 X s 30 1159 m -37 Y s 1 1 1 c black 1 1 1 c
 gsave  710 563 23 599 C 34.101 1133.86 t 0 r /Helvetica-Bold findfont 28.4519 sf 0 0 m (Input variable: FatElectron_M) show NC gr  0.490196 0.545098 0.615686 c 0.941176 0.941176 0.941176 c 710 563 779 599 bf black 1 1 0.992157 c 548 426 899 680 bf
 black 548 426 899 680 bl 0 0 0.933333 c 6 lw 0.49 0.6 0.82 c black 3 lw 0.49 0.6 0.82 c 899 680 m 387 Y 14 X -387 Y 14 X 27 Y 13 X -27 Y 14 X 4 Y 14 X -4 Y 27 X 1 Y 14 X -1 Y 438 X f 6 lw 0 0 0.933333 c 0.49 0.6 0.82 c 0 0 0.933333 c 899 1067 m 14 X
 -387 Y 14 X 27 Y 13 X -27 Y 14 X 4 Y 14 X -4 Y 27 X 1 Y 14 X -1 Y 438 X s black 3 lw 899 680 m 548 X s 899 693 m -13 Y s 916 686 m -6 Y s 933 686 m -6 Y s 949 686 m -6 Y s 966 693 m -13 Y s 982 686 m -6 Y s 999 686 m -6 Y s 1015 686 m -6 Y s 1032
 693 m -13 Y s 1048 686 m -6 Y s 1065 686 m -6 Y s 1082 686 m -6 Y s 1098 693 m -13 Y s 1115 686 m -6 Y s 1131 686 m -6 Y s 1148 686 m -6 Y s 1164 693 m -13 Y s 1181 686 m -6 Y s 1197 686 m -6 Y s 1214 686 m -6 Y s 1231 693 m -13 Y s 1247 686 m -6 Y
 s 1264 686 m -6 Y s 1280 686 m -6 Y s 1297 693 m -13 Y s 1313 686 m -6 Y s 1330 686 m -6 Y s 1347 686 m -6 Y s 1363 693 m -13 Y s 1380 686 m -6 Y s 1396 686 m -6 Y s 1413 686 m -6 Y s 1429 693 m -13 Y s 1429 693 m -13 Y s 1446 686 m -6 Y s
 gsave  710 563 779 599 C 889.468 653.602 t 0 r /Helvetica findfont 25.6068 sf 0 0 m (2) show NC gr 
 gsave  710 563 779 599 C 954.828 653.602 t 0 r /Helvetica findfont 25.6068 sf 0 0 m (4) show NC gr 
 gsave  710 563 779 599 C 1023.03 653.602 t 0 r /Helvetica findfont 25.6068 sf 0 0 m (6) show NC gr 
 gsave  710 563 779 599 C 1088.39 653.602 t 0 r /Helvetica findfont 25.6068 sf 0 0 m (8) show NC gr 
 gsave  710 563 779 599 C 1148.07 653.602 t 0 r /Helvetica findfont 25.6068 sf 0 0 m (10) show NC gr 
 gsave  710 563 779 599 C 1216.27 653.602 t 0 r /Helvetica findfont 25.6068 sf 0 0 m (12) show NC gr 
 gsave  710 563 779 599 C 1281.63 653.602 t 0 r /Helvetica findfont 25.6068 sf 0 0 m (14) show NC gr 
 gsave  710 563 779 599 C 1346.99 653.602 t 0 r /Helvetica findfont 25.6068 sf 0 0 m (16) show NC gr 
 gsave  710 563 779 599 C 1412.35 653.602 t 0 r /Helvetica findfont 25.6068 sf 0 0 m (18) show NC gr 
 gsave  710 563 779 599 C 1227.64 608.134 t 0 r /Helvetica findfont 28.4519 sf 0 0 m (FatElectron_ntrks) show NC gr  899 1106 m 548 X s 899 1093 m 13 Y s 916 1099 m 7 Y s 933 1099 m 7 Y s 949 1099 m 7 Y s 966 1093 m 13 Y s 982 1099 m 7 Y s 999 1099 m
 7 Y s 1015 1099 m 7 Y s 1032 1093 m 13 Y s 1048 1099 m 7 Y s 1065 1099 m 7 Y s 1082 1099 m 7 Y s 1098 1093 m 13 Y s 1115 1099 m 7 Y s 1131 1099 m 7 Y s 1148 1099 m 7 Y s 1164 1093 m 13 Y s 1181 1099 m 7 Y s 1197 1099 m 7 Y s 1214 1099 m 7 Y s 1231
 1093 m 13 Y s 1247 1099 m 7 Y s 1264 1099 m 7 Y s 1280 1099 m 7 Y s 1297 1093 m 13 Y s 1313 1099 m 7 Y s 1330 1099 m 7 Y s 1347 1099 m 7 Y s 1363 1093 m 13 Y s 1380 1099 m 7 Y s 1396 1099 m 7 Y s 1413 1099 m 7 Y s 1429 1093 m 13 Y s 1429 1093 m 13 Y
 s 1446 1099 m 7 Y s 899 680 m 426 Y s 915 680 m -16 X s 907 688 m -8 X s 907 697 m -8 X s 907 706 m -8 X s 915 714 m -16 X s 907 723 m -8 X s 907 732 m -8 X s 907 740 m -8 X s 915 749 m -16 X s 907 758 m -8 X s 907 766 m -8 X s 907 775 m -8 X s 915
 784 m -16 X s 907 792 m -8 X s 907 801 m -8 X s 907 810 m -8 X s 915 818 m -16 X s 907 827 m -8 X s 907 836 m -8 X s 907 845 m -8 X s 915 853 m -16 X s 907 862 m -8 X s 907 871 m -8 X s 907 879 m -8 X s 915 888 m -16 X s 907 897 m -8 X s 907 905 m
 -8 X s 907 914 m -8 X s 915 923 m -16 X s 907 931 m -8 X s 907 940 m -8 X s 907 949 m -8 X s 915 957 m -16 X s 907 966 m -8 X s 907 975 m -8 X s 907 983 m -8 X s 915 992 m -16 X s 907 1001 m -8 X s 907 1009 m -8 X s 907 1018 m -8 X s 915 1027 m -16
 X s 907 1035 m -8 X s 907 1044 m -8 X s 907 1053 m -8 X s 915 1061 m -16 X s 907 1070 m -8 X s 907 1079 m -8 X s 907 1087 m -8 X s 915 1096 m -16 X s 915 1096 m -16 X s 907 1105 m -8 X s
 gsave  710 563 779 599 C 875.259 670.653 t 0 r /Helvetica findfont 25.6068 sf 0 0 m (0) show NC gr 
 gsave  710 563 779 599 C 855.367 704.754 t 0 r /Helvetica findfont 25.6068 sf 0 0 m (0.2) show NC gr 
 gsave  710 563 779 599 C 855.367 738.855 t 0 r /Helvetica findfont 25.6068 sf 0 0 m (0.4) show NC gr 
 gsave  710 563 779 599 C 855.367 772.956 t 0 r /Helvetica findfont 25.6068 sf 0 0 m (0.6) show NC gr 
 gsave  710 563 779 599 C 855.367 809.899 t 0 r /Helvetica findfont 25.6068 sf 0 0 m (0.8) show NC gr 
 gsave  710 563 779 599 C 878.101 844 t 0 r /Helvetica findfont 25.6068 sf 0 0 m (1) show NC gr 
 gsave  710 563 779 599 C 855.367 878.101 t 0 r /Helvetica findfont 25.6068 sf 0 0 m (1.2) show NC gr 
 gsave  710 563 779 599 C 855.367 912.202 t 0 r /Helvetica findfont 25.6068 sf 0 0 m (1.4) show NC gr 
 gsave  710 563 779 599 C 855.367 946.303 t 0 r /Helvetica findfont 25.6068 sf 0 0 m (1.6) show NC gr 
 gsave  710 563 779 599 C 855.367 983.245 t 0 r /Helvetica findfont 25.6068 sf 0 0 m (1.8) show NC gr 
 gsave  710 563 779 599 C 875.259 1017.35 t 0 r /Helvetica findfont 25.6068 sf 0 0 m (2) show NC gr 
 gsave  710 563 779 599 C 855.367 1051.45 t 0 r /Helvetica findfont 25.6068 sf 0 0 m (2.2) show NC gr 
 gsave  710 563 779 599 C 855.367 1085.55 t 0 r /Helvetica findfont 25.6068 sf 0 0 m (2.4) show NC gr 
 gsave  710 563 779 599 C 801.374 1031.56 t 90 r /Helvetica findfont 28.4519 sf 0 0 m (0.413 ) show NC gr 
 gsave  710 563 779 599 C 787.165 1028.71 t 90 r /Helvetica findfont 19.9164 sf 0 0 m ( ) show NC gr 
 gsave  710 563 779 599 C 801.374 1017.35 t 90 r /Helvetica findfont 28.4519 sf 0 0 m (/) show NC gr 
 gsave  710 563 779 599 C 809.899 1014.5 t 90 r /Helvetica findfont 19.9164 sf 0 0 m ( ) show NC gr 
 gsave  710 563 779 599 C 801.374 909.36 t 90 r /Helvetica findfont 28.4519 sf 0 0 m (\(1/N\) dN) show NC gr  1447 680 m 426 Y s 1430 680 m 17 X s 1438 688 m 9 X s 1438 697 m 9 X s 1438 706 m 9 X s 1430 714 m 17 X s 1438 723 m 9 X s 1438 732 m 9 X s
 1438 740 m 9 X s 1430 749 m 17 X s 1438 758 m 9 X s 1438 766 m 9 X s 1438 775 m 9 X s 1430 784 m 17 X s 1438 792 m 9 X s 1438 801 m 9 X s 1438 810 m 9 X s 1430 818 m 17 X s 1438 827 m 9 X s 1438 836 m 9 X s 1438 845 m 9 X s 1430 853 m 17 X s 1438
 862 m 9 X s 1438 871 m 9 X s 1438 879 m 9 X s 1430 888 m 17 X s 1438 897 m 9 X s 1438 905 m 9 X s 1438 914 m 9 X s 1430 923 m 17 X s 1438 931 m 9 X s 1438 940 m 9 X s 1438 949 m 9 X s 1430 957 m 17 X s 1438 966 m 9 X s 1438 975 m 9 X s 1438 983 m 9
 X s 1430 992 m 17 X s 1438 1001 m 9 X s 1438 1009 m 9 X s 1438 1018 m 9 X s 1430 1027 m 17 X s 1438 1035 m 9 X s 1438 1044 m 9 X s 1438 1053 m 9 X s 1430 1061 m 17 X s 1438 1070 m 9 X s 1438 1079 m 9 X s 1438 1087 m 9 X s 1430 1096 m 17 X s 1430
 1096 m 17 X s 1438 1105 m 9 X s 0.490196 0.545098 0.615686 c 0.364706 0.419608 0.490196 c 460 37 786 1122 bf 0.490196 0.545098 0.615686 c 786 1122 m 460 X s 1246 1122 m 37 Y s 1246 1159 m -460 X s 786 1159 m -37 Y s 1 1 1 c black 1 1 1 c
 gsave  710 563 779 599 C 790.007 1133.86 t 0 r /Helvetica-Bold findfont 28.4519 sf 0 0 m (Input variable: FatElectron_ntrks) show NC gr  1 0 0 c 6 lw black 3 lw 1 0 0 c 1432 680 m s 1417 680 m s 1402 680 m s 1387 680 m s 1372 680 m s 1357 680 m s
 1342 680 m s 1327 680 m s 1311 680 m s 1299 682 m -3 -2 d s 1281 680 m s 1269 682 m -3 -2 d s 1251 680 m cl s 1241 685 m -5 -5 d s 1230 688 m -2 -2 d s 1221 680 m cl s 1206 680 m s 1200 689 m -9 -9 d s 1194 698 m -7 -7 d s 1176 680 m s 1173 692 m
 -12 -12 d s 1171 705 m -12 -12 d s 1146 680 m s 1132 681 m -1 -1 d s 1132 696 m -14 -14 d s 1116 680 m s 1132 711 m -14 -13 d s 1105 684 m -5 -4 d s 1124 718 m -6 -5 d s 1105 699 m -14 -14 d s 1085 680 m s 1105 714 m -14 -14 d s 1077 687 m -7 -7 d s
 1105 729 m -14 -14 d s 1077 702 m -13 -14 d s 1055 680 m s 1077 717 m -13 -14 d s 1040 680 m s 1077 732 m -13 -14 d s 1036 691 m -11 -11 d s 1067 737 m -3 -4 d s 1036 706 m -14 -14 d s 1010 680 m s 1036 721 m -14 -14 d s 1009 694 m -14 -14 d s 995
 680 m cl s 1036 736 m -14 -14 d s 1009 709 m -14 -14 d s 980 680 m cl s 1026 742 m -4 -4 d s 1009 724 m -14 -14 d s 968 683 m -3 -3 d s 1009 739 m -14 -14 d s 968 698 m -14 -14 d s 950 680 m s 996 741 m -1 -1 d s 968 713 m -14 -14 d s 940 685 m -5
 -5 d s 961 722 m -7 -8 d s 940 701 m -13 -14 d s 920 680 m cl s 933 709 m -6 -7 d s 913 688 m -8 -8 d s 909 699 m -10 -9 d s 6 lw 899 699 m 14 X -19 Y 14 X 29 Y 13 X -29 Y 14 X 42 Y 14 X -42 Y 27 X 61 Y 14 X -61 Y 13 X 62 Y 14 X -62 Y 28 X 57 Y 13 X
 -57 Y 14 X 50 Y 14 X -50 Y 13 X 38 Y 14 X -38 Y 27 X 25 Y 14 X -25 Y 14 X 18 Y 13 X -18 Y 28 X 8 Y 13 X -8 Y 14 X 3 Y 14 X -3 Y 27 X 2 Y 14 X -2 Y 137 X s black 3 lw 899 680 m 548 X s 899 693 m -13 Y s 916 686 m -6 Y s 933 686 m -6 Y s 949 686 m -6
 Y s 966 693 m -13 Y s 982 686 m -6 Y s 999 686 m -6 Y s 1015 686 m -6 Y s 1032 693 m -13 Y s 1048 686 m -6 Y s 1065 686 m -6 Y s 1082 686 m -6 Y s 1098 693 m -13 Y s 1115 686 m -6 Y s 1131 686 m -6 Y s 1148 686 m -6 Y s 1164 693 m -13 Y s 1181 686 m
 -6 Y s 1197 686 m -6 Y s 1214 686 m -6 Y s 1231 693 m -13 Y s 1247 686 m -6 Y s 1264 686 m -6 Y s 1280 686 m -6 Y s 1297 693 m -13 Y s 1313 686 m -6 Y s 1330 686 m -6 Y s 1347 686 m -6 Y s 1363 693 m -13 Y s 1380 686 m -6 Y s 1396 686 m -6 Y s 1413
 686 m -6 Y s 1429 693 m -13 Y s 1429 693 m -13 Y s 1446 686 m -6 Y s 899 1106 m 548 X s 899 1093 m 13 Y s 916 1099 m 7 Y s 933 1099 m 7 Y s 949 1099 m 7 Y s 966 1093 m 13 Y s 982 1099 m 7 Y s 999 1099 m 7 Y s 1015 1099 m 7 Y s 1032 1093 m 13 Y s
 1048 1099 m 7 Y s 1065 1099 m 7 Y s 1082 1099 m 7 Y s 1098 1093 m 13 Y s 1115 1099 m 7 Y s 1131 1099 m 7 Y s 1148 1099 m 7 Y s 1164 1093 m 13 Y s 1181 1099 m 7 Y s 1197 1099 m 7 Y s 1214 1099 m 7 Y s 1231 1093 m 13 Y s 1247 1099 m 7 Y s 1264 1099 m
 7 Y s 1280 1099 m 7 Y s 1297 1093 m 13 Y s 1313 1099 m 7 Y s 1330 1099 m 7 Y s 1347 1099 m 7 Y s 1363 1093 m 13 Y s 1380 1099 m 7 Y s 1396 1099 m 7 Y s 1413 1099 m 7 Y s 1429 1093 m 13 Y s 1429 1093 m 13 Y s 1446 1099 m 7 Y s 899 680 m 426 Y s 915
 680 m -16 X s 907 688 m -8 X s 907 697 m -8 X s 907 706 m -8 X s 915 714 m -16 X s 907 723 m -8 X s 907 732 m -8 X s 907 740 m -8 X s 915 749 m -16 X s 907 758 m -8 X s 907 766 m -8 X s 907 775 m -8 X s 915 784 m -16 X s 907 792 m -8 X s 907 801 m
 -8 X s 907 810 m -8 X s 915 818 m -16 X s 907 827 m -8 X s 907 836 m -8 X s 907 845 m -8 X s 915 853 m -16 X s 907 862 m -8 X s 907 871 m -8 X s 907 879 m -8 X s 915 888 m -16 X s 907 897 m -8 X s 907 905 m -8 X s 907 914 m -8 X s 915 923 m -16 X s
 907 931 m -8 X s 907 940 m -8 X s 907 949 m -8 X s 915 957 m -16 X s 907 966 m -8 X s 907 975 m -8 X s 907 983 m -8 X s 915 992 m -16 X s 907 1001 m -8 X s 907 1009 m -8 X s 907 1018 m -8 X s 915 1027 m -16 X s 907 1035 m -8 X s 907 1044 m -8 X s
 907 1053 m -8 X s 915 1061 m -16 X s 907 1070 m -8 X s 907 1079 m -8 X s 907 1087 m -8 X s 915 1096 m -16 X s 915 1096 m -16 X s 907 1105 m -8 X s 1447 680 m 426 Y s 1430 680 m 17 X s 1438 688 m 9 X s 1438 697 m 9 X s 1438 706 m 9 X s 1430 714 m 17
 X s 1438 723 m 9 X s 1438 732 m 9 X s 1438 740 m 9 X s 1430 749 m 17 X s 1438 758 m 9 X s 1438 766 m 9 X s 1438 775 m 9 X s 1430 784 m 17 X s 1438 792 m 9 X s 1438 801 m 9 X s 1438 810 m 9 X s 1430 818 m 17 X s 1438 827 m 9 X s 1438 836 m 9 X s 1438
 845 m 9 X s 1430 853 m 17 X s 1438 862 m 9 X s 1438 871 m 9 X s 1438 879 m 9 X s 1430 888 m 17 X s 1438 897 m 9 X s 1438 905 m 9 X s 1438 914 m 9 X s 1430 923 m 17 X s 1438 931 m 9 X s 1438 940 m 9 X s 1438 949 m 9 X s 1430 957 m 17 X s 1438 966 m 9
 X s 1438 975 m 9 X s 1438 983 m 9 X s 1430 992 m 17 X s 1438 1001 m 9 X s 1438 1009 m 9 X s 1438 1018 m 9 X s 1430 1027 m 17 X s 1438 1035 m 9 X s 1438 1044 m 9 X s 1438 1053 m 9 X s 1430 1061 m 17 X s 1438 1070 m 9 X s 1438 1079 m 9 X s 1438 1087 m
 9 X s 1430 1096 m 17 X s 1430 1096 m 17 X s 1438 1105 m 9 X s
 gsave  710 563 779 599 C 1474.92 677.427 t 90 r /Helvetica-Bold findfont 19.9164 sf 0 0 m (U/O\255flow \(S,B\): \(0.0, 0.0\)% / \(0.0, 0.1\)%) show NC gr  0.490196 0.545098 0.615686 c 0.364706 0.419608 0.490196 c 460 37 786 1122 bf 0.490196 0.545098
 0.615686 c 786 1122 m 460 X s 1246 1122 m 37 Y s 1246 1159 m -460 X s 786 1159 m -37 Y s 1 1 1 c black 1 1 1 c
 gsave  710 563 779 599 C 790.007 1133.86 t 0 r /Helvetica-Bold findfont 28.4519 sf 0 0 m (Input variable: FatElectron_ntrks) show NC gr  0.490196 0.545098 0.615686 c 0.941176 0.941176 0.941176 c 711 563 1534 599 bf black 1 1 0.992157 c 547 426 1655
 680 bf black 547 426 1655 680 bl 0 0 0.933333 c 6 lw 0.49 0.6 0.82 c black 3 lw 0.49 0.6 0.82 c 1655 680 m 137 X 1 Y 55 X -1 Y 13 X 1 Y 14 X 1 Y 14 X 3 Y 13 X 1 Y 14 X 1 Y 14 X -1 Y 14 X -1 Y 27 X -1 Y 14 X -1 Y 27 X -1 Y 14 X 2 Y 13 X 1 Y 14 X 1 Y
 14 X 36 Y 13 X 345 Y 14 X -387 Y 109 X f 6 lw 0 0 0.933333 c 0.49 0.6 0.82 c 0 0 0.933333 c 1655 680 m 137 X 1 Y 55 X -1 Y 13 X 1 Y 14 X 1 Y 14 X 3 Y 13 X 1 Y 14 X 1 Y 14 X -1 Y 14 X -1 Y 27 X -1 Y 14 X -1 Y 27 X -1 Y 14 X 2 Y 13 X 1 Y 14 X 1 Y 14 X
 36 Y 13 X 345 Y 14 X -387 Y 109 X s black 3 lw 1655 680 m 547 X s 1738 693 m -13 Y s 1759 686 m -6 Y s 1781 686 m -6 Y s 1803 686 m -6 Y s 1824 693 m -13 Y s 1846 686 m -6 Y s 1868 686 m -6 Y s 1890 686 m -6 Y s 1911 693 m -13 Y s 1933 686 m -6 Y s
 1955 686 m -6 Y s 1976 686 m -6 Y s 1998 693 m -13 Y s 2020 686 m -6 Y s 2041 686 m -6 Y s 2063 686 m -6 Y s 2085 693 m -13 Y s 2107 686 m -6 Y s 2128 686 m -6 Y s 2150 686 m -6 Y s 2172 693 m -13 Y s 1738 693 m -13 Y s 1716 686 m -6 Y s 1694 686 m
 -6 Y s 1673 686 m -6 Y s 2172 693 m -13 Y s 2193 686 m -6 Y s
 gsave  711 563 1534 599 C 1719.26 653.602 t 0 r /Helvetica findfont 25.6068 sf 0 0 m (0.2) show NC gr 
 gsave  711 563 1534 599 C 1807.35 653.602 t 0 r /Helvetica findfont 25.6068 sf 0 0 m (0.4) show NC gr 
 gsave  711 563 1534 599 C 1892.61 653.602 t 0 r /Helvetica findfont 25.6068 sf 0 0 m (0.6) show NC gr 
 gsave  711 563 1534 599 C 1980.7 653.602 t 0 r /Helvetica findfont 25.6068 sf 0 0 m (0.8) show NC gr 
 gsave  711 563 1534 599 C 2077.32 653.602 t 0 r /Helvetica findfont 25.6068 sf 0 0 m (1) show NC gr 
 gsave  711 563 1534 599 C 2154.05 653.602 t 0 r /Helvetica findfont 25.6068 sf 0 0 m (1.2) show NC gr 
 gsave  711 563 1534 599 C 1972.17 608.134 t 0 r /Helvetica findfont 28.4519 sf 0 0 m (FatElectron_Eratio) show NC gr  1655 1106 m 547 X s 1738 1093 m 13 Y s 1759 1099 m 7 Y s 1781 1099 m 7 Y s 1803 1099 m 7 Y s 1824 1093 m 13 Y s 1846 1099 m 7 Y s
 1868 1099 m 7 Y s 1890 1099 m 7 Y s 1911 1093 m 13 Y s 1933 1099 m 7 Y s 1955 1099 m 7 Y s 1976 1099 m 7 Y s 1998 1093 m 13 Y s 2020 1099 m 7 Y s 2041 1099 m 7 Y s 2063 1099 m 7 Y s 2085 1093 m 13 Y s 2107 1099 m 7 Y s 2128 1099 m 7 Y s 2150 1099 m
 7 Y s 2172 1093 m 13 Y s 1738 1093 m 13 Y s 1716 1099 m 7 Y s 1694 1099 m 7 Y s 1673 1099 m 7 Y s 2172 1093 m 13 Y s 2193 1099 m 7 Y s 1655 680 m 426 Y s 1671 680 m -16 X s 1663 696 m -8 X s 1663 711 m -8 X s 1663 727 m -8 X s 1663 743 m -8 X s 1671
 759 m -16 X s 1663 775 m -8 X s 1663 791 m -8 X s 1663 807 m -8 X s 1663 822 m -8 X s 1671 838 m -16 X s 1663 854 m -8 X s 1663 870 m -8 X s 1663 886 m -8 X s 1663 902 m -8 X s 1671 918 m -16 X s 1663 933 m -8 X s 1663 949 m -8 X s 1663 965 m -8 X s
 1663 981 m -8 X s 1671 997 m -16 X s 1663 1013 m -8 X s 1663 1029 m -8 X s 1663 1044 m -8 X s 1663 1060 m -8 X s 1671 1076 m -16 X s 1671 1076 m -16 X s 1663 1092 m -8 X s
 gsave  711 563 1534 599 C 1631.16 670.653 t 0 r /Helvetica findfont 25.6068 sf 0 0 m (0) show NC gr 
 gsave  711 563 1534 599 C 1631.16 750.222 t 0 r /Helvetica findfont 25.6068 sf 0 0 m (5) show NC gr 
 gsave  711 563 1534 599 C 1616.96 826.949 t 0 r /Helvetica findfont 25.6068 sf 0 0 m (10) show NC gr 
 gsave  711 563 1534 599 C 1616.96 906.518 t 0 r /Helvetica findfont 25.6068 sf 0 0 m (15) show NC gr 
 gsave  711 563 1534 599 C 1616.96 986.087 t 0 r /Helvetica findfont 25.6068 sf 0 0 m (20) show NC gr 
 gsave  711 563 1534 599 C 1616.96 1065.66 t 0 r /Helvetica findfont 25.6068 sf 0 0 m (25) show NC gr 
 gsave  711 563 1534 599 C 1557.28 1017.35 t 90 r /Helvetica findfont 28.4519 sf 0 0 m (0.0315 ) show NC gr 
 gsave  711 563 1534 599 C 1543.07 1014.5 t 90 r /Helvetica findfont 19.9164 sf 0 0 m ( ) show NC gr 
 gsave  711 563 1534 599 C 1557.28 1003.14 t 90 r /Helvetica findfont 28.4519 sf 0 0 m (/) show NC gr 
 gsave  711 563 1534 599 C 1565.8 1000.3 t 90 r /Helvetica findfont 19.9164 sf 0 0 m ( ) show NC gr 
 gsave  711 563 1534 599 C 1557.28 895.151 t 90 r /Helvetica findfont 28.4519 sf 0 0 m (\(1/N\) dN) show NC gr  2202 680 m 426 Y s 2186 680 m 16 X s 2194 696 m 8 X s 2194 711 m 8 X s 2194 727 m 8 X s 2194 743 m 8 X s 2186 759 m 16 X s 2194 775 m 8 X
 s 2194 791 m 8 X s 2194 807 m 8 X s 2194 822 m 8 X s 2186 838 m 16 X s 2194 854 m 8 X s 2194 870 m 8 X s 2194 886 m 8 X s 2194 902 m 8 X s 2186 918 m 16 X s 2194 933 m 8 X s 2194 949 m 8 X s 2194 965 m 8 X s 2194 981 m 8 X s 2186 997 m 16 X s 2194
 1013 m 8 X s 2194 1029 m 8 X s 2194 1044 m 8 X s 2194 1060 m 8 X s 2186 1076 m 16 X s 2186 1076 m 16 X s 2194 1092 m 8 X s 0.490196 0.545098 0.615686 c 0.364706 0.419608 0.490196 c 471 37 1542 1122 bf 0.490196 0.545098 0.615686 c 1542 1122 m 471 X s
 2013 1122 m 37 Y s 2013 1159 m -471 X s 1542 1159 m -37 Y s 1 1 1 c black 1 1 1 c
 gsave  711 563 1534 599 C 1545.91 1133.86 t 0 r /Helvetica-Bold findfont 28.4519 sf 0 0 m (Input variable: FatElectron_Eratio) show NC gr  1 0 0 c 6 lw black 3 lw 1 0 0 c 2188 680 m s 2173 680 m s 2158 680 m s 2143 680 m s 2128 680 m s 2113 680 m s
 2098 680 m s 2088 686 m -6 -6 d s 2072 684 m -5 -4 d s 2057 685 m -5 -5 d s 2042 684 m -5 -4 d s 2029 686 m -7 -6 d s 2017 690 m -10 -10 d s 2002 689 m -10 -9 d s 1989 692 m -12 -12 d s 1976 693 m -14 -13 d s 1963 696 m -16 -16 d s 1944 692 m -12
 -12 d s 1931 694 m -14 -14 d s 1916 695 m -1 -2 d s 1914 693 m -12 -13 d s 1901 695 m -14 -15 d s 1889 697 m -1 -1 d s 1887 695 m -16 -15 d s 1874 698 m -18 -18 d s 1866 704 m -25 -24 d s 1857 710 m -31 -30 d s 1845 713 m -34 -33 d s 1824 708 m -28
 -28 d s 1816 715 m -35 -35 d s 1788 702 m -22 -22 d s 1772 701 m -21 -21 d s 1752 696 m -16 -16 d s 1743 703 m -6 -7 d s 1736 695 m -15 -15 d s 1723 697 m -17 -17 d s 1703 692 m -12 -12 d s 1686 690 m -11 -10 d s 1664 683 m -4 -3 d s 6 lw 1655 683 m
 14 X 5 Y 14 X 2 Y 13 X 2 Y 14 X 5 Y 14 X -2 Y 13 X 8 Y 14 X -7 Y 14 X 5 Y 13 X 1 Y 14 X 3 Y 14 X 10 Y 13 X -7 Y 14 X 5 Y 14 X -3 Y 13 X -6 Y 14 X -9 Y 14 X 2 Y 13 X -4 Y 14 X 2 Y 14 X -1 Y 14 X -2 Y 13 X 4 Y 14 X -3 Y 14 X -1 Y 13 X -3 Y 14 X 1 Y 14
 X -4 Y 13 X -2 Y 14 X 1 Y 14 X -1 Y 13 X 2 Y 14 X -6 Y 109 X s black 3 lw 1655 680 m 547 X s 1738 693 m -13 Y s 1759 686 m -6 Y s 1781 686 m -6 Y s 1803 686 m -6 Y s 1824 693 m -13 Y s 1846 686 m -6 Y s 1868 686 m -6 Y s 1890 686 m -6 Y s 1911 693 m
 -13 Y s 1933 686 m -6 Y s 1955 686 m -6 Y s 1976 686 m -6 Y s 1998 693 m -13 Y s 2020 686 m -6 Y s 2041 686 m -6 Y s 2063 686 m -6 Y s 2085 693 m -13 Y s 2107 686 m -6 Y s 2128 686 m -6 Y s 2150 686 m -6 Y s 2172 693 m -13 Y s 1738 693 m -13 Y s
 1716 686 m -6 Y s 1694 686 m -6 Y s 1673 686 m -6 Y s 2172 693 m -13 Y s 2193 686 m -6 Y s 1655 1106 m 547 X s 1738 1093 m 13 Y s 1759 1099 m 7 Y s 1781 1099 m 7 Y s 1803 1099 m 7 Y s 1824 1093 m 13 Y s 1846 1099 m 7 Y s 1868 1099 m 7 Y s 1890 1099
 m 7 Y s 1911 1093 m 13 Y s 1933 1099 m 7 Y s 1955 1099 m 7 Y s 1976 1099 m 7 Y s 1998 1093 m 13 Y s 2020 1099 m 7 Y s 2041 1099 m 7 Y s 2063 1099 m 7 Y s 2085 1093 m 13 Y s 2107 1099 m 7 Y s 2128 1099 m 7 Y s 2150 1099 m 7 Y s 2172 1093 m 13 Y s
 1738 1093 m 13 Y s 1716 1099 m 7 Y s 1694 1099 m 7 Y s 1673 1099 m 7 Y s 2172 1093 m 13 Y s 2193 1099 m 7 Y s 1655 680 m 426 Y s 1671 680 m -16 X s 1663 696 m -8 X s 1663 711 m -8 X s 1663 727 m -8 X s 1663 743 m -8 X s 1671 759 m -16 X s 1663 775 m
 -8 X s 1663 791 m -8 X s 1663 807 m -8 X s 1663 822 m -8 X s 1671 838 m -16 X s 1663 854 m -8 X s 1663 870 m -8 X s 1663 886 m -8 X s 1663 902 m -8 X s 1671 918 m -16 X s 1663 933 m -8 X s 1663 949 m -8 X s 1663 965 m -8 X s 1663 981 m -8 X s 1671
 997 m -16 X s 1663 1013 m -8 X s 1663 1029 m -8 X s 1663 1044 m -8 X s 1663 1060 m -8 X s 1671 1076 m -16 X s 1671 1076 m -16 X s 1663 1092 m -8 X s 2202 680 m 426 Y s 2186 680 m 16 X s 2194 696 m 8 X s 2194 711 m 8 X s 2194 727 m 8 X s 2194 743 m 8
 X s 2186 759 m 16 X s 2194 775 m 8 X s 2194 791 m 8 X s 2194 807 m 8 X s 2194 822 m 8 X s 2186 838 m 16 X s 2194 854 m 8 X s 2194 870 m 8 X s 2194 886 m 8 X s 2194 902 m 8 X s 2186 918 m 16 X s 2194 933 m 8 X s 2194 949 m 8 X s 2194 965 m 8 X s 2194
 981 m 8 X s 2186 997 m 16 X s 2194 1013 m 8 X s 2194 1029 m 8 X s 2194 1044 m 8 X s 2194 1060 m 8 X s 2186 1076 m 16 X s 2186 1076 m 16 X s 2194 1092 m 8 X s
 gsave  711 563 1534 599 C 2230.83 677.427 t 90 r /Helvetica-Bold findfont 19.9164 sf 0 0 m (U/O\255flow \(S,B\): \(0.0, 0.0\)% / \(0.0, 0.0\)%) show NC gr  0.490196 0.545098 0.615686 c 0.364706 0.419608 0.490196 c 471 37 1542 1122 bf 0.490196
 0.545098 0.615686 c 1542 1122 m 471 X s 2013 1122 m 37 Y s 2013 1159 m -471 X s 1542 1159 m -37 Y s 1 1 1 c black 1 1 1 c
 gsave  711 563 1534 599 C 1545.91 1133.86 t 0 r /Helvetica-Bold findfont 28.4519 sf 0 0 m (Input variable: FatElectron_Eratio) show NC gr  0.490196 0.545098 0.615686 c 0.941176 0.941176 0.941176 c 710 563 23 12 bf black 1 1 0.992157 c 548 426 143 93
 bf black 548 426 143 93 bl 0 0 0.933333 c 6 lw 0.49 0.6 0.82 c black 3 lw 0.49 0.6 0.82 c 143 93 m 72 Y 14 X -14 Y 14 X -1 Y 14 X -1 Y 13 X 2 Y 14 X 2 Y 14 X -2 Y 13 X -6 Y 14 X 4 Y 14 X -5 Y 13 X 7 Y 14 X -4 Y 14 X -3 Y 13 X 3 Y 14 X -2 Y 27 X -7 Y
 14 X -1 Y 14 X -1 Y 13 X -3 Y 14 X -6 Y 14 X 1 Y 13 X -2 Y 14 X -6 Y 14 X -3 Y 27 X -6 Y 14 X -2 Y 13 X -3 Y 14 X -3 Y 27 X -4 Y 14 X -2 Y 14 X -2 Y 14 X -1 Y 13 X -1 Y 28 X 1 Y 27 X -1 Y 14 X f 6 lw 0 0 0.933333 c 0.49 0.6 0.82 c 0 0 0.933333 c 143
 165 m 14 X -14 Y 14 X -1 Y 14 X -1 Y 13 X 2 Y 14 X 2 Y 14 X -2 Y 13 X -6 Y 14 X 4 Y 14 X -5 Y 13 X 7 Y 14 X -4 Y 14 X -3 Y 13 X 3 Y 14 X -2 Y 27 X -7 Y 14 X -1 Y 14 X -1 Y 13 X -3 Y 14 X -6 Y 14 X 1 Y 13 X -2 Y 14 X -6 Y 14 X -3 Y 27 X -6 Y 14 X -2
 Y 13 X -3 Y 14 X -3 Y 27 X -4 Y 14 X -2 Y 14 X -2 Y 14 X -1 Y 13 X -1 Y 28 X 1 Y 27 X -1 Y 14 X s black 3 lw 143 93 m 548 X s 143 106 m -13 Y s 170 99 m -6 Y s 197 99 m -6 Y s 224 99 m -6 Y s 251 106 m -13 Y s 278 99 m -6 Y s 305 99 m -6 Y s 332 99
 m -6 Y s 359 106 m -13 Y s 386 99 m -6 Y s 413 99 m -6 Y s 440 99 m -6 Y s 467 106 m -13 Y s 494 99 m -6 Y s 521 99 m -6 Y s 548 99 m -6 Y s 574 106 m -13 Y s 601 99 m -6 Y s 628 99 m -6 Y s 655 99 m -6 Y s 682 106 m -13 Y s 682 106 m -13 Y s
 gsave  710 563 23 12 C 133.562 65.3603 t 0 r /Helvetica findfont 25.6068 sf 0 0 m (0) show NC gr 
 gsave  710 563 23 12 C 233.023 65.3603 t 0 r /Helvetica findfont 25.6068 sf 0 0 m (0.2) show NC gr 
 gsave  710 563 23 12 C 341.01 65.3603 t 0 r /Helvetica findfont 25.6068 sf 0 0 m (0.4) show NC gr 
 gsave  710 563 23 12 C 448.997 65.3603 t 0 r /Helvetica findfont 25.6068 sf 0 0 m (0.6) show NC gr 
 gsave  710 563 23 12 C 556.983 65.3603 t 0 r /Helvetica findfont 25.6068 sf 0 0 m (0.8) show NC gr 
 gsave  710 563 23 12 C 676.336 65.3603 t 0 r /Helvetica findfont 25.6068 sf 0 0 m (1) show NC gr 
 gsave  710 563 23 12 C 434.788 22.734 t 0 r /Helvetica findfont 28.4519 sf 0 0 m (FatElectron_balance) show NC gr  143 519 m 548 X s 143 506 m 13 Y s 170 512 m 7 Y s 197 512 m 7 Y s 224 512 m 7 Y s 251 506 m 13 Y s 278 512 m 7 Y s 305 512 m 7 Y s
 332 512 m 7 Y s 359 506 m 13 Y s 386 512 m 7 Y s 413 512 m 7 Y s 440 512 m 7 Y s 467 506 m 13 Y s 494 512 m 7 Y s 521 512 m 7 Y s 548 512 m 7 Y s 574 506 m 13 Y s 601 512 m 7 Y s 628 512 m 7 Y s 655 512 m 7 Y s 682 506 m 13 Y s 682 506 m 13 Y s 143
 93 m 426 Y s 160 93 m -17 X s 152 110 m -9 X s 152 127 m -9 X s 152 144 m -9 X s 160 161 m -17 X s 152 178 m -9 X s 152 195 m -9 X s 152 212 m -9 X s 160 228 m -17 X s 152 245 m -9 X s 152 262 m -9 X s 152 279 m -9 X s 160 296 m -17 X s 152 313 m -9
 X s 152 330 m -9 X s 152 347 m -9 X s 160 364 m -17 X s 152 381 m -9 X s 152 398 m -9 X s 152 415 m -9 X s 160 432 m -17 X s 152 449 m -9 X s 152 466 m -9 X s 152 483 m -9 X s 160 500 m -17 X s 160 500 m -17 X s 152 517 m -9 X s
 gsave  710 563 23 12 C 119.354 82.4108 t 0 r /Helvetica findfont 25.6068 sf 0 0 m (0) show NC gr 
 gsave  710 563 23 12 C 119.354 150.613 t 0 r /Helvetica findfont 25.6068 sf 0 0 m (2) show NC gr 
 gsave  710 563 23 12 C 119.354 218.815 t 0 r /Helvetica findfont 25.6068 sf 0 0 m (4) show NC gr 
 gsave  710 563 23 12 C 119.354 287.017 t 0 r /Helvetica findfont 25.6068 sf 0 0 m (6) show NC gr 
 gsave  710 563 23 12 C 119.354 355.219 t 0 r /Helvetica findfont 25.6068 sf 0 0 m (8) show NC gr 
 gsave  710 563 23 12 C 105.145 420.579 t 0 r /Helvetica findfont 25.6068 sf 0 0 m (10) show NC gr 
 gsave  710 563 23 12 C 105.145 488.781 t 0 r /Helvetica findfont 25.6068 sf 0 0 m (12) show NC gr 
 gsave  710 563 23 12 C 45.468 429.104 t 90 r /Helvetica findfont 28.4519 sf 0 0 m (0.0254 ) show NC gr 
 gsave  710 563 23 12 C 31.2593 426.262 t 90 r /Helvetica findfont 19.9164 sf 0 0 m ( ) show NC gr 
 gsave  710 563 23 12 C 45.468 414.895 t 90 r /Helvetica findfont 28.4519 sf 0 0 m (/) show NC gr 
 gsave  710 563 23 12 C 53.9933 412.054 t 90 r /Helvetica findfont 19.9164 sf 0 0 m ( ) show NC gr 
 gsave  710 563 23 12 C 45.468 306.909 t 90 r /Helvetica findfont 28.4519 sf 0 0 m (\(1/N\) dN) show NC gr  691 93 m 426 Y s 674 93 m 17 X s 683 110 m 8 X s 683 127 m 8 X s 683 144 m 8 X s 674 161 m 17 X s 683 178 m 8 X s 683 195 m 8 X s 683 212 m 8
 X s 674 228 m 17 X s 683 245 m 8 X s 683 262 m 8 X s 683 279 m 8 X s 674 296 m 17 X s 683 313 m 8 X s 683 330 m 8 X s 683 347 m 8 X s 674 364 m 17 X s 683 381 m 8 X s 683 398 m 8 X s 683 415 m 8 X s 674 432 m 17 X s 683 449 m 8 X s 683 466 m 8 X s
 683 483 m 8 X s 674 500 m 17 X s 674 500 m 17 X s 683 517 m 8 X s 0.490196 0.545098 0.615686 c 0.364706 0.419608 0.490196 c 497 37 30 535 bf 0.490196 0.545098 0.615686 c 30 535 m 497 X s 527 535 m 37 Y s 527 572 m -497 X s 30 572 m -37 Y s 1 1 1 c
 black 1 1 1 c
 gsave  710 563 23 12 C 34.101 545.616 t 0 r /Helvetica-Bold findfont 28.4519 sf 0 0 m (Input variable: FatElectron_balance) show NC gr  1 0 0 c 6 lw black 3 lw 1 0 0 c 677 94 m -1 -1 d s 673 105 m -12 -12 d s 663 110 m -17 -17 d s 652 114 m -21 -21
 d s 636 113 m -20 -20 d s 624 116 m -23 -23 d s 609 116 m -23 -23 d s 595 118 m -24 -25 d s 582 120 m -26 -27 d s 569 121 m -2 -1 d s 566 118 m -25 -25 d s 550 118 m -25 -25 d s 534 117 m -24 -24 d s 516 114 m -3 -4 d s 512 110 m -17 -17 d s 499 112
 m -19 -19 d s 499 127 m -34 -34 d s 479 122 m -29 -29 d s 462 120 m -27 -27 d s 444 117 m -24 -24 d s 440 129 m -9 -10 d s 430 118 m -25 -25 d s 413 116 m -23 -23 d s 401 119 m -26 -26 d s 380 114 m -20 -21 d s 372 120 m -27 -27 d s 355 118 m -26
 -25 d s 341 119 m -27 -26 d s 325 118 m -26 -25 d s 314 122 m -30 -29 d s 302 126 m -33 -33 d s 284 122 m -30 -29 d s 267 121 m s 258 112 m -19 -19 d s 250 119 m -26 -26 d s 230 114 m -21 -21 d s 224 123 m -30 -30 d s 198 112 m -19 -19 d s 187 116 m
 -23 -23 d s 175 120 m -4 -5 d s 169 114 m -20 -21 d s 157 117 m -14 -14 d s 157 132 m -14 -14 d s 157 147 m -14 -14 d s 157 162 m -14 -14 d s 157 177 m -14 -14 d s 157 192 m -14 -13 d s 157 207 m -14 -13 d s 157 223 m -14 -14 d s 157 238 m -14 -14 d
 s 157 253 m -14 -14 d s 157 268 m -14 -14 d s 157 283 m -14 -14 d s 157 298 m -14 -13 d s 157 314 m -14 -14 d s 157 329 m -14 -14 d s 157 344 m -14 -14 d s 157 359 m -14 -14 d s 157 374 m -14 -14 d s 157 389 m -14 -13 d s 157 404 m -14 -13 d s 157
 420 m -14 -14 d s 157 435 m -14 -14 d s 157 450 m -14 -14 d s 157 465 m -14 -14 d s 157 480 m -14 -14 d s 6 lw 143 480 m 14 X -366 Y 14 X 6 Y 14 X -4 Y 13 X -5 Y 14 X 12 Y 14 X -9 Y 13 X 5 Y 14 X -7 Y 14 X 9 Y 13 X 1 Y 14 X 4 Y 14 X -4 Y 13 X -4 Y
 14 X 1 Y 14 X -1 Y 13 X 2 Y 14 X -6 Y 14 X 5 Y 13 X -3 Y 14 X 2 Y 14 X 11 Y 13 X -13 Y 14 X 4 Y 14 X 2 Y 13 X 5 Y 14 X -17 Y 14 X 4 Y 13 X 3 Y 14 X 1 Y 27 X 3 Y 14 X -1 Y 14 X -2 Y 14 X -4 Y 13 X 2 Y 14 X -3 Y 14 X 1 Y 13 X -9 Y 14 X -12 Y 14 X s
 black 3 lw 143 93 m 548 X s 143 106 m -13 Y s 170 99 m -6 Y s 197 99 m -6 Y s 224 99 m -6 Y s 251 106 m -13 Y s 278 99 m -6 Y s 305 99 m -6 Y s 332 99 m -6 Y s 359 106 m -13 Y s 386 99 m -6 Y s 413 99 m -6 Y s 440 99 m -6 Y s 467 106 m -13 Y s 494
 99 m -6 Y s 521 99 m -6 Y s 548 99 m -6 Y s 574 106 m -13 Y s 601 99 m -6 Y s 628 99 m -6 Y s 655 99 m -6 Y s 682 106 m -13 Y s 682 106 m -13 Y s 143 519 m 548 X s 143 506 m 13 Y s 170 512 m 7 Y s 197 512 m 7 Y s 224 512 m 7 Y s 251 506 m 13 Y s 278
 512 m 7 Y s 305 512 m 7 Y s 332 512 m 7 Y s 359 506 m 13 Y s 386 512 m 7 Y s 413 512 m 7 Y s 440 512 m 7 Y s 467 506 m 13 Y s 494 512 m 7 Y s 521 512 m 7 Y s 548 512 m 7 Y s 574 506 m 13 Y s 601 512 m 7 Y s 628 512 m 7 Y s 655 512 m 7 Y s 682 506 m
 13 Y s 682 506 m 13 Y s 143 93 m 426 Y s 160 93 m -17 X s 152 110 m -9 X s 152 127 m -9 X s 152 144 m -9 X s 160 161 m -17 X s 152 178 m -9 X s 152 195 m -9 X s 152 212 m -9 X s 160 228 m -17 X s 152 245 m -9 X s 152 262 m -9 X s 152 279 m -9 X s
 160 296 m -17 X s 152 313 m -9 X s 152 330 m -9 X s 152 347 m -9 X s 160 364 m -17 X s 152 381 m -9 X s 152 398 m -9 X s 152 415 m -9 X s 160 432 m -17 X s 152 449 m -9 X s 152 466 m -9 X s 152 483 m -9 X s 160 500 m -17 X s 160 500 m -17 X s 152
 517 m -9 X s 691 93 m 426 Y s 674 93 m 17 X s 683 110 m 8 X s 683 127 m 8 X s 683 144 m 8 X s 674 161 m 17 X s 683 178 m 8 X s 683 195 m 8 X s 683 212 m 8 X s 674 228 m 17 X s 683 245 m 8 X s 683 262 m 8 X s 683 279 m 8 X s 674 296 m 17 X s 683 313
 m 8 X s 683 330 m 8 X s 683 347 m 8 X s 674 364 m 17 X s 683 381 m 8 X s 683 398 m 8 X s 683 415 m 8 X s 674 432 m 17 X s 683 449 m 8 X s 683 466 m 8 X s 683 483 m 8 X s 674 500 m 17 X s 674 500 m 17 X s 683 517 m 8 X s
 gsave  710 563 23 12 C 719.017 90.6052 t 90 r /Helvetica-Bold findfont 19.9164 sf 0 0 m (U/O\255flow \(S,B\): \(0.0, 0.0\)% / \(0.0, 0.0\)%) show NC gr  0.490196 0.545098 0.615686 c 0.364706 0.419608 0.490196 c 497 37 30 535 bf 0.490196 0.545098
 0.615686 c 30 535 m 497 X s 527 535 m 37 Y s 527 572 m -497 X s 30 572 m -37 Y s 1 1 1 c black 1 1 1 c
 gsave  710 563 23 12 C 34.101 545.616 t 0 r /Helvetica-Bold findfont 28.4519 sf 0 0 m (Input variable: FatElectron_balance) show NC gr  0.490196 0.545098 0.615686 c 0.941176 0.941176 0.941176 c 710 563 779 12 bf black 1 1 0.992157 c 548 426 899 93
 bf black 548 426 899 93 bl 0 0 0.933333 c 6 lw 0.49 0.6 0.82 c black 3 lw 0.49 0.6 0.82 c 899 93 m 14 X 1 Y 14 X 9 Y 13 X 42 Y 14 X 57 Y 14 X 42 Y 13 X 78 Y 14 X 44 Y 14 X 42 Y 13 X 16 Y 14 X 56 Y 14 X -25 Y 14 X -7 Y 13 X -19 Y 14 X -56 Y 14 X -19
 Y 13 X -38 Y 14 X -36 Y 14 X -37 Y 13 X -39 Y 14 X -30 Y 14 X -14 Y 13 X -8 Y 14 X -14 Y 14 X -7 Y 13 X -6 Y 14 X -9 Y 14 X -5 Y 13 X -6 Y 14 X -1 Y 14 X -5 Y 13 X -2 Y 14 X -2 Y 14 X -1 Y 13 X -1 Y 83 X f 6 lw 0 0 0.933333 c 0.49 0.6 0.82 c 0 0
 0.933333 c 899 93 m 14 X 1 Y 14 X 9 Y 13 X 42 Y 14 X 57 Y 14 X 42 Y 13 X 78 Y 14 X 44 Y 14 X 42 Y 13 X 16 Y 14 X 56 Y 14 X -25 Y 14 X -7 Y 13 X -19 Y 14 X -56 Y 14 X -19 Y 13 X -38 Y 14 X -36 Y 14 X -37 Y 13 X -39 Y 14 X -30 Y 14 X -14 Y 13 X -8 Y
 14 X -14 Y 14 X -7 Y 13 X -6 Y 14 X -9 Y 14 X -5 Y 13 X -6 Y 14 X -1 Y 14 X -5 Y 13 X -2 Y 14 X -2 Y 14 X -1 Y 13 X -1 Y 83 X s black 3 lw 899 93 m 548 X s 965 106 m -13 Y s 978 99 m -6 Y s 992 99 m -6 Y s 1006 99 m -6 Y s 1019 99 m -6 Y s 1033 106
 m -13 Y s 1047 99 m -6 Y s 1061 99 m -6 Y s 1074 99 m -6 Y s 1088 99 m -6 Y s 1102 106 m -13 Y s 1115 99 m -6 Y s 1129 99 m -6 Y s 1143 99 m -6 Y s 1157 99 m -6 Y s 1170 106 m -13 Y s 1184 99 m -6 Y s 1198 99 m -6 Y s 1211 99 m -6 Y s 1225 99 m -6 Y
 s 1239 106 m -13 Y s 1253 99 m -6 Y s 1266 99 m -6 Y s 1280 99 m -6 Y s 1294 99 m -6 Y s 1307 106 m -13 Y s 1321 99 m -6 Y s 1335 99 m -6 Y s 1348 99 m -6 Y s 1362 99 m -6 Y s 1376 106 m -13 Y s 1390 99 m -6 Y s 1403 99 m -6 Y s 1417 99 m -6 Y s
 1431 99 m -6 Y s 1444 106 m -13 Y s 965 106 m -13 Y s 951 99 m -6 Y s 937 99 m -6 Y s 924 99 m -6 Y s 910 99 m -6 Y s 1444 106 m -13 Y s
 gsave  710 563 779 12 C 937.778 65.3603 t 0 r /Helvetica findfont 25.6068 sf 0 0 m (0.05) show NC gr 
 gsave  710 563 779 12 C 1014.5 65.3603 t 0 r /Helvetica findfont 25.6068 sf 0 0 m (0.1) show NC gr 
 gsave  710 563 779 12 C 1074.18 65.3603 t 0 r /Helvetica findfont 25.6068 sf 0 0 m (0.15) show NC gr 
 gsave  710 563 779 12 C 1150.91 65.3603 t 0 r /Helvetica findfont 25.6068 sf 0 0 m (0.2) show NC gr 
 gsave  710 563 779 12 C 1210.59 65.3603 t 0 r /Helvetica findfont 25.6068 sf 0 0 m (0.25) show NC gr 
 gsave  710 563 779 12 C 1290.15 65.3603 t 0 r /Helvetica findfont 25.6068 sf 0 0 m (0.3) show NC gr 
 gsave  710 563 779 12 C 1349.83 65.3603 t 0 r /Helvetica findfont 25.6068 sf 0 0 m (0.35) show NC gr 
 gsave  710 563 779 12 C 1426.56 65.3603 t 0 r /Helvetica findfont 25.6068 sf 0 0 m (0.4) show NC gr 
 gsave  710 563 779 12 C 1264.58 22.734 t 0 r /Helvetica findfont 28.4519 sf 0 0 m (Trk1_dRToJet) show NC gr  899 519 m 548 X s 965 506 m 13 Y s 978 512 m 7 Y s 992 512 m 7 Y s 1006 512 m 7 Y s 1019 512 m 7 Y s 1033 506 m 13 Y s 1047 512 m 7 Y s 1061
 512 m 7 Y s 1074 512 m 7 Y s 1088 512 m 7 Y s 1102 506 m 13 Y s 1115 512 m 7 Y s 1129 512 m 7 Y s 1143 512 m 7 Y s 1157 512 m 7 Y s 1170 506 m 13 Y s 1184 512 m 7 Y s 1198 512 m 7 Y s 1211 512 m 7 Y s 1225 512 m 7 Y s 1239 506 m 13 Y s 1253 512 m 7
 Y s 1266 512 m 7 Y s 1280 512 m 7 Y s 1294 512 m 7 Y s 1307 506 m 13 Y s 1321 512 m 7 Y s 1335 512 m 7 Y s 1348 512 m 7 Y s 1362 512 m 7 Y s 1376 506 m 13 Y s 1390 512 m 7 Y s 1403 512 m 7 Y s 1417 512 m 7 Y s 1431 512 m 7 Y s 1444 506 m 13 Y s 965
 506 m 13 Y s 951 512 m 7 Y s 937 512 m 7 Y s 924 512 m 7 Y s 910 512 m 7 Y s 1444 506 m 13 Y s 899 93 m 426 Y s 915 93 m -16 X s 907 102 m -8 X s 907 111 m -8 X s 907 120 m -8 X s 907 129 m -8 X s 915 138 m -16 X s 907 147 m -8 X s 907 156 m -8 X s
 907 165 m -8 X s 907 174 m -8 X s 915 183 m -16 X s 907 192 m -8 X s 907 201 m -8 X s 907 210 m -8 X s 907 219 m -8 X s 915 228 m -16 X s 907 237 m -8 X s 907 247 m -8 X s 907 256 m -8 X s 907 265 m -8 X s 915 274 m -16 X s 907 283 m -8 X s 907 292
 m -8 X s 907 301 m -8 X s 907 310 m -8 X s 915 319 m -16 X s 907 328 m -8 X s 907 337 m -8 X s 907 346 m -8 X s 907 355 m -8 X s 915 364 m -16 X s 907 373 m -8 X s 907 382 m -8 X s 907 391 m -8 X s 907 400 m -8 X s 915 409 m -16 X s 907 418 m -8 X s
 907 427 m -8 X s 907 436 m -8 X s 907 445 m -8 X s 915 454 m -16 X s 907 463 m -8 X s 907 472 m -8 X s 907 481 m -8 X s 907 491 m -8 X s 915 500 m -16 X s 915 500 m -16 X s 907 509 m -8 X s 907 518 m -8 X s
 gsave  710 563 779 12 C 875.259 82.4108 t 0 r /Helvetica findfont 25.6068 sf 0 0 m (0) show NC gr 
 gsave  710 563 779 12 C 878.101 127.879 t 0 r /Helvetica findfont 25.6068 sf 0 0 m (1) show NC gr 
 gsave  710 563 779 12 C 875.259 173.347 t 0 r /Helvetica findfont 25.6068 sf 0 0 m (2) show NC gr 
 gsave  710 563 779 12 C 875.259 218.815 t 0 r /Helvetica findfont 25.6068 sf 0 0 m (3) show NC gr 
 gsave  710 563 779 12 C 875.259 264.283 t 0 r /Helvetica findfont 25.6068 sf 0 0 m (4) show NC gr 
 gsave  710 563 779 12 C 875.259 309.751 t 0 r /Helvetica findfont 25.6068 sf 0 0 m (5) show NC gr 
 gsave  710 563 779 12 C 875.259 355.219 t 0 r /Helvetica findfont 25.6068 sf 0 0 m (6) show NC gr 
 gsave  710 563 779 12 C 875.259 397.845 t 0 r /Helvetica findfont 25.6068 sf 0 0 m (7) show NC gr 
 gsave  710 563 779 12 C 875.259 443.313 t 0 r /Helvetica findfont 25.6068 sf 0 0 m (8) show NC gr 
 gsave  710 563 779 12 C 875.259 488.781 t 0 r /Helvetica findfont 25.6068 sf 0 0 m (9) show NC gr 
 gsave  710 563 779 12 C 801.374 412.054 t 90 r /Helvetica findfont 28.4519 sf 0 0 m (0.00998 ) show NC gr 
 gsave  710 563 779 12 C 787.165 409.212 t 90 r /Helvetica findfont 19.9164 sf 0 0 m ( ) show NC gr 
 gsave  710 563 779 12 C 801.374 397.845 t 90 r /Helvetica findfont 28.4519 sf 0 0 m (/) show NC gr 
 gsave  710 563 779 12 C 809.899 395.003 t 90 r /Helvetica findfont 19.9164 sf 0 0 m ( ) show NC gr 
 gsave  710 563 779 12 C 801.374 289.858 t 90 r /Helvetica findfont 28.4519 sf 0 0 m (\(1/N\) dN) show NC gr  1447 93 m 426 Y s 1430 93 m 17 X s 1438 102 m 9 X s 1438 111 m 9 X s 1438 120 m 9 X s 1438 129 m 9 X s 1430 138 m 17 X s 1438 147 m 9 X s
 1438 156 m 9 X s 1438 165 m 9 X s 1438 174 m 9 X s 1430 183 m 17 X s 1438 192 m 9 X s 1438 201 m 9 X s 1438 210 m 9 X s 1438 219 m 9 X s 1430 228 m 17 X s 1438 237 m 9 X s 1438 247 m 9 X s 1438 256 m 9 X s 1438 265 m 9 X s 1430 274 m 17 X s 1438 283
 m 9 X s 1438 292 m 9 X s 1438 301 m 9 X s 1438 310 m 9 X s 1430 319 m 17 X s 1438 328 m 9 X s 1438 337 m 9 X s 1438 346 m 9 X s 1438 355 m 9 X s 1430 364 m 17 X s 1438 373 m 9 X s 1438 382 m 9 X s 1438 391 m 9 X s 1438 400 m 9 X s 1430 409 m 17 X s
 1438 418 m 9 X s 1438 427 m 9 X s 1438 436 m 9 X s 1438 445 m 9 X s 1430 454 m 17 X s 1438 463 m 9 X s 1438 472 m 9 X s 1438 481 m 9 X s 1438 491 m 9 X s 1430 500 m 17 X s 1430 500 m 17 X s 1438 509 m 9 X s 1438 518 m 9 X s 0.490196 0.545098
 0.615686 c 0.364706 0.419608 0.490196 c 409 37 786 535 bf 0.490196 0.545098 0.615686 c 786 535 m 409 X s 1195 535 m 37 Y s 1195 572 m -409 X s 786 572 m -37 Y s 1 1 1 c black 1 1 1 c
 gsave  710 563 779 12 C 790.007 545.616 t 0 r /Helvetica-Bold findfont 28.4519 sf 0 0 m (Input variable: Trk1_dRToJet) show NC gr  1 0 0 c 6 lw black 3 lw 1 0 0 c 1434 95 m -2 -2 d s 1419 95 m -2 -2 d s 1406 97 m -1 -1 d s 1402 93 m s 1392 98 m -5
 -5 d s 1383 104 m -11 -11 d s 1377 113 m -20 -20 d s 1364 116 m -22 -23 d s 1358 125 m -7 -8 d s 1342 109 m -15 -16 d s 1332 113 m -21 -20 d s 1323 120 m -27 -27 d s 1315 127 m -34 -34 d s 1305 132 m -39 -39 d s 1285 127 m -34 -34 d s 1282 139 m -46
 -46 d s 1282 154 m -61 -61 d s 1272 159 m -3 -3 d s 1265 152 m -10 -10 d s 1254 141 m -48 -48 d s 1239 141 m -48 -48 d s 1228 145 m -52 -52 d s 1228 160 m -67 -67 d s 1228 175 m -82 -82 d s 1228 190 m -97 -97 d s 1216 193 m -100 -100 d s 1205 198 m
 -105 -105 d s 1194 202 m -109 -109 d s 1187 210 m -117 -117 d s 1185 223 m -12 -12 d s 1160 198 m -105 -105 d s 1159 213 m -119 -120 d s 1159 228 m -134 -135 d s 1151 234 m -141 -141 d s 1146 244 m -151 -151 d s 1146 259 m -166 -166 d s 1132 261 m
 -167 -168 d s 1127 271 m -177 -178 d s 1116 276 m -11 -12 d s 1091 250 m -156 -157 d s 1091 265 m -171 -172 d s 1091 280 m -186 -187 d s 1091 295 m -192 -192 d s 1090 310 m -177 -178 d s 913 132 m -14 -14 d s 1068 303 m -141 -142 d s 925 159 m -12
 -12 d s 1064 313 m -137 -137 d s 1064 328 m -137 -137 d s 1064 344 m -96 -97 d s 955 234 m -28 -28 d s 1054 349 m -4 -4 d s 1047 342 m -11 -11 d s 1026 321 m -58 -59 d s 954 248 m -27 -27 d s 1022 333 m -54 -55 d s 929 239 m -2 -3 d s 1022 348 m -54
 -55 d s 1013 353 m -18 -18 d s 992 333 m -11 -11 d s 974 314 m -6 -6 d s 1009 364 m -14 -13 d s 1005 376 m -10 -10 d s 6 lw 899 132 m 14 X 27 Y 14 X 80 Y 13 X 9 Y 14 X -14 Y 14 X 80 Y 13 X 19 Y 14 X 43 Y 14 X -23 Y 13 X -32 Y 14 X 21 Y 14 X 7 Y 14 X
 -46 Y 13 X 7 Y 14 X -60 Y 14 X 26 Y 13 X -5 Y 14 X -11 Y 14 X -26 Y 13 X -36 Y 14 X 25 Y 14 X -21 Y 13 X -4 Y 14 X -5 Y 14 X -52 Y 27 X 11 Y 14 X 7 Y 13 X -32 Y 14 X 5 Y 14 X -5 Y 13 X -14 Y 14 X -4 Y 14 X 16 Y 13 X -12 Y 14 X -9 Y 14 X -11 Y 13 X 4
 Y 14 X -2 Y 28 X s black 3 lw 899 93 m 548 X s 965 106 m -13 Y s 978 99 m -6 Y s 992 99 m -6 Y s 1006 99 m -6 Y s 1019 99 m -6 Y s 1033 106 m -13 Y s 1047 99 m -6 Y s 1061 99 m -6 Y s 1074 99 m -6 Y s 1088 99 m -6 Y s 1102 106 m -13 Y s 1115 99 m -6
 Y s 1129 99 m -6 Y s 1143 99 m -6 Y s 1157 99 m -6 Y s 1170 106 m -13 Y s 1184 99 m -6 Y s 1198 99 m -6 Y s 1211 99 m -6 Y s 1225 99 m -6 Y s 1239 106 m -13 Y s 1253 99 m -6 Y s 1266 99 m -6 Y s 1280 99 m -6 Y s 1294 99 m -6 Y s 1307 106 m -13 Y s
 1321 99 m -6 Y s 1335 99 m -6 Y s 1348 99 m -6 Y s 1362 99 m -6 Y s 1376 106 m -13 Y s 1390 99 m -6 Y s 1403 99 m -6 Y s 1417 99 m -6 Y s 1431 99 m -6 Y s 1444 106 m -13 Y s 965 106 m -13 Y s 951 99 m -6 Y s 937 99 m -6 Y s 924 99 m -6 Y s 910 99 m
 -6 Y s 1444 106 m -13 Y s 899 519 m 548 X s 965 506 m 13 Y s 978 512 m 7 Y s 992 512 m 7 Y s 1006 512 m 7 Y s 1019 512 m 7 Y s 1033 506 m 13 Y s 1047 512 m 7 Y s 1061 512 m 7 Y s 1074 512 m 7 Y s 1088 512 m 7 Y s 1102 506 m 13 Y s 1115 512 m 7 Y s
 1129 512 m 7 Y s 1143 512 m 7 Y s 1157 512 m 7 Y s 1170 506 m 13 Y s 1184 512 m 7 Y s 1198 512 m 7 Y s 1211 512 m 7 Y s 1225 512 m 7 Y s 1239 506 m 13 Y s 1253 512 m 7 Y s 1266 512 m 7 Y s 1280 512 m 7 Y s 1294 512 m 7 Y s 1307 506 m 13 Y s 1321 512
 m 7 Y s 1335 512 m 7 Y s 1348 512 m 7 Y s 1362 512 m 7 Y s 1376 506 m 13 Y s 1390 512 m 7 Y s 1403 512 m 7 Y s 1417 512 m 7 Y s 1431 512 m 7 Y s 1444 506 m 13 Y s 965 506 m 13 Y s 951 512 m 7 Y s 937 512 m 7 Y s 924 512 m 7 Y s 910 512 m 7 Y s 1444
 506 m 13 Y s 899 93 m 426 Y s 915 93 m -16 X s 907 102 m -8 X s 907 111 m -8 X s 907 120 m -8 X s 907 129 m -8 X s 915 138 m -16 X s 907 147 m -8 X s 907 156 m -8 X s 907 165 m -8 X s 907 174 m -8 X s 915 183 m -16 X s 907 192 m -8 X s 907 201 m -8
 X s 907 210 m -8 X s 907 219 m -8 X s 915 228 m -16 X s 907 237 m -8 X s 907 247 m -8 X s 907 256 m -8 X s 907 265 m -8 X s 915 274 m -16 X s 907 283 m -8 X s 907 292 m -8 X s 907 301 m -8 X s 907 310 m -8 X s 915 319 m -16 X s 907 328 m -8 X s 907
 337 m -8 X s 907 346 m -8 X s 907 355 m -8 X s 915 364 m -16 X s 907 373 m -8 X s 907 382 m -8 X s 907 391 m -8 X s 907 400 m -8 X s 915 409 m -16 X s 907 418 m -8 X s 907 427 m -8 X s 907 436 m -8 X s 907 445 m -8 X s 915 454 m -16 X s 907 463 m -8
 X s 907 472 m -8 X s 907 481 m -8 X s 907 491 m -8 X s 915 500 m -16 X s 915 500 m -16 X s 907 509 m -8 X s 907 518 m -8 X s 1447 93 m 426 Y s 1430 93 m 17 X s 1438 102 m 9 X s 1438 111 m 9 X s 1438 120 m 9 X s 1438 129 m 9 X s 1430 138 m 17 X s
 1438 147 m 9 X s 1438 156 m 9 X s 1438 165 m 9 X s 1438 174 m 9 X s 1430 183 m 17 X s 1438 192 m 9 X s 1438 201 m 9 X s 1438 210 m 9 X s 1438 219 m 9 X s 1430 228 m 17 X s 1438 237 m 9 X s 1438 247 m 9 X s 1438 256 m 9 X s 1438 265 m 9 X s 1430 274
 m 17 X s 1438 283 m 9 X s 1438 292 m 9 X s 1438 301 m 9 X s 1438 310 m 9 X s 1430 319 m 17 X s 1438 328 m 9 X s 1438 337 m 9 X s 1438 346 m 9 X s 1438 355 m 9 X s 1430 364 m 17 X s 1438 373 m 9 X s 1438 382 m 9 X s 1438 391 m 9 X s 1438 400 m 9 X s
 1430 409 m 17 X s 1438 418 m 9 X s 1438 427 m 9 X s 1438 436 m 9 X s 1438 445 m 9 X s 1430 454 m 17 X s 1438 463 m 9 X s 1438 472 m 9 X s 1438 481 m 9 X s 1438 491 m 9 X s 1430 500 m 17 X s 1430 500 m 17 X s 1438 509 m 9 X s 1438 518 m 9 X s
 gsave  710 563 779 12 C 1474.92 90.6052 t 90 r /Helvetica-Bold findfont 19.9164 sf 0 0 m (U/O\255flow \(S,B\): \(0.0, 0.0\)% / \(0.0, 0.0\)%) show NC gr  0.490196 0.545098 0.615686 c 0.364706 0.419608 0.490196 c 409 37 786 535 bf 0.490196 0.545098
 0.615686 c 786 535 m 409 X s 1195 535 m 37 Y s 1195 572 m -409 X s 786 572 m -37 Y s 1 1 1 c black 1 1 1 c
 gsave  710 563 779 12 C 790.007 545.616 t 0 r /Helvetica-Bold findfont 28.4519 sf 0 0 m (Input variable: Trk1_dRToJet) show NC gr  0.490196 0.545098 0.615686 c 0.941176 0.941176 0.941176 c 711 563 1534 12 bf black 1 1 0.992157 c 547 426 1655 93 bf
 black 547 426 1655 93 bl 0 0 0.933333 c 6 lw 0.49 0.6 0.82 c black 3 lw 0.49 0.6 0.82 c 1655 93 m 28 X 3 Y 13 X 5 Y 14 X 1 Y 14 X 16 Y 13 X 5 Y 14 X 18 Y 14 X 25 Y 13 X 33 Y 14 X 30 Y 14 X 32 Y 13 X 28 Y 14 X 41 Y 14 X 34 Y 13 X 31 Y 14 X 59 Y 14 X
 -25 Y 13 X 45 Y 14 X -7 Y 14 X 6 Y 14 X 7 Y 13 X -20 Y 14 X -33 Y 14 X -23 Y 13 X -31 Y 14 X -26 Y 14 X -53 Y 13 X -10 Y 14 X -41 Y 14 X -49 Y 13 X -24 Y 14 X -24 Y 14 X -25 Y 13 X -11 Y 14 X -11 Y 14 X -5 Y 13 X -1 Y 14 X 2 Y 14 X -2 Y 13 X f 6 lw
 0 0 0.933333 c 0.49 0.6 0.82 c 0 0 0.933333 c 1655 93 m 28 X 3 Y 13 X 5 Y 14 X 1 Y 14 X 16 Y 13 X 5 Y 14 X 18 Y 14 X 25 Y 13 X 33 Y 14 X 30 Y 14 X 32 Y 13 X 28 Y 14 X 41 Y 14 X 34 Y 13 X 31 Y 14 X 59 Y 14 X -25 Y 13 X 45 Y 14 X -7 Y 14 X 6 Y 14 X 7
 Y 13 X -20 Y 14 X -33 Y 14 X -23 Y 13 X -31 Y 14 X -26 Y 14 X -53 Y 13 X -10 Y 14 X -41 Y 14 X -49 Y 13 X -24 Y 14 X -24 Y 14 X -25 Y 13 X -11 Y 14 X -11 Y 14 X -5 Y 13 X -1 Y 14 X 2 Y 14 X -2 Y 13 X s black 3 lw 1655 93 m 547 X s 1714 106 m -13 Y s
 1727 99 m -6 Y s 1741 99 m -6 Y s 1754 99 m -6 Y s 1768 99 m -6 Y s 1782 106 m -13 Y s 1795 99 m -6 Y s 1809 99 m -6 Y s 1822 99 m -6 Y s 1836 99 m -6 Y s 1850 106 m -13 Y s 1863 99 m -6 Y s 1877 99 m -6 Y s 1890 99 m -6 Y s 1904 99 m -6 Y s 1918
 106 m -13 Y s 1931 99 m -6 Y s 1945 99 m -6 Y s 1958 99 m -6 Y s 1972 99 m -6 Y s 1986 106 m -13 Y s 1999 99 m -6 Y s 2013 99 m -6 Y s 2026 99 m -6 Y s 2040 99 m -6 Y s 2054 106 m -13 Y s 2067 99 m -6 Y s 2081 99 m -6 Y s 2094 99 m -6 Y s 2108 99 m
 -6 Y s 2122 106 m -13 Y s 2135 99 m -6 Y s 2149 99 m -6 Y s 2162 99 m -6 Y s 2176 99 m -6 Y s 2190 106 m -13 Y s 1714 106 m -13 Y s 1700 99 m -6 Y s 1686 99 m -6 Y s 1673 99 m -6 Y s 1659 99 m -6 Y s 2190 106 m -13 Y s
 gsave  711 563 1534 12 C 1685.16 65.3603 t 0 r /Helvetica findfont 25.6068 sf 0 0 m (0.05) show NC gr 
 gsave  711 563 1534 12 C 1761.89 65.3603 t 0 r /Helvetica findfont 25.6068 sf 0 0 m (0.1) show NC gr 
 gsave  711 563 1534 12 C 1821.56 65.3603 t 0 r /Helvetica findfont 25.6068 sf 0 0 m (0.15) show NC gr 
 gsave  711 563 1534 12 C 1898.29 65.3603 t 0 r /Helvetica findfont 25.6068 sf 0 0 m (0.2) show NC gr 
 gsave  711 563 1534 12 C 1957.97 65.3603 t 0 r /Helvetica findfont 25.6068 sf 0 0 m (0.25) show NC gr 
 gsave  711 563 1534 12 C 2034.69 65.3603 t 0 r /Helvetica findfont 25.6068 sf 0 0 m (0.3) show NC gr 
 gsave  711 563 1534 12 C 2094.37 65.3603 t 0 r /Helvetica findfont 25.6068 sf 0 0 m (0.35) show NC gr 
 gsave  711 563 1534 12 C 2171.1 65.3603 t 0 r /Helvetica findfont 25.6068 sf 0 0 m (0.4) show NC gr 
 gsave  711 563 1534 12 C 2020.48 22.734 t 0 r /Helvetica findfont 28.4519 sf 0 0 m (Trk2_dRToJet) show NC gr  1655 519 m 547 X s 1714 506 m 13 Y s 1727 512 m 7 Y s 1741 512 m 7 Y s 1754 512 m 7 Y s 1768 512 m 7 Y s 1782 506 m 13 Y s 1795 512 m 7 Y s
 1809 512 m 7 Y s 1822 512 m 7 Y s 1836 512 m 7 Y s 1850 506 m 13 Y s 1863 512 m 7 Y s 1877 512 m 7 Y s 1890 512 m 7 Y s 1904 512 m 7 Y s 1918 506 m 13 Y s 1931 512 m 7 Y s 1945 512 m 7 Y s 1958 512 m 7 Y s 1972 512 m 7 Y s 1986 506 m 13 Y s 1999 512
 m 7 Y s 2013 512 m 7 Y s 2026 512 m 7 Y s 2040 512 m 7 Y s 2054 506 m 13 Y s 2067 512 m 7 Y s 2081 512 m 7 Y s 2094 512 m 7 Y s 2108 512 m 7 Y s 2122 506 m 13 Y s 2135 512 m 7 Y s 2149 512 m 7 Y s 2162 512 m 7 Y s 2176 512 m 7 Y s 2190 506 m 13 Y s
 1714 506 m 13 Y s 1700 512 m 7 Y s 1686 512 m 7 Y s 1673 512 m 7 Y s 1659 512 m 7 Y s 2190 506 m 13 Y s 1655 93 m 426 Y s 1671 93 m -16 X s 1663 105 m -8 X s 1663 118 m -8 X s 1663 130 m -8 X s 1663 143 m -8 X s 1671 155 m -16 X s 1663 168 m -8 X s
 1663 180 m -8 X s 1663 193 m -8 X s 1663 205 m -8 X s 1671 218 m -16 X s 1663 230 m -8 X s 1663 243 m -8 X s 1663 255 m -8 X s 1663 268 m -8 X s 1671 280 m -16 X s 1663 293 m -8 X s 1663 305 m -8 X s 1663 318 m -8 X s 1663 330 m -8 X s 1671 343 m
 -16 X s 1663 355 m -8 X s 1663 368 m -8 X s 1663 380 m -8 X s 1663 393 m -8 X s 1671 405 m -16 X s 1663 418 m -8 X s 1663 430 m -8 X s 1663 443 m -8 X s 1663 455 m -8 X s 1671 468 m -16 X s 1671 468 m -16 X s 1663 480 m -8 X s 1663 493 m -8 X s 1663
 505 m -8 X s 1663 517 m -8 X s
 gsave  711 563 1534 12 C 1631.16 82.4108 t 0 r /Helvetica findfont 25.6068 sf 0 0 m (0) show NC gr 
 gsave  711 563 1534 12 C 1634.01 144.929 t 0 r /Helvetica findfont 25.6068 sf 0 0 m (1) show NC gr 
 gsave  711 563 1534 12 C 1631.16 207.448 t 0 r /Helvetica findfont 25.6068 sf 0 0 m (2) show NC gr 
 gsave  711 563 1534 12 C 1631.16 269.966 t 0 r /Helvetica findfont 25.6068 sf 0 0 m (3) show NC gr 
 gsave  711 563 1534 12 C 1631.16 332.485 t 0 r /Helvetica findfont 25.6068 sf 0 0 m (4) show NC gr 
 gsave  711 563 1534 12 C 1631.16 395.003 t 0 r /Helvetica findfont 25.6068 sf 0 0 m (5) show NC gr 
 gsave  711 563 1534 12 C 1631.16 457.522 t 0 r /Helvetica findfont 25.6068 sf 0 0 m (6) show NC gr 
 gsave  711 563 1534 12 C 1557.28 431.946 t 90 r /Helvetica findfont 28.4519 sf 0 0 m (0.0101 ) show NC gr 
 gsave  711 563 1534 12 C 1543.07 429.104 t 90 r /Helvetica findfont 19.9164 sf 0 0 m ( ) show NC gr 
 gsave  711 563 1534 12 C 1557.28 417.737 t 90 r /Helvetica findfont 28.4519 sf 0 0 m (/) show NC gr 
 gsave  711 563 1534 12 C 1565.8 414.895 t 90 r /Helvetica findfont 19.9164 sf 0 0 m ( ) show NC gr 
 gsave  711 563 1534 12 C 1557.28 309.751 t 90 r /Helvetica findfont 28.4519 sf 0 0 m (\(1/N\) dN) show NC gr  2202 93 m 426 Y s 2186 93 m 16 X s 2194 105 m 8 X s 2194 118 m 8 X s 2194 130 m 8 X s 2194 143 m 8 X s 2186 155 m 16 X s 2194 168 m 8 X s
 2194 180 m 8 X s 2194 193 m 8 X s 2194 205 m 8 X s 2186 218 m 16 X s 2194 230 m 8 X s 2194 243 m 8 X s 2194 255 m 8 X s 2194 268 m 8 X s 2186 280 m 16 X s 2194 293 m 8 X s 2194 305 m 8 X s 2194 318 m 8 X s 2194 330 m 8 X s 2186 343 m 16 X s 2194 355
 m 8 X s 2194 368 m 8 X s 2194 380 m 8 X s 2194 393 m 8 X s 2186 405 m 16 X s 2194 418 m 8 X s 2194 430 m 8 X s 2194 443 m 8 X s 2194 455 m 8 X s 2186 468 m 16 X s 2186 468 m 16 X s 2194 480 m 8 X s 2194 493 m 8 X s 2194 505 m 8 X s 2194 517 m 8 X s
 0.490196 0.545098 0.615686 c 0.364706 0.419608 0.490196 c 409 37 1542 535 bf 0.490196 0.545098 0.615686 c 1542 535 m 409 X s 1951 535 m 37 Y s 1951 572 m -409 X s 1542 572 m -37 Y s 1 1 1 c black 1 1 1 c
 gsave  711 563 1534 12 C 1545.91 545.616 t 0 r /Helvetica-Bold findfont 28.4519 sf 0 0 m (Input variable: Trk2_dRToJet) show NC gr  1 0 0 c 6 lw black 3 lw 1 0 0 c 2191 96 m -3 -3 d s 2176 96 m -3 -3 d s 2164 99 m -6 -6 d s 2161 112 m -18 -19 d s
 2148 113 m -20 -20 d s 2138 118 m -25 -25 d s 2129 124 m -31 -31 d s 2120 131 m -38 -38 d s 2120 146 m -53 -53 d s 2118 159 m -11 -12 d s 2102 143 m -50 -50 d s 2093 149 m -56 -56 d s 2093 164 m -71 -71 d s 2079 165 m -72 -72 d s 2079 181 m -87 -88
 d s 2067 184 m -90 -91 d s 2066 197 m -104 -104 d s 2053 199 m -106 -106 d s 2052 214 m -120 -121 d s 2051 228 m -134 -135 d s 2038 230 m -136 -137 d s 2025 232 m -138 -139 d s 2015 237 m -4 -4 d s 1999 221 m -128 -128 d s 1997 234 m -141 -141 d s
 1985 237 m -144 -144 d s 1984 251 m -158 -158 d s 1984 266 m -173 -173 d s 1974 271 m -4 -3 d s 1958 256 m -2 -2 d s 1952 249 m -156 -156 d s 1943 255 m -162 -162 d s 1943 270 m -177 -177 d s 1943 285 m -192 -192 d s 1938 296 m -202 -203 d s 1929
 302 m -14 -14 d s 1908 281 m -187 -188 d s 1929 317 m -14 -14 d s 1896 284 m -190 -191 d s 1929 332 m -14 -13 d s 1888 291 m -197 -198 d s 1915 334 m s 1888 306 m -213 -213 d s 1888 321 m -228 -228 d s 1888 337 m -14 -14 d s 1867 315 m -212 -212 d s
 1888 352 m -14 -14 d s 1852 315 m -197 -197 d s 1877 356 m -3 -3 d s 1847 326 m -192 -193 d s 1847 341 m -178 -179 d s 1669 162 m -14 -14 d s 1847 356 m -14 -14 d s 1831 340 m -148 -149 d s 1679 187 m -10 -10 d s 1819 344 m -136 -138 d s 1819 359 m
 -13 -14 d s 1804 343 m -121 -122 d s 1819 374 m -13 -14 d s 1792 346 m -82 -82 d s 1708 262 m -25 -26 d s 1819 389 m -13 -14 d s 1783 353 m -5 -5 d s 1768 337 m -31 -30 d s 1727 296 m -17 -17 d s 1696 265 m -13 -13 d s 1819 404 m -13 -14 d s 1765
 349 m -14 -14 d s 1750 334 m -13 -12 d s 1718 303 m -8 -9 d s 1690 274 m -7 -7 d s 1806 406 m s 1765 364 m -14 -13 d s 6 lw 1655 162 m 14 X 25 Y 14 X 87 Y 13 X -12 Y 14 X 41 Y 14 X -7 Y 13 X 38 Y 14 X 31 Y 14 X -28 Y 13 X 16 Y 14 X -10 Y 14 X 63 Y
 13 X -66 Y 14 X 16 Y 14 X -41 Y 27 X 41 Y 14 X -72 Y 13 X -3 Y 14 X 53 Y 14 X -38 Y 14 X -47 Y 13 X 7 Y 14 X 15 Y 14 X -34 Y 13 X -16 Y 14 X 16 Y 14 X -6 Y 13 X -3 Y 14 X -29 Y 14 X -15 Y 13 X -19 Y 14 X -22 Y 14 X 16 Y 13 X -35 Y 14 X -6 Y 14 X -6
 Y 13 X -13 Y 14 X -3 Y 27 X s black 3 lw 1655 93 m 547 X s 1714 106 m -13 Y s 1727 99 m -6 Y s 1741 99 m -6 Y s 1754 99 m -6 Y s 1768 99 m -6 Y s 1782 106 m -13 Y s 1795 99 m -6 Y s 1809 99 m -6 Y s 1822 99 m -6 Y s 1836 99 m -6 Y s 1850 106 m -13 Y
 s 1863 99 m -6 Y s 1877 99 m -6 Y s 1890 99 m -6 Y s 1904 99 m -6 Y s 1918 106 m -13 Y s 1931 99 m -6 Y s 1945 99 m -6 Y s 1958 99 m -6 Y s 1972 99 m -6 Y s 1986 106 m -13 Y s 1999 99 m -6 Y s 2013 99 m -6 Y s 2026 99 m -6 Y s 2040 99 m -6 Y s 2054
 106 m -13 Y s 2067 99 m -6 Y s 2081 99 m -6 Y s 2094 99 m -6 Y s 2108 99 m -6 Y s 2122 106 m -13 Y s 2135 99 m -6 Y s 2149 99 m -6 Y s 2162 99 m -6 Y s 2176 99 m -6 Y s 2190 106 m -13 Y s 1714 106 m -13 Y s 1700 99 m -6 Y s 1686 99 m -6 Y s 1673 99
 m -6 Y s 1659 99 m -6 Y s 2190 106 m -13 Y s 1655 519 m 547 X s 1714 506 m 13 Y s 1727 512 m 7 Y s 1741 512 m 7 Y s 1754 512 m 7 Y s 1768 512 m 7 Y s 1782 506 m 13 Y s 1795 512 m 7 Y s 1809 512 m 7 Y s 1822 512 m 7 Y s 1836 512 m 7 Y s 1850 506 m 13
 Y s 1863 512 m 7 Y s 1877 512 m 7 Y s 1890 512 m 7 Y s 1904 512 m 7 Y s 1918 506 m 13 Y s 1931 512 m 7 Y s 1945 512 m 7 Y s 1958 512 m 7 Y s 1972 512 m 7 Y s 1986 506 m 13 Y s 1999 512 m 7 Y s 2013 512 m 7 Y s 2026 512 m 7 Y s 2040 512 m 7 Y s 2054
 506 m 13 Y s 2067 512 m 7 Y s 2081 512 m 7 Y s 2094 512 m 7 Y s 2108 512 m 7 Y s 2122 506 m 13 Y s 2135 512 m 7 Y s 2149 512 m 7 Y s 2162 512 m 7 Y s 2176 512 m 7 Y s 2190 506 m 13 Y s 1714 506 m 13 Y s 1700 512 m 7 Y s 1686 512 m 7 Y s 1673 512 m 7
 Y s 1659 512 m 7 Y s 2190 506 m 13 Y s 1655 93 m 426 Y s 1671 93 m -16 X s 1663 105 m -8 X s 1663 118 m -8 X s 1663 130 m -8 X s 1663 143 m -8 X s 1671 155 m -16 X s 1663 168 m -8 X s 1663 180 m -8 X s 1663 193 m -8 X s 1663 205 m -8 X s 1671 218 m
 -16 X s 1663 230 m -8 X s 1663 243 m -8 X s 1663 255 m -8 X s 1663 268 m -8 X s 1671 280 m -16 X s 1663 293 m -8 X s 1663 305 m -8 X s 1663 318 m -8 X s 1663 330 m -8 X s 1671 343 m -16 X s 1663 355 m -8 X s 1663 368 m -8 X s 1663 380 m -8 X s 1663
 393 m -8 X s 1671 405 m -16 X s 1663 418 m -8 X s 1663 430 m -8 X s 1663 443 m -8 X s 1663 455 m -8 X s 1671 468 m -16 X s 1671 468 m -16 X s 1663 480 m -8 X s 1663 493 m -8 X s 1663 505 m -8 X s 1663 517 m -8 X s 2202 93 m 426 Y s 2186 93 m 16 X s
 2194 105 m 8 X s 2194 118 m 8 X s 2194 130 m 8 X s 2194 143 m 8 X s 2186 155 m 16 X s 2194 168 m 8 X s 2194 180 m 8 X s 2194 193 m 8 X s 2194 205 m 8 X s 2186 218 m 16 X s 2194 230 m 8 X s 2194 243 m 8 X s 2194 255 m 8 X s 2194 268 m 8 X s 2186 280
 m 16 X s 2194 293 m 8 X s 2194 305 m 8 X s 2194 318 m 8 X s 2194 330 m 8 X s 2186 343 m 16 X s 2194 355 m 8 X s 2194 368 m 8 X s 2194 380 m 8 X s 2194 393 m 8 X s 2186 405 m 16 X s 2194 418 m 8 X s 2194 430 m 8 X s 2194 443 m 8 X s 2194 455 m 8 X s
 2186 468 m 16 X s 2186 468 m 16 X s 2194 480 m 8 X s 2194 493 m 8 X s 2194 505 m 8 X s 2194 517 m 8 X s
 gsave  711 563 1534 12 C 2230.83 90.6052 t 90 r /Helvetica-Bold findfont 19.9164 sf 0 0 m (U/O\255flow \(S,B\): \(0.0, 0.0\)% / \(0.0, 0.0\)%) show NC gr  0.490196 0.545098 0.615686 c 0.364706 0.419608 0.490196 c 409 37 1542 535 bf 0.490196 0.545098
 0.615686 c 1542 535 m 409 X s 1951 535 m 37 Y s 1951 572 m -409 X s 1542 572 m -37 Y s 1 1 1 c black 1 1 1 c
 gsave  711 563 1534 12 C 1545.91 545.616 t 0 r /Helvetica-Bold findfont 28.4519 sf 0 0 m (Input variable: Trk2_dRToJet) show NC gr 
 gr  gr showpage
end
%%EOF
