%!PS-Adobe-2.0 EPSF-2.0
%%BoundingBox:  0 0 567 293
%%Title: dataset/plots/variables_id_c2.eps: Input variables (training sample)
%%Creator: ROOT Version 6.18/00
%%CreationDate: Sun Sep 29 15:46:32 2019
%%DocumentNeededResources: ProcSet (FontSetInit)
%%EndComments
%%BeginProlog
80 dict begin
/s {stroke} def /l {lineto} def /m {moveto} def /t {translate} def
/r {rotate} def /rl {roll}  def /R {repeat} def
/d {rlineto} def /rm {rmoveto} def /gr {grestore} def /f {eofill} def
/c {setrgbcolor} def /black {0 setgray} def /sd {setdash} def
/cl {closepath} def /sf {scalefont setfont} def /lw {setlinewidth} def
/box {m dup 0 exch d exch 0 d 0 exch neg d cl} def
/NC{systemdict begin initclip end}def/C{NC box clip newpath}def
/bl {box s} def /bf {gsave box gsave f grestore 1 lw [] 0 sd s grestore} def /Y { 0 exch d} def /X { 0 d} def 
/K {{pop pop 0 moveto} exch kshow} bind def
/ita {/ang 15 def gsave [1 0 ang dup sin exch cos div 1 0 0] concat} def 
/mp {newpath /y exch def /x exch def} def
/side {[w .77 mul w .23 mul] .385 w mul sd w 0 l currentpoint t -144 r} def
/mr {mp x y w2 0 360 arc} def /m24 {mr s} def /m20 {mr f} def
/mb {mp x y w2 add m w2 neg 0 d 0 w neg d w 0 d 0 w d cl} def
/mt {mp x y w2 add m w2 neg w neg d w 0 d cl} def
/w4 {w 4 div} def
/w6 {w 6 div} def
/w8 {w 8 div} def
/m21 {mb f} def /m25 {mb s} def /m22 {mt f} def /m26{mt s} def
/m23 {mp x y w2 sub m w2 w d w neg 0 d cl f} def
/m27 {mp x y w2 add m w3 neg w2 neg d w3 w2 neg d w3 w2 d cl s} def
/m28 {mp x w2 sub y w2 sub w3 add m w3 0 d  0 w3 neg d w3 0 d 0 w3 d w3 0 d  0 w3 d w3 neg 0 d 0 w3 d w3 neg 0 d 0 w3 neg d w3 neg 0 d cl s } def
/m29 {mp gsave x w2 sub y w2 add w3 sub m currentpoint t 4 {side} repeat cl fill gr} def
/m30 {mp gsave x w2 sub y w2 add w3 sub m currentpoint t 4 {side} repeat cl s gr} def
/m31 {mp x y w2 sub m 0 w d x w2 sub y m w 0 d x w2 sub y w2 add m w w neg d x w2 sub y w2 sub m w w d s} def
/m32 {mp x y w2 sub m w2 w d w neg 0 d cl s} def
/m33 {mp x y w2 add m w3 neg w2 neg d w3 w2 neg d w3 w2 d cl f} def
/m34 {mp x w2 sub y w2 sub w3 add m w3 0 d  0 w3 neg d w3 0 d 0 w3 d w3 0 d  0 w3 d w3 neg 0 d 0 w3 d w3 neg 0 d 0 w3 neg d w3 neg 0 d cl f } def
/m35 {mp x y w2 add m w2 neg w2 neg d w2 w2 neg d w2 w2 d w2 neg w2 d x y w2 sub m 0 w d x w2 sub y m w 0 d s} def
/m36 {mb x w2 sub y w2 add m w w neg d x w2 sub y w2 sub m w w d s} def
/m37 {mp x y m w4 neg w2 d w4 neg w2 neg d w2 0 d  w4 neg w2 neg d w2 0 d w4 neg w2 d w2 0 d w4 neg w2 d w4 neg w2 neg d cl s} def
/m38 {mp x w4 sub y w2 add m w4 neg w4 neg d 0 w2 neg d w4 w4 neg d w2 0 d w4 w4 d 0 w2 d w4 neg w4 d w2 neg 0 d x y w2 sub m 0 w d x w2 sub y m w 0 d cl s} def
/m39 {mp x y m w4 neg w2 d w4 neg w2 neg d w2 0 d  w4 neg w2 neg d w2 0 d w4 neg w2 d w2 0 d w4 neg w2 d w4 neg w2 neg d cl f} def
/m40 {mp x y m w4 w2 d w4 w4 neg d w2 neg w4 neg d w2 w4 neg d w4 neg w4 neg d w4 neg w2 d w4 neg w2 neg d w4 neg w4 d w2 w4 d w2 neg w4 d w4 w4 d w4 w2 neg d cl s} def
/m41 {mp x y m w4 w2 d w4 w4 neg d w2 neg w4 neg d w2 w4 neg d w4 neg w4 neg d w4 neg w2 d w4 neg w2 neg d w4 neg w4 d w2 w4 d w2 neg w4 d w4 w4 d w4 w2 neg d cl f} def
/m42 {mp x y w2 add m w8 neg w2 -3 4 div mul d w2 -3 4 div mul w8 neg d w2 3 4 div mul w8 neg d w8 w2 -3 4 div mul d w8 w2 3 4 div mul d w2 3 4 div mul w8 d w2 -3 4 div mul w8 d w8 neg w2 3 4 div mul d cl s} def
/m43 {mp x y w2 add m w8 neg w2 -3 4 div mul d w2 -3 4 div mul w8 neg d w2 3 4 div mul w8 neg d w8 w2 -3 4 div mul d w8 w2 3 4 div mul d w2 3 4 div mul w8 d w2 -3 4 div mul w8 d w8 neg w2 3 4 div mul d cl f} def
/m44 {mp x y m w6 neg w2 d w2 2 3 div mul 0 d w6 neg w2 neg d w2 w6 d 0 w2 -2 3 div mul d w2 neg w6 d w6 w2 neg d w2 -2 3 div mul 0 d w6 w2 d w2 neg w6 neg d 0 w2 2 3 div mul d w2 w6 neg d cl s} def
/m45 {mp x y m w6 neg w2 d w2 2 3 div mul 0 d w6 neg w2 neg d w2 w6 d 0 w2 -2 3 div mul d w2 neg w6 d w6 w2 neg d w2 -2 3 div mul 0 d w6 w2 d w2 neg w6 neg d 0 w2 2 3 div mul d w2 w6 neg d cl f} def
/m46 {mp x y w4 add m w4 neg w4 d w4 neg w4 neg d  w4 w4 neg d w4 neg w4 neg d w4 w4 neg d w4 w4 d w4 w4 neg d w4 w4 d w4 neg w4 d w4 w4 d w4 neg w4 d w4 neg w4 neg d cl s} def
/m47 {mp x y w4 add m w4 neg w4 d w4 neg w4 neg d w4 w4 neg d w4 neg w4 neg d  w4 w4 neg d w4 w4 d w4 w4 neg d w4 w4 d w4 neg w4 d w4 w4 d w4 neg w4 d w4 neg w4 neg d cl f} def
/m48 {mp x y w4 add m w4 neg w4 d w4 neg w4 neg d w4 w4 neg d  w4 neg w4 neg d w4 w4 neg d w4 w4 d w4 w4 neg d w4 w4 d w4 neg w4 d w4 w4 d w4 neg w4 d w4 neg w4 neg d  w4 w4 neg d w4 neg w4 neg d w4 neg w4 d w4 w4 d cl f} def
/m49 {mp x w2 sub w3 add y w2 sub w3 add m  0 w3 neg d w3 0 d 0 w3 d w3 0 d 0 w3 d w3 neg 0 d 0 w3 d w3 neg 0 d 0 w3 neg d w3 neg 0 d 0 w3 neg d w3 0 d 0 w3 d w3 0 d 0 w3 neg d w3 neg 0 d cl f } def
/m2 {mp x y w2 sub m 0 w d x w2 sub y m w 0 d s} def
/m5 {mp x w2 sub y w2 sub m w w d x w2 sub y w2 add m w w neg d s} def
%%IncludeResource: ProcSet (FontSetInit)
%%IncludeResource: font Times-Roman
%%IncludeResource: font Times-Italic
%%IncludeResource: font Times-Bold
%%IncludeResource: font Times-BoldItalic
%%IncludeResource: font Helvetica
%%IncludeResource: font Helvetica-Oblique
%%IncludeResource: font Helvetica-Bold
%%IncludeResource: font Helvetica-BoldOblique
%%IncludeResource: font Courier
%%IncludeResource: font Courier-Oblique
%%IncludeResource: font Courier-Bold
%%IncludeResource: font Courier-BoldOblique
%%IncludeResource: font Symbol
%%IncludeResource: font ZapfDingbats
/reEncode {exch findfont dup length dict begin {1 index /FID eq  {pop pop} {def} ifelse } forall /Encoding exch def currentdict end dup /FontName get exch definefont pop } def [/Times-Bold /Times-Italic /Times-BoldItalic /Helvetica /Helvetica-Oblique
 /Helvetica-Bold /Helvetica-BoldOblique /Courier /Courier-Oblique /Courier-Bold /Courier-BoldOblique /Times-Roman /AvantGarde-Book /AvantGarde-BookOblique /AvantGarde-Demi /AvantGarde-DemiOblique /Bookman-Demi /Bookman-DemiItalic /Bookman-Light
 /Bookman-LightItalic /Helvetica-Narrow /Helvetica-Narrow-Bold /Helvetica-Narrow-BoldOblique /Helvetica-Narrow-Oblique /NewCenturySchlbk-Roman /NewCenturySchlbk-Bold /NewCenturySchlbk-BoldItalic /NewCenturySchlbk-Italic /Palatino-Bold
 /Palatino-BoldItalic /Palatino-Italic /Palatino-Roman ] {ISOLatin1Encoding reEncode } forall
%%EndProlog
%%BeginSetup
%%EndSetup
newpath  gsave  .25 .25 scale  gsave  0 0 t 0.490196 0.545098 0.615686 c[  ] 0 sd 3 lw 0.941176 0.941176 0.941176 c 2268 1174 0 0 bf 0.490196 0.545098 0.615686 c 0.941176 0.941176 0.941176 c 710 563 23 599 bf black 1 1 0.992157 c 548 426 143 680 bf
 black 548 426 143 680 bl 0 0 0.933333 c 6 lw 0.49 0.6 0.82 c black 3 lw 0.49 0.6 0.82 c 143 680 m 387 Y 14 X -48 Y 14 X -82 Y 14 X -91 Y 13 X -67 Y 14 X -49 Y 14 X -26 Y 13 X -14 Y 14 X -4 Y 14 X -3 Y 13 X -1 Y 14 X -2 Y 14 X 1 Y 13 X -1 Y 370 X f 6
 lw 0 0 0.933333 c 0.49 0.6 0.82 c 0 0 0.933333 c 143 1067 m 14 X -48 Y 14 X -82 Y 14 X -91 Y 13 X -67 Y 14 X -49 Y 14 X -26 Y 13 X -14 Y 14 X -4 Y 14 X -3 Y 13 X -1 Y 14 X -2 Y 14 X 1 Y 13 X -1 Y 370 X s black 3 lw 143 680 m 548 X s 143 693 m -13 Y
 s 158 686 m -6 Y s 172 686 m -6 Y s 186 686 m -6 Y s 201 693 m -13 Y s 215 686 m -6 Y s 229 686 m -6 Y s 244 686 m -6 Y s 258 693 m -13 Y s 272 686 m -6 Y s 287 686 m -6 Y s 301 686 m -6 Y s 315 693 m -13 Y s 330 686 m -6 Y s 344 686 m -6 Y s 358
 686 m -6 Y s 373 693 m -13 Y s 387 686 m -6 Y s 402 686 m -6 Y s 416 686 m -6 Y s 430 693 m -13 Y s 445 686 m -6 Y s 459 686 m -6 Y s 473 686 m -6 Y s 488 693 m -13 Y s 502 686 m -6 Y s 516 686 m -6 Y s 531 686 m -6 Y s 545 693 m -13 Y s 559 686 m
 -6 Y s 574 686 m -6 Y s 588 686 m -6 Y s 602 693 m -13 Y s 617 686 m -6 Y s 631 686 m -6 Y s 645 686 m -6 Y s 660 693 m -13 Y s 143 693 m -13 Y s 660 693 m -13 Y s 674 686 m -6 Y s 688 686 m -6 Y s
 gsave  710 563 23 599 C 133.562 653.602 t 0 r /Helvetica findfont 25.6068 sf 0 0 m (0) show NC gr 
 gsave  710 563 23 599 C 173.347 653.602 t 0 r /Helvetica findfont 25.6068 sf 0 0 m (0.02) show NC gr 
 gsave  710 563 23 599 C 230.182 653.602 t 0 r /Helvetica findfont 25.6068 sf 0 0 m (0.04) show NC gr 
 gsave  710 563 23 599 C 289.858 653.602 t 0 r /Helvetica findfont 25.6068 sf 0 0 m (0.06) show NC gr 
 gsave  710 563 23 599 C 346.694 653.602 t 0 r /Helvetica findfont 25.6068 sf 0 0 m (0.08) show NC gr 
 gsave  710 563 23 599 C 412.054 653.602 t 0 r /Helvetica findfont 25.6068 sf 0 0 m (0.1) show NC gr 
 gsave  710 563 23 599 C 460.363 653.602 t 0 r /Helvetica findfont 25.6068 sf 0 0 m (0.12) show NC gr 
 gsave  710 563 23 599 C 517.198 653.602 t 0 r /Helvetica findfont 25.6068 sf 0 0 m (0.14) show NC gr 
 gsave  710 563 23 599 C 574.034 653.602 t 0 r /Helvetica findfont 25.6068 sf 0 0 m (0.16) show NC gr 
 gsave  710 563 23 599 C 633.71 653.602 t 0 r /Helvetica findfont 25.6068 sf 0 0 m (0.18) show NC gr 
 gsave  710 563 23 599 C 585.401 608.134 t 0 r /Helvetica findfont 28.4519 sf 0 0 m (Trk1_d0) show NC gr  143 1106 m 548 X s 143 1093 m 13 Y s 158 1099 m 7 Y s 172 1099 m 7 Y s 186 1099 m 7 Y s 201 1093 m 13 Y s 215 1099 m 7 Y s 229 1099 m 7 Y s 244
 1099 m 7 Y s 258 1093 m 13 Y s 272 1099 m 7 Y s 287 1099 m 7 Y s 301 1099 m 7 Y s 315 1093 m 13 Y s 330 1099 m 7 Y s 344 1099 m 7 Y s 358 1099 m 7 Y s 373 1093 m 13 Y s 387 1099 m 7 Y s 402 1099 m 7 Y s 416 1099 m 7 Y s 430 1093 m 13 Y s 445 1099 m
 7 Y s 459 1099 m 7 Y s 473 1099 m 7 Y s 488 1093 m 13 Y s 502 1099 m 7 Y s 516 1099 m 7 Y s 531 1099 m 7 Y s 545 1093 m 13 Y s 559 1099 m 7 Y s 574 1099 m 7 Y s 588 1099 m 7 Y s 602 1093 m 13 Y s 617 1099 m 7 Y s 631 1099 m 7 Y s 645 1099 m 7 Y s
 660 1093 m 13 Y s 143 1093 m 13 Y s 660 1093 m 13 Y s 674 1099 m 7 Y s 688 1099 m 7 Y s 143 680 m 426 Y s 160 680 m -17 X s 152 693 m -9 X s 152 705 m -9 X s 152 718 m -9 X s 152 731 m -9 X s 160 744 m -17 X s 152 757 m -9 X s 152 770 m -9 X s 152
 783 m -9 X s 152 795 m -9 X s 160 808 m -17 X s 152 821 m -9 X s 152 834 m -9 X s 152 847 m -9 X s 152 860 m -9 X s 160 873 m -17 X s 152 885 m -9 X s 152 898 m -9 X s 152 911 m -9 X s 152 924 m -9 X s 160 937 m -17 X s 152 950 m -9 X s 152 962 m -9
 X s 152 975 m -9 X s 152 988 m -9 X s 160 1001 m -17 X s 152 1014 m -9 X s 152 1027 m -9 X s 152 1040 m -9 X s 152 1052 m -9 X s 160 1065 m -17 X s 160 1065 m -17 X s 152 1078 m -9 X s 152 1091 m -9 X s 152 1104 m -9 X s
 gsave  710 563 23 599 C 119.354 670.653 t 0 r /Helvetica findfont 25.6068 sf 0 0 m (0) show NC gr 
 gsave  710 563 23 599 C 105.145 733.172 t 0 r /Helvetica findfont 25.6068 sf 0 0 m (10) show NC gr 
 gsave  710 563 23 599 C 105.145 798.532 t 0 r /Helvetica findfont 25.6068 sf 0 0 m (20) show NC gr 
 gsave  710 563 23 599 C 105.145 863.892 t 0 r /Helvetica findfont 25.6068 sf 0 0 m (30) show NC gr 
 gsave  710 563 23 599 C 105.145 926.41 t 0 r /Helvetica findfont 25.6068 sf 0 0 m (40) show NC gr 
 gsave  710 563 23 599 C 105.145 991.771 t 0 r /Helvetica findfont 25.6068 sf 0 0 m (50) show NC gr 
 gsave  710 563 23 599 C 105.145 1054.29 t 0 r /Helvetica findfont 25.6068 sf 0 0 m (60) show NC gr 
 gsave  710 563 23 599 C 45.468 1000.3 t 90 r /Helvetica findfont 28.4519 sf 0 0 m (0.00477 ) show NC gr 
 gsave  710 563 23 599 C 31.2593 997.454 t 90 r /Helvetica findfont 19.9164 sf 0 0 m ( ) show NC gr 
 gsave  710 563 23 599 C 45.468 986.087 t 90 r /Helvetica findfont 28.4519 sf 0 0 m (/) show NC gr 
 gsave  710 563 23 599 C 53.9933 983.245 t 90 r /Helvetica findfont 19.9164 sf 0 0 m ( ) show NC gr 
 gsave  710 563 23 599 C 45.468 878.101 t 90 r /Helvetica findfont 28.4519 sf 0 0 m (\(1/N\) dN) show NC gr  691 680 m 426 Y s 674 680 m 17 X s 683 693 m 8 X s 683 705 m 8 X s 683 718 m 8 X s 683 731 m 8 X s 674 744 m 17 X s 683 757 m 8 X s 683 770 m
 8 X s 683 783 m 8 X s 683 795 m 8 X s 674 808 m 17 X s 683 821 m 8 X s 683 834 m 8 X s 683 847 m 8 X s 683 860 m 8 X s 674 873 m 17 X s 683 885 m 8 X s 683 898 m 8 X s 683 911 m 8 X s 683 924 m 8 X s 674 937 m 17 X s 683 950 m 8 X s 683 962 m 8 X s
 683 975 m 8 X s 683 988 m 8 X s 674 1001 m 17 X s 683 1014 m 8 X s 683 1027 m 8 X s 683 1040 m 8 X s 683 1052 m 8 X s 674 1065 m 17 X s 674 1065 m 17 X s 683 1078 m 8 X s 683 1091 m 8 X s 683 1104 m 8 X s 0.490196 0.545098 0.615686 c 0.364706
 0.419608 0.490196 c 327 37 30 1122 bf 0.490196 0.545098 0.615686 c 30 1122 m 327 X s 357 1122 m 37 Y s 357 1159 m -327 X s 30 1159 m -37 Y s 1 1 1 c black 1 1 1 c
 gsave  710 563 23 599 C 34.101 1133.86 t 0 r /Helvetica-Bold findfont 28.4519 sf 0 0 m (Input variable: Trk1_d0) show NC gr  1 0 0 c 6 lw black 3 lw 1 0 0 c 677 680 m -1 X s 662 680 m -1 X s 647 680 m -1 X s 632 680 m -1 X s 617 680 m -1 X s 602 681
 m -1 -1 d s 588 682 m -2 -2 d s 572 681 m -1 -1 d s 558 682 m -2 -2 d s 542 681 m -1 -1 d s 527 682 m -2 -2 d s 514 683 m -1 -1 d s 511 680 m -1 X s 497 681 m -2 -1 d s 484 683 m -4 -3 d s 467 681 m -2 -1 d s 452 682 m -2 -2 d s 436 681 m -1 -1 d s
 423 683 m -3 -3 d s 408 683 m -3 -3 d s 393 683 m -3 -3 d s 378 683 m -3 -3 d s 369 689 m -9 -9 d s 350 685 m -1 -1 d s 348 683 m -3 -3 d s 335 685 m -6 -5 d s 321 687 m -7 -7 d s 308 689 m -9 -9 d s 296 691 m -12 -11 d s 286 697 m -17 -17 d s 271
 696 m -17 -16 d s 267 707 m -28 -27 d s 253 709 m -29 -29 d s 250 721 m -41 -41 d s 239 725 m -45 -45 d s 239 740 m -60 -60 d s 226 742 m -62 -62 d s 226 757 m -77 -77 d s 212 758 m -69 -68 d s 212 774 m -69 -69 d s 212 789 m -69 -69 d s 199 791 m
 -56 -56 d s 198 805 m -55 -55 d s 198 820 m -55 -55 d s 198 836 m -55 -55 d s 198 851 m -55 -55 d s 185 852 m -42 -41 d s 185 867 m -42 -41 d s 180 878 m -37 -37 d s 171 884 m -28 -28 d s 171 899 m -28 -28 d s 171 914 m -28 -27 d s 171 929 m -28 -27
 d s 171 944 m -28 -27 d s 170 958 m -13 -12 d s 145 934 m -2 -2 d s 6 lw 143 934 m 14 X 24 Y 14 X -80 Y 14 X -27 Y 13 X -60 Y 14 X -33 Y 14 X -16 Y 13 X -21 Y 14 X -13 Y 14 X -12 Y 13 X 1 Y 14 X -6 Y 14 X -2 Y 13 X -2 Y 14 X -4 Y 14 X 2 Y 13 X 4 Y
 14 X -6 Y 55 X -2 Y 13 X 1 Y 14 X -1 Y 14 X 2 Y 13 X -2 Y 14 X -1 Y 14 X 3 Y 13 X -1 Y 14 X -1 Y 14 X 1 Y 13 X -1 Y 14 X 1 Y 14 X -1 Y 14 X -1 Y 54 X 2 Y 14 X -2 Y 14 X s black 3 lw 143 680 m 548 X s 143 693 m -13 Y s 158 686 m -6 Y s 172 686 m -6 Y
 s 186 686 m -6 Y s 201 693 m -13 Y s 215 686 m -6 Y s 229 686 m -6 Y s 244 686 m -6 Y s 258 693 m -13 Y s 272 686 m -6 Y s 287 686 m -6 Y s 301 686 m -6 Y s 315 693 m -13 Y s 330 686 m -6 Y s 344 686 m -6 Y s 358 686 m -6 Y s 373 693 m -13 Y s 387
 686 m -6 Y s 402 686 m -6 Y s 416 686 m -6 Y s 430 693 m -13 Y s 445 686 m -6 Y s 459 686 m -6 Y s 473 686 m -6 Y s 488 693 m -13 Y s 502 686 m -6 Y s 516 686 m -6 Y s 531 686 m -6 Y s 545 693 m -13 Y s 559 686 m -6 Y s 574 686 m -6 Y s 588 686 m -6
 Y s 602 693 m -13 Y s 617 686 m -6 Y s 631 686 m -6 Y s 645 686 m -6 Y s 660 693 m -13 Y s 143 693 m -13 Y s 660 693 m -13 Y s 674 686 m -6 Y s 688 686 m -6 Y s 143 1106 m 548 X s 143 1093 m 13 Y s 158 1099 m 7 Y s 172 1099 m 7 Y s 186 1099 m 7 Y s
 201 1093 m 13 Y s 215 1099 m 7 Y s 229 1099 m 7 Y s 244 1099 m 7 Y s 258 1093 m 13 Y s 272 1099 m 7 Y s 287 1099 m 7 Y s 301 1099 m 7 Y s 315 1093 m 13 Y s 330 1099 m 7 Y s 344 1099 m 7 Y s 358 1099 m 7 Y s 373 1093 m 13 Y s 387 1099 m 7 Y s 402
 1099 m 7 Y s 416 1099 m 7 Y s 430 1093 m 13 Y s 445 1099 m 7 Y s 459 1099 m 7 Y s 473 1099 m 7 Y s 488 1093 m 13 Y s 502 1099 m 7 Y s 516 1099 m 7 Y s 531 1099 m 7 Y s 545 1093 m 13 Y s 559 1099 m 7 Y s 574 1099 m 7 Y s 588 1099 m 7 Y s 602 1093 m
 13 Y s 617 1099 m 7 Y s 631 1099 m 7 Y s 645 1099 m 7 Y s 660 1093 m 13 Y s 143 1093 m 13 Y s 660 1093 m 13 Y s 674 1099 m 7 Y s 688 1099 m 7 Y s 143 680 m 426 Y s 160 680 m -17 X s 152 693 m -9 X s 152 705 m -9 X s 152 718 m -9 X s 152 731 m -9 X s
 160 744 m -17 X s 152 757 m -9 X s 152 770 m -9 X s 152 783 m -9 X s 152 795 m -9 X s 160 808 m -17 X s 152 821 m -9 X s 152 834 m -9 X s 152 847 m -9 X s 152 860 m -9 X s 160 873 m -17 X s 152 885 m -9 X s 152 898 m -9 X s 152 911 m -9 X s 152 924
 m -9 X s 160 937 m -17 X s 152 950 m -9 X s 152 962 m -9 X s 152 975 m -9 X s 152 988 m -9 X s 160 1001 m -17 X s 152 1014 m -9 X s 152 1027 m -9 X s 152 1040 m -9 X s 152 1052 m -9 X s 160 1065 m -17 X s 160 1065 m -17 X s 152 1078 m -9 X s 152
 1091 m -9 X s 152 1104 m -9 X s 691 680 m 426 Y s 674 680 m 17 X s 683 693 m 8 X s 683 705 m 8 X s 683 718 m 8 X s 683 731 m 8 X s 674 744 m 17 X s 683 757 m 8 X s 683 770 m 8 X s 683 783 m 8 X s 683 795 m 8 X s 674 808 m 17 X s 683 821 m 8 X s 683
 834 m 8 X s 683 847 m 8 X s 683 860 m 8 X s 674 873 m 17 X s 683 885 m 8 X s 683 898 m 8 X s 683 911 m 8 X s 683 924 m 8 X s 674 937 m 17 X s 683 950 m 8 X s 683 962 m 8 X s 683 975 m 8 X s 683 988 m 8 X s 674 1001 m 17 X s 683 1014 m 8 X s 683 1027
 m 8 X s 683 1040 m 8 X s 683 1052 m 8 X s 674 1065 m 17 X s 674 1065 m 17 X s 683 1078 m 8 X s 683 1091 m 8 X s 683 1104 m 8 X s
 gsave  710 563 23 599 C 719.017 677.427 t 90 r /Helvetica-Bold findfont 19.9164 sf 0 0 m (U/O\255flow \(S,B\): \(0.0, 0.0\)% / \(0.0, 1.5\)%) show NC gr  0.490196 0.545098 0.615686 c 0.364706 0.419608 0.490196 c 327 37 30 1122 bf 0.490196 0.545098
 0.615686 c 30 1122 m 327 X s 357 1122 m 37 Y s 357 1159 m -327 X s 30 1159 m -37 Y s 1 1 1 c black 1 1 1 c
 gsave  710 563 23 599 C 34.101 1133.86 t 0 r /Helvetica-Bold findfont 28.4519 sf 0 0 m (Input variable: Trk1_d0) show NC gr  0.490196 0.545098 0.615686 c 0.941176 0.941176 0.941176 c 710 563 779 599 bf black 1 1 0.992157 c 548 426 899 680 bf black
 548 426 899 680 bl 0 0 0.933333 c 6 lw 0.49 0.6 0.82 c black 3 lw 0.49 0.6 0.82 c 899 680 m 387 Y 14 X -77 Y 14 X -113 Y 13 X -87 Y 14 X -50 Y 14 X -31 Y 13 X -12 Y 14 X -7 Y 14 X -3 Y 13 X -1 Y 14 X -1 Y 14 X -3 Y 68 X -1 Y 14 X -1 Y 14 X 1 Y 13 X
 -1 Y 14 X 1 Y 14 X -1 Y 27 X 1 Y 14 X -1 Y 219 X f 6 lw 0 0 0.933333 c 0.49 0.6 0.82 c 0 0 0.933333 c 899 1067 m 14 X -77 Y 14 X -113 Y 13 X -87 Y 14 X -50 Y 14 X -31 Y 13 X -12 Y 14 X -7 Y 14 X -3 Y 13 X -1 Y 14 X -1 Y 14 X -3 Y 68 X -1 Y 14 X -1 Y
 14 X 1 Y 13 X -1 Y 14 X 1 Y 14 X -1 Y 27 X 1 Y 14 X -1 Y 219 X s black 3 lw 899 680 m 548 X s 899 693 m -13 Y s 920 686 m -6 Y s 942 686 m -6 Y s 963 686 m -6 Y s 984 686 m -6 Y s 1005 693 m -13 Y s 1026 686 m -6 Y s 1047 686 m -6 Y s 1068 686 m -6
 Y s 1089 686 m -6 Y s 1110 693 m -13 Y s 1131 686 m -6 Y s 1152 686 m -6 Y s 1173 686 m -6 Y s 1195 686 m -6 Y s 1216 693 m -13 Y s 1237 686 m -6 Y s 1258 686 m -6 Y s 1279 686 m -6 Y s 1300 686 m -6 Y s 1321 693 m -13 Y s 1342 686 m -6 Y s 1363 686
 m -6 Y s 1384 686 m -6 Y s 1405 686 m -6 Y s 1426 693 m -13 Y s 899 693 m -13 Y s 1426 693 m -13 Y s
 gsave  710 563 779 599 C 889.468 653.602 t 0 r /Helvetica findfont 25.6068 sf 0 0 m (0) show NC gr 
 gsave  710 563 779 599 C 977.562 653.602 t 0 r /Helvetica findfont 25.6068 sf 0 0 m (0.05) show NC gr 
 gsave  710 563 779 599 C 1091.23 653.602 t 0 r /Helvetica findfont 25.6068 sf 0 0 m (0.1) show NC gr 
 gsave  710 563 779 599 C 1187.85 653.602 t 0 r /Helvetica findfont 25.6068 sf 0 0 m (0.15) show NC gr 
 gsave  710 563 779 599 C 1301.52 653.602 t 0 r /Helvetica findfont 25.6068 sf 0 0 m (0.2) show NC gr 
 gsave  710 563 779 599 C 1398.14 653.602 t 0 r /Helvetica findfont 25.6068 sf 0 0 m (0.25) show NC gr 
 gsave  710 563 779 599 C 1341.31 608.134 t 0 r /Helvetica findfont 28.4519 sf 0 0 m (Trk2_d0) show NC gr  899 1106 m 548 X s 899 1093 m 13 Y s 920 1099 m 7 Y s 942 1099 m 7 Y s 963 1099 m 7 Y s 984 1099 m 7 Y s 1005 1093 m 13 Y s 1026 1099 m 7 Y s
 1047 1099 m 7 Y s 1068 1099 m 7 Y s 1089 1099 m 7 Y s 1110 1093 m 13 Y s 1131 1099 m 7 Y s 1152 1099 m 7 Y s 1173 1099 m 7 Y s 1195 1099 m 7 Y s 1216 1093 m 13 Y s 1237 1099 m 7 Y s 1258 1099 m 7 Y s 1279 1099 m 7 Y s 1300 1099 m 7 Y s 1321 1093 m
 13 Y s 1342 1099 m 7 Y s 1363 1099 m 7 Y s 1384 1099 m 7 Y s 1405 1099 m 7 Y s 1426 1093 m 13 Y s 899 1093 m 13 Y s 1426 1093 m 13 Y s 899 680 m 426 Y s 915 680 m -16 X s 907 695 m -8 X s 907 710 m -8 X s 907 725 m -8 X s 907 740 m -8 X s 915 755 m
 -16 X s 907 770 m -8 X s 907 785 m -8 X s 907 801 m -8 X s 907 816 m -8 X s 915 831 m -16 X s 907 846 m -8 X s 907 861 m -8 X s 907 876 m -8 X s 907 891 m -8 X s 915 906 m -16 X s 907 921 m -8 X s 907 937 m -8 X s 907 952 m -8 X s 907 967 m -8 X s
 915 982 m -16 X s 907 997 m -8 X s 907 1012 m -8 X s 907 1027 m -8 X s 907 1042 m -8 X s 915 1057 m -16 X s 915 1057 m -16 X s 907 1073 m -8 X s 907 1088 m -8 X s 907 1103 m -8 X s
 gsave  710 563 779 599 C 875.259 670.653 t 0 r /Helvetica findfont 25.6068 sf 0 0 m (0) show NC gr 
 gsave  710 563 779 599 C 861.05 744.539 t 0 r /Helvetica findfont 25.6068 sf 0 0 m (10) show NC gr 
 gsave  710 563 779 599 C 861.05 821.266 t 0 r /Helvetica findfont 25.6068 sf 0 0 m (20) show NC gr 
 gsave  710 563 779 599 C 861.05 895.151 t 0 r /Helvetica findfont 25.6068 sf 0 0 m (30) show NC gr 
 gsave  710 563 779 599 C 861.05 971.878 t 0 r /Helvetica findfont 25.6068 sf 0 0 m (40) show NC gr 
 gsave  710 563 779 599 C 861.05 1048.61 t 0 r /Helvetica findfont 25.6068 sf 0 0 m (50) show NC gr 
 gsave  710 563 779 599 C 801.374 1000.3 t 90 r /Helvetica findfont 28.4519 sf 0 0 m (0.00649 ) show NC gr 
 gsave  710 563 779 599 C 787.165 997.454 t 90 r /Helvetica findfont 19.9164 sf 0 0 m ( ) show NC gr 
 gsave  710 563 779 599 C 801.374 986.087 t 90 r /Helvetica findfont 28.4519 sf 0 0 m (/) show NC gr 
 gsave  710 563 779 599 C 809.899 983.245 t 90 r /Helvetica findfont 19.9164 sf 0 0 m ( ) show NC gr 
 gsave  710 563 779 599 C 801.374 878.101 t 90 r /Helvetica findfont 28.4519 sf 0 0 m (\(1/N\) dN) show NC gr  1447 680 m 426 Y s 1430 680 m 17 X s 1438 695 m 9 X s 1438 710 m 9 X s 1438 725 m 9 X s 1438 740 m 9 X s 1430 755 m 17 X s 1438 770 m 9 X s
 1438 785 m 9 X s 1438 801 m 9 X s 1438 816 m 9 X s 1430 831 m 17 X s 1438 846 m 9 X s 1438 861 m 9 X s 1438 876 m 9 X s 1438 891 m 9 X s 1430 906 m 17 X s 1438 921 m 9 X s 1438 937 m 9 X s 1438 952 m 9 X s 1438 967 m 9 X s 1430 982 m 17 X s 1438 997
 m 9 X s 1438 1012 m 9 X s 1438 1027 m 9 X s 1438 1042 m 9 X s 1430 1057 m 17 X s 1430 1057 m 17 X s 1438 1073 m 9 X s 1438 1088 m 9 X s 1438 1103 m 9 X s 0.490196 0.545098 0.615686 c 0.364706 0.419608 0.490196 c 326 37 786 1122 bf 0.490196 0.545098
 0.615686 c 786 1122 m 326 X s 1112 1122 m 37 Y s 1112 1159 m -326 X s 786 1159 m -37 Y s 1 1 1 c black 1 1 1 c
 gsave  710 563 779 599 C 790.007 1133.86 t 0 r /Helvetica-Bold findfont 28.4519 sf 0 0 m (Input variable: Trk2_d0) show NC gr  1 0 0 c 6 lw black 3 lw 1 0 0 c 1433 681 m -1 -1 d s 1418 680 m -1 X s 1402 680 m s 1389 681 m -2 -1 d s 1372 680 m s 1357
 680 m s 1343 681 m -1 -1 d s 1327 680 m s 1311 680 m s 1297 680 m -1 X s 1283 681 m -2 -1 d s 1267 680 m -1 X s 1251 680 m cl s 1237 681 m -1 -1 d s 1221 680 m cl s 1207 681 m -1 -1 d s 1191 680 m s 1177 681 m -1 -1 d s 1162 681 m -1 -1 d s 1147 681
 m -1 -1 d s 1132 681 m -1 -1 d s 1118 682 m -2 -2 d s 1103 683 m -3 -3 d s 1090 684 m -5 -4 d s 1075 684 m -5 -4 d s 1061 686 m -6 -6 d s 1045 685 m -5 -5 d s 1035 689 m -10 -9 d s 1022 692 m -12 -12 d s 1014 699 m -19 -19 d s 1009 709 m -29 -29 d s
 995 710 m -30 -30 d s 982 712 m -32 -32 d s 981 727 m -46 -47 d s 971 731 m -51 -51 d s 968 743 m -63 -63 d s 968 758 m -69 -68 d s 968 774 m -69 -69 d s 957 778 m -58 -58 d s 954 790 m -55 -55 d s 954 805 m -55 -55 d s 951 818 m -52 -53 d s 940 822
 m -41 -41 d s 940 837 m -41 -41 d s 940 852 m -41 -41 d s 934 861 m -35 -35 d s 927 869 m -28 -28 d s 927 884 m -28 -28 d s 927 899 m -28 -28 d s 927 914 m -28 -27 d s 927 929 m -28 -27 d s 923 940 m -24 -23 d s 913 946 m -14 -14 d s 913 961 m -14
 -14 d s 913 976 m -14 -14 d s 900 978 m -1 -1 d s 6 lw 899 978 m 14 X -38 Y 14 X -79 Y 13 X -43 Y 14 X -40 Y 14 X -47 Y 13 X -19 Y 14 X -3 Y 14 X -10 Y 13 X -10 Y 14 X -4 Y 14 X 1 Y 14 X -2 Y 27 X -1 Y 14 X -1 Y 27 X -1 Y 55 X -1 Y 13 X 1 Y 14 X -1
 Y 14 X 1 Y 13 X -1 Y 28 X 1 Y 27 X -1 Y 41 X 1 Y 14 X -1 Y 27 X 1 Y 14 X -1 Y 27 X 1 Y 28 X s black 3 lw 899 680 m 548 X s 899 693 m -13 Y s 920 686 m -6 Y s 942 686 m -6 Y s 963 686 m -6 Y s 984 686 m -6 Y s 1005 693 m -13 Y s 1026 686 m -6 Y s
 1047 686 m -6 Y s 1068 686 m -6 Y s 1089 686 m -6 Y s 1110 693 m -13 Y s 1131 686 m -6 Y s 1152 686 m -6 Y s 1173 686 m -6 Y s 1195 686 m -6 Y s 1216 693 m -13 Y s 1237 686 m -6 Y s 1258 686 m -6 Y s 1279 686 m -6 Y s 1300 686 m -6 Y s 1321 693 m
 -13 Y s 1342 686 m -6 Y s 1363 686 m -6 Y s 1384 686 m -6 Y s 1405 686 m -6 Y s 1426 693 m -13 Y s 899 693 m -13 Y s 1426 693 m -13 Y s 899 1106 m 548 X s 899 1093 m 13 Y s 920 1099 m 7 Y s 942 1099 m 7 Y s 963 1099 m 7 Y s 984 1099 m 7 Y s 1005
 1093 m 13 Y s 1026 1099 m 7 Y s 1047 1099 m 7 Y s 1068 1099 m 7 Y s 1089 1099 m 7 Y s 1110 1093 m 13 Y s 1131 1099 m 7 Y s 1152 1099 m 7 Y s 1173 1099 m 7 Y s 1195 1099 m 7 Y s 1216 1093 m 13 Y s 1237 1099 m 7 Y s 1258 1099 m 7 Y s 1279 1099 m 7 Y s
 1300 1099 m 7 Y s 1321 1093 m 13 Y s 1342 1099 m 7 Y s 1363 1099 m 7 Y s 1384 1099 m 7 Y s 1405 1099 m 7 Y s 1426 1093 m 13 Y s 899 1093 m 13 Y s 1426 1093 m 13 Y s 899 680 m 426 Y s 915 680 m -16 X s 907 695 m -8 X s 907 710 m -8 X s 907 725 m -8 X
 s 907 740 m -8 X s 915 755 m -16 X s 907 770 m -8 X s 907 785 m -8 X s 907 801 m -8 X s 907 816 m -8 X s 915 831 m -16 X s 907 846 m -8 X s 907 861 m -8 X s 907 876 m -8 X s 907 891 m -8 X s 915 906 m -16 X s 907 921 m -8 X s 907 937 m -8 X s 907
 952 m -8 X s 907 967 m -8 X s 915 982 m -16 X s 907 997 m -8 X s 907 1012 m -8 X s 907 1027 m -8 X s 907 1042 m -8 X s 915 1057 m -16 X s 915 1057 m -16 X s 907 1073 m -8 X s 907 1088 m -8 X s 907 1103 m -8 X s 1447 680 m 426 Y s 1430 680 m 17 X s
 1438 695 m 9 X s 1438 710 m 9 X s 1438 725 m 9 X s 1438 740 m 9 X s 1430 755 m 17 X s 1438 770 m 9 X s 1438 785 m 9 X s 1438 801 m 9 X s 1438 816 m 9 X s 1430 831 m 17 X s 1438 846 m 9 X s 1438 861 m 9 X s 1438 876 m 9 X s 1438 891 m 9 X s 1430 906
 m 17 X s 1438 921 m 9 X s 1438 937 m 9 X s 1438 952 m 9 X s 1438 967 m 9 X s 1430 982 m 17 X s 1438 997 m 9 X s 1438 1012 m 9 X s 1438 1027 m 9 X s 1438 1042 m 9 X s 1430 1057 m 17 X s 1430 1057 m 17 X s 1438 1073 m 9 X s 1438 1088 m 9 X s 1438 1103
 m 9 X s
 gsave  710 563 779 599 C 1474.92 677.427 t 90 r /Helvetica-Bold findfont 19.9164 sf 0 0 m (U/O\255flow \(S,B\): \(0.0, 0.0\)% / \(0.2, 0.9\)%) show NC gr  0.490196 0.545098 0.615686 c 0.364706 0.419608 0.490196 c 326 37 786 1122 bf 0.490196 0.545098
 0.615686 c 786 1122 m 326 X s 1112 1122 m 37 Y s 1112 1159 m -326 X s 786 1159 m -37 Y s 1 1 1 c black 1 1 1 c
 gsave  710 563 779 599 C 790.007 1133.86 t 0 r /Helvetica-Bold findfont 28.4519 sf 0 0 m (Input variable: Trk2_d0) show NC gr  0.490196 0.545098 0.615686 c 0.941176 0.941176 0.941176 c 711 563 1534 599 bf black 1 1 0.992157 c 547 426 1655 680 bf
 black 547 426 1655 680 bl 0 0 0.933333 c 6 lw 0.49 0.6 0.82 c black 3 lw 0.49 0.6 0.82 c 1655 680 m 387 Y 14 X -66 Y 14 X -88 Y 13 X -79 Y 14 X -51 Y 14 X -25 Y 13 X -20 Y 14 X -19 Y 14 X -10 Y 13 X -8 Y 14 X -3 Y 14 X -7 Y 13 X -3 Y 14 X -2 Y 14 X
 -3 Y 13 X 1 Y 14 X -2 Y 14 X -1 Y 27 X -1 Y 287 X f 6 lw 0 0 0.933333 c 0.49 0.6 0.82 c 0 0 0.933333 c 1655 1067 m 14 X -66 Y 14 X -88 Y 13 X -79 Y 14 X -51 Y 14 X -25 Y 13 X -20 Y 14 X -19 Y 14 X -10 Y 13 X -8 Y 14 X -3 Y 14 X -7 Y 13 X -3 Y 14 X
 -2 Y 14 X -3 Y 13 X 1 Y 14 X -2 Y 14 X -1 Y 27 X -1 Y 287 X s black 3 lw 1655 680 m 547 X s 1655 693 m -13 Y s 1668 686 m -6 Y s 1682 686 m -6 Y s 1695 686 m -6 Y s 1708 686 m -6 Y s 1721 693 m -13 Y s 1734 686 m -6 Y s 1748 686 m -6 Y s 1761 686 m
 -6 Y s 1774 686 m -6 Y s 1787 693 m -13 Y s 1800 686 m -6 Y s 1813 686 m -6 Y s 1827 686 m -6 Y s 1840 686 m -6 Y s 1853 693 m -13 Y s 1866 686 m -6 Y s 1879 686 m -6 Y s 1892 686 m -6 Y s 1906 686 m -6 Y s 1919 693 m -13 Y s 1932 686 m -6 Y s 1945
 686 m -6 Y s 1958 686 m -6 Y s 1971 686 m -6 Y s 1985 693 m -13 Y s 1998 686 m -6 Y s 2011 686 m -6 Y s 2024 686 m -6 Y s 2037 686 m -6 Y s 2051 693 m -13 Y s 2064 686 m -6 Y s 2077 686 m -6 Y s 2090 686 m -6 Y s 2103 686 m -6 Y s 2116 693 m -13 Y s
 2130 686 m -6 Y s 2143 686 m -6 Y s 2156 686 m -6 Y s 2169 686 m -6 Y s 2182 693 m -13 Y s 2182 693 m -13 Y s 2195 686 m -6 Y s
 gsave  711 563 1534 599 C 1645.37 653.602 t 0 r /Helvetica findfont 25.6068 sf 0 0 m (0) show NC gr 
 gsave  711 563 1534 599 C 1693.68 653.602 t 0 r /Helvetica findfont 25.6068 sf 0 0 m (0.05) show NC gr 
 gsave  711 563 1534 599 C 1767.57 653.602 t 0 r /Helvetica findfont 25.6068 sf 0 0 m (0.1) show NC gr 
 gsave  711 563 1534 599 C 1827.25 653.602 t 0 r /Helvetica findfont 25.6068 sf 0 0 m (0.15) show NC gr 
 gsave  711 563 1534 599 C 1901.13 653.602 t 0 r /Helvetica findfont 25.6068 sf 0 0 m (0.2) show NC gr 
 gsave  711 563 1534 599 C 1957.97 653.602 t 0 r /Helvetica findfont 25.6068 sf 0 0 m (0.25) show NC gr 
 gsave  711 563 1534 599 C 2031.85 653.602 t 0 r /Helvetica findfont 25.6068 sf 0 0 m (0.3) show NC gr 
 gsave  711 563 1534 599 C 2088.69 653.602 t 0 r /Helvetica findfont 25.6068 sf 0 0 m (0.35) show NC gr 
 gsave  711 563 1534 599 C 2162.57 653.602 t 0 r /Helvetica findfont 25.6068 sf 0 0 m (0.4) show NC gr 
 gsave  711 563 1534 599 C 2100.05 608.134 t 0 r /Helvetica findfont 28.4519 sf 0 0 m (Trk1_z0) show NC gr  1655 1106 m 547 X s 1655 1093 m 13 Y s 1668 1099 m 7 Y s 1682 1099 m 7 Y s 1695 1099 m 7 Y s 1708 1099 m 7 Y s 1721 1093 m 13 Y s 1734 1099 m
 7 Y s 1748 1099 m 7 Y s 1761 1099 m 7 Y s 1774 1099 m 7 Y s 1787 1093 m 13 Y s 1800 1099 m 7 Y s 1813 1099 m 7 Y s 1827 1099 m 7 Y s 1840 1099 m 7 Y s 1853 1093 m 13 Y s 1866 1099 m 7 Y s 1879 1099 m 7 Y s 1892 1099 m 7 Y s 1906 1099 m 7 Y s 1919
 1093 m 13 Y s 1932 1099 m 7 Y s 1945 1099 m 7 Y s 1958 1099 m 7 Y s 1971 1099 m 7 Y s 1985 1093 m 13 Y s 1998 1099 m 7 Y s 2011 1099 m 7 Y s 2024 1099 m 7 Y s 2037 1099 m 7 Y s 2051 1093 m 13 Y s 2064 1099 m 7 Y s 2077 1099 m 7 Y s 2090 1099 m 7 Y s
 2103 1099 m 7 Y s 2116 1093 m 13 Y s 2130 1099 m 7 Y s 2143 1099 m 7 Y s 2156 1099 m 7 Y s 2169 1099 m 7 Y s 2182 1093 m 13 Y s 2182 1093 m 13 Y s 2195 1099 m 7 Y s 1655 680 m 426 Y s 1671 680 m -16 X s 1663 695 m -8 X s 1663 711 m -8 X s 1663 726 m
 -8 X s 1663 742 m -8 X s 1671 757 m -16 X s 1663 773 m -8 X s 1663 788 m -8 X s 1663 803 m -8 X s 1663 819 m -8 X s 1671 834 m -16 X s 1663 850 m -8 X s 1663 865 m -8 X s 1663 881 m -8 X s 1663 896 m -8 X s 1671 912 m -16 X s 1663 927 m -8 X s 1663
 943 m -8 X s 1663 958 m -8 X s 1663 974 m -8 X s 1671 989 m -16 X s 1663 1005 m -8 X s 1663 1020 m -8 X s 1663 1036 m -8 X s 1663 1051 m -8 X s 1671 1067 m -16 X s 1671 1067 m -16 X s 1663 1082 m -8 X s 1663 1097 m -8 X s
 gsave  711 563 1534 599 C 1631.16 670.653 t 0 r /Helvetica findfont 25.6068 sf 0 0 m (0) show NC gr 
 gsave  711 563 1534 599 C 1631.16 747.38 t 0 r /Helvetica findfont 25.6068 sf 0 0 m (5) show NC gr 
 gsave  711 563 1534 599 C 1616.96 824.107 t 0 r /Helvetica findfont 25.6068 sf 0 0 m (10) show NC gr 
 gsave  711 563 1534 599 C 1616.96 900.835 t 0 r /Helvetica findfont 25.6068 sf 0 0 m (15) show NC gr 
 gsave  711 563 1534 599 C 1616.96 980.404 t 0 r /Helvetica findfont 25.6068 sf 0 0 m (20) show NC gr 
 gsave  711 563 1534 599 C 1616.96 1057.13 t 0 r /Helvetica findfont 25.6068 sf 0 0 m (25) show NC gr 
 gsave  711 563 1534 599 C 1557.28 1017.35 t 90 r /Helvetica findfont 28.4519 sf 0 0 m (0.0104 ) show NC gr 
 gsave  711 563 1534 599 C 1543.07 1014.5 t 90 r /Helvetica findfont 19.9164 sf 0 0 m ( ) show NC gr 
 gsave  711 563 1534 599 C 1557.28 1003.14 t 90 r /Helvetica findfont 28.4519 sf 0 0 m (/) show NC gr 
 gsave  711 563 1534 599 C 1565.8 1000.3 t 90 r /Helvetica findfont 19.9164 sf 0 0 m ( ) show NC gr 
 gsave  711 563 1534 599 C 1557.28 895.151 t 90 r /Helvetica findfont 28.4519 sf 0 0 m (\(1/N\) dN) show NC gr  2202 680 m 426 Y s 2186 680 m 16 X s 2194 695 m 8 X s 2194 711 m 8 X s 2194 726 m 8 X s 2194 742 m 8 X s 2186 757 m 16 X s 2194 773 m 8 X
 s 2194 788 m 8 X s 2194 803 m 8 X s 2194 819 m 8 X s 2186 834 m 16 X s 2194 850 m 8 X s 2194 865 m 8 X s 2194 881 m 8 X s 2194 896 m 8 X s 2186 912 m 16 X s 2194 927 m 8 X s 2194 943 m 8 X s 2194 958 m 8 X s 2194 974 m 8 X s 2186 989 m 16 X s 2194
 1005 m 8 X s 2194 1020 m 8 X s 2194 1036 m 8 X s 2194 1051 m 8 X s 2186 1067 m 16 X s 2186 1067 m 16 X s 2194 1082 m 8 X s 2194 1097 m 8 X s 0.490196 0.545098 0.615686 c 0.364706 0.419608 0.490196 c 324 37 1542 1122 bf 0.490196 0.545098 0.615686 c
 1542 1122 m 324 X s 1866 1122 m 37 Y s 1866 1159 m -324 X s 1542 1159 m -37 Y s 1 1 1 c black 1 1 1 c
 gsave  711 563 1534 599 C 1545.91 1133.86 t 0 r /Helvetica-Bold findfont 28.4519 sf 0 0 m (Input variable: Trk1_z0) show NC gr  1 0 0 c 6 lw black 3 lw 1 0 0 c 2189 680 m s 2188 680 m s 2175 682 m -2 -2 d s 2159 681 m -1 -1 d s 2144 680 m -1 X s
 2129 681 m -1 -1 d s 2116 683 m -3 -3 d s 2099 681 m -1 -1 d s 2085 683 m -3 -3 d s 2069 681 m -2 -1 d s 2055 682 m -3 -2 d s 2040 683 m -3 -3 d s 2030 687 m -8 -7 d s 2012 685 m -1 -1 d s 2011 683 m -4 -3 d s 1997 684 m -5 -4 d s 1983 686 m -6 -6 d
 s 1970 688 m -8 -8 d s 1956 689 m -9 -9 d s 1938 686 m -6 -6 d s 1921 684 m -4 -4 d s 1914 693 m -12 -13 d s 1893 686 m -6 -6 d s 1888 696 m -17 -16 d s 1874 698 m s 1866 690 m -10 -10 d s 1857 696 m -16 -16 d s 1847 700 m -21 -20 d s 1833 702 m -22
 -22 d s 1823 707 m -27 -27 d s 1806 705 m -25 -25 d s 1793 707 m -27 -27 d s 1792 721 m -41 -41 d s 1778 722 m -42 -42 d s 1772 731 m -51 -51 d s 1755 730 m -49 -50 d s 1751 740 m -60 -60 d s 1745 749 m -70 -69 d s 1734 754 m -74 -74 d s 1724 758 m
 -69 -68 d s 1724 774 m -69 -69 d s 1724 789 m -69 -69 d s 1714 794 m -59 -59 d s 1710 805 m -55 -55 d s 1710 820 m -55 -55 d s 1708 833 m -53 -52 d s 1696 837 m -41 -41 d s 1696 852 m -41 -41 d s 1696 867 m -41 -41 d s 1683 869 m -28 -28 d s 1683
 884 m -28 -28 d s 1683 899 m -28 -28 d s 1683 914 m -28 -27 d s 1670 917 m -15 -15 d s 1669 931 m -14 -14 d s 1669 946 m -14 -14 d s 1656 948 m -1 -1 d s 6 lw 1655 948 m 14 X -31 Y 14 X -48 Y 13 X -36 Y 14 X -39 Y 14 X -40 Y 13 X -5 Y 14 X -19 Y 14
 X 1 Y 13 X -10 Y 14 X -14 Y 14 X -2 Y 13 X 2 Y 14 X -7 Y 14 X -4 Y 13 X -6 Y 14 X 8 Y 14 X -12 Y 13 X 7 Y 14 X -9 Y 14 X 2 Y 14 X 4 Y 13 X -2 Y 14 X -2 Y 14 X -2 Y 13 X -1 Y 14 X 2 Y 14 X 2 Y 13 X -4 Y 14 X -1 Y 14 X -1 Y 13 X 2 Y 14 X -2 Y 14 X 2 Y
 13 X -2 Y 14 X -1 Y 14 X 1 Y 13 X 2 Y 14 X -3 Y 27 X s black 3 lw 1655 680 m 547 X s 1655 693 m -13 Y s 1668 686 m -6 Y s 1682 686 m -6 Y s 1695 686 m -6 Y s 1708 686 m -6 Y s 1721 693 m -13 Y s 1734 686 m -6 Y s 1748 686 m -6 Y s 1761 686 m -6 Y s
 1774 686 m -6 Y s 1787 693 m -13 Y s 1800 686 m -6 Y s 1813 686 m -6 Y s 1827 686 m -6 Y s 1840 686 m -6 Y s 1853 693 m -13 Y s 1866 686 m -6 Y s 1879 686 m -6 Y s 1892 686 m -6 Y s 1906 686 m -6 Y s 1919 693 m -13 Y s 1932 686 m -6 Y s 1945 686 m
 -6 Y s 1958 686 m -6 Y s 1971 686 m -6 Y s 1985 693 m -13 Y s 1998 686 m -6 Y s 2011 686 m -6 Y s 2024 686 m -6 Y s 2037 686 m -6 Y s 2051 693 m -13 Y s 2064 686 m -6 Y s 2077 686 m -6 Y s 2090 686 m -6 Y s 2103 686 m -6 Y s 2116 693 m -13 Y s 2130
 686 m -6 Y s 2143 686 m -6 Y s 2156 686 m -6 Y s 2169 686 m -6 Y s 2182 693 m -13 Y s 2182 693 m -13 Y s 2195 686 m -6 Y s 1655 1106 m 547 X s 1655 1093 m 13 Y s 1668 1099 m 7 Y s 1682 1099 m 7 Y s 1695 1099 m 7 Y s 1708 1099 m 7 Y s 1721 1093 m 13
 Y s 1734 1099 m 7 Y s 1748 1099 m 7 Y s 1761 1099 m 7 Y s 1774 1099 m 7 Y s 1787 1093 m 13 Y s 1800 1099 m 7 Y s 1813 1099 m 7 Y s 1827 1099 m 7 Y s 1840 1099 m 7 Y s 1853 1093 m 13 Y s 1866 1099 m 7 Y s 1879 1099 m 7 Y s 1892 1099 m 7 Y s 1906 1099
 m 7 Y s 1919 1093 m 13 Y s 1932 1099 m 7 Y s 1945 1099 m 7 Y s 1958 1099 m 7 Y s 1971 1099 m 7 Y s 1985 1093 m 13 Y s 1998 1099 m 7 Y s 2011 1099 m 7 Y s 2024 1099 m 7 Y s 2037 1099 m 7 Y s 2051 1093 m 13 Y s 2064 1099 m 7 Y s 2077 1099 m 7 Y s 2090
 1099 m 7 Y s 2103 1099 m 7 Y s 2116 1093 m 13 Y s 2130 1099 m 7 Y s 2143 1099 m 7 Y s 2156 1099 m 7 Y s 2169 1099 m 7 Y s 2182 1093 m 13 Y s 2182 1093 m 13 Y s 2195 1099 m 7 Y s 1655 680 m 426 Y s 1671 680 m -16 X s 1663 695 m -8 X s 1663 711 m -8 X
 s 1663 726 m -8 X s 1663 742 m -8 X s 1671 757 m -16 X s 1663 773 m -8 X s 1663 788 m -8 X s 1663 803 m -8 X s 1663 819 m -8 X s 1671 834 m -16 X s 1663 850 m -8 X s 1663 865 m -8 X s 1663 881 m -8 X s 1663 896 m -8 X s 1671 912 m -16 X s 1663 927 m
 -8 X s 1663 943 m -8 X s 1663 958 m -8 X s 1663 974 m -8 X s 1671 989 m -16 X s 1663 1005 m -8 X s 1663 1020 m -8 X s 1663 1036 m -8 X s 1663 1051 m -8 X s 1671 1067 m -16 X s 1671 1067 m -16 X s 1663 1082 m -8 X s 1663 1097 m -8 X s 2202 680 m 426
 Y s 2186 680 m 16 X s 2194 695 m 8 X s 2194 711 m 8 X s 2194 726 m 8 X s 2194 742 m 8 X s 2186 757 m 16 X s 2194 773 m 8 X s 2194 788 m 8 X s 2194 803 m 8 X s 2194 819 m 8 X s 2186 834 m 16 X s 2194 850 m 8 X s 2194 865 m 8 X s 2194 881 m 8 X s 2194
 896 m 8 X s 2186 912 m 16 X s 2194 927 m 8 X s 2194 943 m 8 X s 2194 958 m 8 X s 2194 974 m 8 X s 2186 989 m 16 X s 2194 1005 m 8 X s 2194 1020 m 8 X s 2194 1036 m 8 X s 2194 1051 m 8 X s 2186 1067 m 16 X s 2186 1067 m 16 X s 2194 1082 m 8 X s 2194
 1097 m 8 X s
 gsave  711 563 1534 599 C 2230.83 677.427 t 90 r /Helvetica-Bold findfont 19.9164 sf 0 0 m (U/O\255flow \(S,B\): \(0.0, 0.0\)% / \(0.0, 0.7\)%) show NC gr  0.490196 0.545098 0.615686 c 0.364706 0.419608 0.490196 c 324 37 1542 1122 bf 0.490196
 0.545098 0.615686 c 1542 1122 m 324 X s 1866 1122 m 37 Y s 1866 1159 m -324 X s 1542 1159 m -37 Y s 1 1 1 c black 1 1 1 c
 gsave  711 563 1534 599 C 1545.91 1133.86 t 0 r /Helvetica-Bold findfont 28.4519 sf 0 0 m (Input variable: Trk1_z0) show NC gr  0.490196 0.545098 0.615686 c 0.941176 0.941176 0.941176 c 710 563 23 12 bf black 1 1 0.992157 c 548 426 143 93 bf black
 548 426 143 93 bl 0 0 0.933333 c 6 lw 0.49 0.6 0.82 c black 3 lw 0.49 0.6 0.82 c 143 93 m 387 Y 14 X -83 Y 14 X -98 Y 14 X -59 Y 13 X -48 Y 14 X -31 Y 14 X -19 Y 13 X -13 Y 14 X -8 Y 14 X -6 Y 13 X -9 Y 14 X -7 Y 14 X -1 Y 13 X 2 Y 14 X -3 Y 14 X -3
 Y 13 X 1 Y 14 X -1 Y 68 X -1 Y 247 X f 6 lw 0 0 0.933333 c 0.49 0.6 0.82 c 0 0 0.933333 c 143 480 m 14 X -83 Y 14 X -98 Y 14 X -59 Y 13 X -48 Y 14 X -31 Y 14 X -19 Y 13 X -13 Y 14 X -8 Y 14 X -6 Y 13 X -9 Y 14 X -7 Y 14 X -1 Y 13 X 2 Y 14 X -3 Y 14
 X -3 Y 13 X 1 Y 14 X -1 Y 68 X -1 Y 247 X s black 3 lw 143 93 m 548 X s 143 106 m -13 Y s 156 99 m -6 Y s 168 99 m -6 Y s 180 99 m -6 Y s 193 99 m -6 Y s 205 106 m -13 Y s 217 99 m -6 Y s 229 99 m -6 Y s 242 99 m -6 Y s 254 99 m -6 Y s 266 106 m -13
 Y s 279 99 m -6 Y s 291 99 m -6 Y s 303 99 m -6 Y s 315 99 m -6 Y s 328 106 m -13 Y s 340 99 m -6 Y s 352 99 m -6 Y s 364 99 m -6 Y s 377 99 m -6 Y s 389 106 m -13 Y s 401 99 m -6 Y s 414 99 m -6 Y s 426 99 m -6 Y s 438 99 m -6 Y s 450 106 m -13 Y s
 463 99 m -6 Y s 475 99 m -6 Y s 487 99 m -6 Y s 499 99 m -6 Y s 512 106 m -13 Y s 524 99 m -6 Y s 536 99 m -6 Y s 549 99 m -6 Y s 561 99 m -6 Y s 573 106 m -13 Y s 585 99 m -6 Y s 598 99 m -6 Y s 610 99 m -6 Y s 622 99 m -6 Y s 635 106 m -13 Y s 143
 106 m -13 Y s 635 106 m -13 Y s 647 99 m -6 Y s 659 99 m -6 Y s 671 99 m -6 Y s 684 99 m -6 Y s
 gsave  710 563 23 12 C 133.562 65.3603 t 0 r /Helvetica findfont 25.6068 sf 0 0 m (0) show NC gr 
 gsave  710 563 23 12 C 179.03 65.3603 t 0 r /Helvetica findfont 25.6068 sf 0 0 m (0.05) show NC gr 
 gsave  710 563 23 12 C 247.232 65.3603 t 0 r /Helvetica findfont 25.6068 sf 0 0 m (0.1) show NC gr 
 gsave  710 563 23 12 C 301.225 65.3603 t 0 r /Helvetica findfont 25.6068 sf 0 0 m (0.15) show NC gr 
 gsave  710 563 23 12 C 369.428 65.3603 t 0 r /Helvetica findfont 25.6068 sf 0 0 m (0.2) show NC gr 
 gsave  710 563 23 12 C 423.421 65.3603 t 0 r /Helvetica findfont 25.6068 sf 0 0 m (0.25) show NC gr 
 gsave  710 563 23 12 C 494.465 65.3603 t 0 r /Helvetica findfont 25.6068 sf 0 0 m (0.3) show NC gr 
 gsave  710 563 23 12 C 545.616 65.3603 t 0 r /Helvetica findfont 25.6068 sf 0 0 m (0.35) show NC gr 
 gsave  710 563 23 12 C 616.66 65.3603 t 0 r /Helvetica findfont 25.6068 sf 0 0 m (0.4) show NC gr 
 gsave  710 563 23 12 C 588.242 22.734 t 0 r /Helvetica findfont 28.4519 sf 0 0 m (Trk2_z0) show NC gr  143 519 m 548 X s 143 506 m 13 Y s 156 512 m 7 Y s 168 512 m 7 Y s 180 512 m 7 Y s 193 512 m 7 Y s 205 506 m 13 Y s 217 512 m 7 Y s 229 512 m 7 Y
 s 242 512 m 7 Y s 254 512 m 7 Y s 266 506 m 13 Y s 279 512 m 7 Y s 291 512 m 7 Y s 303 512 m 7 Y s 315 512 m 7 Y s 328 506 m 13 Y s 340 512 m 7 Y s 352 512 m 7 Y s 364 512 m 7 Y s 377 512 m 7 Y s 389 506 m 13 Y s 401 512 m 7 Y s 414 512 m 7 Y s 426
 512 m 7 Y s 438 512 m 7 Y s 450 506 m 13 Y s 463 512 m 7 Y s 475 512 m 7 Y s 487 512 m 7 Y s 499 512 m 7 Y s 512 506 m 13 Y s 524 512 m 7 Y s 536 512 m 7 Y s 549 512 m 7 Y s 561 512 m 7 Y s 573 506 m 13 Y s 585 512 m 7 Y s 598 512 m 7 Y s 610 512 m
 7 Y s 622 512 m 7 Y s 635 506 m 13 Y s 143 506 m 13 Y s 635 506 m 13 Y s 647 512 m 7 Y s 659 512 m 7 Y s 671 512 m 7 Y s 684 512 m 7 Y s 143 93 m 426 Y s 160 93 m -17 X s 152 108 m -9 X s 152 124 m -9 X s 152 139 m -9 X s 152 155 m -9 X s 160 171 m
 -17 X s 152 186 m -9 X s 152 202 m -9 X s 152 217 m -9 X s 152 233 m -9 X s 160 248 m -17 X s 152 264 m -9 X s 152 279 m -9 X s 152 295 m -9 X s 152 310 m -9 X s 160 326 m -17 X s 152 342 m -9 X s 152 357 m -9 X s 152 373 m -9 X s 152 388 m -9 X s
 160 404 m -17 X s 152 419 m -9 X s 152 435 m -9 X s 152 450 m -9 X s 152 466 m -9 X s 160 481 m -17 X s 160 481 m -17 X s 152 497 m -9 X s 152 513 m -9 X s
 gsave  710 563 23 12 C 119.354 82.4108 t 0 r /Helvetica findfont 25.6068 sf 0 0 m (0) show NC gr 
 gsave  710 563 23 12 C 119.354 161.98 t 0 r /Helvetica findfont 25.6068 sf 0 0 m (5) show NC gr 
 gsave  710 563 23 12 C 105.145 238.707 t 0 r /Helvetica findfont 25.6068 sf 0 0 m (10) show NC gr 
 gsave  710 563 23 12 C 105.145 315.434 t 0 r /Helvetica findfont 25.6068 sf 0 0 m (15) show NC gr 
 gsave  710 563 23 12 C 105.145 395.003 t 0 r /Helvetica findfont 25.6068 sf 0 0 m (20) show NC gr 
 gsave  710 563 23 12 C 105.145 471.73 t 0 r /Helvetica findfont 25.6068 sf 0 0 m (25) show NC gr 
 gsave  710 563 23 12 C 45.468 431.946 t 90 r /Helvetica findfont 28.4519 sf 0 0 m (0.0111 ) show NC gr 
 gsave  710 563 23 12 C 31.2593 429.104 t 90 r /Helvetica findfont 19.9164 sf 0 0 m ( ) show NC gr 
 gsave  710 563 23 12 C 45.468 417.737 t 90 r /Helvetica findfont 28.4519 sf 0 0 m (/) show NC gr 
 gsave  710 563 23 12 C 53.9933 414.895 t 90 r /Helvetica findfont 19.9164 sf 0 0 m ( ) show NC gr 
 gsave  710 563 23 12 C 45.468 309.751 t 90 r /Helvetica findfont 28.4519 sf 0 0 m (\(1/N\) dN) show NC gr  691 93 m 426 Y s 674 93 m 17 X s 683 108 m 8 X s 683 124 m 8 X s 683 139 m 8 X s 683 155 m 8 X s 674 171 m 17 X s 683 186 m 8 X s 683 202 m 8
 X s 683 217 m 8 X s 683 233 m 8 X s 674 248 m 17 X s 683 264 m 8 X s 683 279 m 8 X s 683 295 m 8 X s 683 310 m 8 X s 674 326 m 17 X s 683 342 m 8 X s 683 357 m 8 X s 683 373 m 8 X s 683 388 m 8 X s 674 404 m 17 X s 683 419 m 8 X s 683 435 m 8 X s
 683 450 m 8 X s 683 466 m 8 X s 674 481 m 17 X s 674 481 m 17 X s 683 497 m 8 X s 683 513 m 8 X s 0.490196 0.545098 0.615686 c 0.364706 0.419608 0.490196 c 324 37 30 535 bf 0.490196 0.545098 0.615686 c 30 535 m 324 X s 354 535 m 37 Y s 354 572 m
 -324 X s 30 572 m -37 Y s 1 1 1 c black 1 1 1 c
 gsave  710 563 23 12 C 34.101 545.616 t 0 r /Helvetica-Bold findfont 28.4519 sf 0 0 m (Input variable: Trk2_z0) show NC gr  1 0 0 c 6 lw black 3 lw 1 0 0 c 676 93 m s 662 94 m -1 -1 d s 646 93 m s 632 94 m -1 -1 d s 617 94 m -1 -1 d s 602 94 m -1 -1
 d s 586 93 m s 572 94 m -1 -1 d s 556 94 m -1 Y s 543 95 m -2 -2 d s 526 94 m -1 -1 d s 511 94 m -1 -1 d s 498 96 m -3 -3 d s 483 96 m -3 -3 d s 469 96 m -4 -3 d s 452 95 m -2 -2 d s 439 97 m -4 -4 d s 425 98 m -5 -5 d s 411 99 m -6 -6 d s 397 100 m
 -7 -7 d s 382 100 m -7 -7 d s 370 104 m -10 -11 d s 353 101 m -8 -8 d s 342 106 m -13 -13 d s 331 109 m -17 -16 d s 316 109 m -17 -16 d s 308 116 m -24 -23 d s 289 113 m -20 -20 d s 280 119 m -26 -26 d s 275 129 m -36 -36 d s 261 130 m -37 -37 d s
 253 137 m -44 -44 d s 245 145 m -51 -52 d s 233 148 m -54 -55 d s 226 155 m -62 -62 d s 226 170 m -77 -77 d s 223 183 m -80 -80 d s 212 187 m -69 -69 d s 206 196 m -63 -63 d s 198 203 m -55 -55 d s 198 218 m -55 -55 d s 196 231 m -53 -52 d s 185 235
 m -42 -41 d s 185 250 m -42 -41 d s 185 265 m -42 -41 d s 185 280 m -42 -41 d s 185 296 m -42 -42 d s 175 301 m -32 -32 d s 171 312 m -28 -27 d s 171 327 m -28 -27 d s 164 336 m -21 -21 d s 157 344 m -14 -14 d s 157 359 m -14 -14 d s 149 366 m -6 -6
 d s 6 lw 143 366 m 14 X -30 Y 14 X -35 Y 14 X -70 Y 13 X -35 Y 14 X -13 Y 14 X -35 Y 13 X -3 Y 14 X -15 Y 14 X -1 Y 13 X -16 Y 14 X 5 Y 14 X -9 Y 27 X -3 Y 14 X -5 Y 13 X 3 Y 14 X -4 Y 27 X -1 Y 14 X -1 Y 14 X -1 Y 13 X -2 Y 14 X 1 Y 41 X -2 Y 41 X
 1 Y 14 X -1 Y 27 X -1 Y 14 X 1 Y 41 X -1 Y 14 X 1 Y 13 X -1 Y 14 X 1 Y 14 X s black 3 lw 143 93 m 548 X s 143 106 m -13 Y s 156 99 m -6 Y s 168 99 m -6 Y s 180 99 m -6 Y s 193 99 m -6 Y s 205 106 m -13 Y s 217 99 m -6 Y s 229 99 m -6 Y s 242 99 m -6
 Y s 254 99 m -6 Y s 266 106 m -13 Y s 279 99 m -6 Y s 291 99 m -6 Y s 303 99 m -6 Y s 315 99 m -6 Y s 328 106 m -13 Y s 340 99 m -6 Y s 352 99 m -6 Y s 364 99 m -6 Y s 377 99 m -6 Y s 389 106 m -13 Y s 401 99 m -6 Y s 414 99 m -6 Y s 426 99 m -6 Y s
 438 99 m -6 Y s 450 106 m -13 Y s 463 99 m -6 Y s 475 99 m -6 Y s 487 99 m -6 Y s 499 99 m -6 Y s 512 106 m -13 Y s 524 99 m -6 Y s 536 99 m -6 Y s 549 99 m -6 Y s 561 99 m -6 Y s 573 106 m -13 Y s 585 99 m -6 Y s 598 99 m -6 Y s 610 99 m -6 Y s 622
 99 m -6 Y s 635 106 m -13 Y s 143 106 m -13 Y s 635 106 m -13 Y s 647 99 m -6 Y s 659 99 m -6 Y s 671 99 m -6 Y s 684 99 m -6 Y s 143 519 m 548 X s 143 506 m 13 Y s 156 512 m 7 Y s 168 512 m 7 Y s 180 512 m 7 Y s 193 512 m 7 Y s 205 506 m 13 Y s 217
 512 m 7 Y s 229 512 m 7 Y s 242 512 m 7 Y s 254 512 m 7 Y s 266 506 m 13 Y s 279 512 m 7 Y s 291 512 m 7 Y s 303 512 m 7 Y s 315 512 m 7 Y s 328 506 m 13 Y s 340 512 m 7 Y s 352 512 m 7 Y s 364 512 m 7 Y s 377 512 m 7 Y s 389 506 m 13 Y s 401 512 m
 7 Y s 414 512 m 7 Y s 426 512 m 7 Y s 438 512 m 7 Y s 450 506 m 13 Y s 463 512 m 7 Y s 475 512 m 7 Y s 487 512 m 7 Y s 499 512 m 7 Y s 512 506 m 13 Y s 524 512 m 7 Y s 536 512 m 7 Y s 549 512 m 7 Y s 561 512 m 7 Y s 573 506 m 13 Y s 585 512 m 7 Y s
 598 512 m 7 Y s 610 512 m 7 Y s 622 512 m 7 Y s 635 506 m 13 Y s 143 506 m 13 Y s 635 506 m 13 Y s 647 512 m 7 Y s 659 512 m 7 Y s 671 512 m 7 Y s 684 512 m 7 Y s 143 93 m 426 Y s 160 93 m -17 X s 152 108 m -9 X s 152 124 m -9 X s 152 139 m -9 X s
 152 155 m -9 X s 160 171 m -17 X s 152 186 m -9 X s 152 202 m -9 X s 152 217 m -9 X s 152 233 m -9 X s 160 248 m -17 X s 152 264 m -9 X s 152 279 m -9 X s 152 295 m -9 X s 152 310 m -9 X s 160 326 m -17 X s 152 342 m -9 X s 152 357 m -9 X s 152 373
 m -9 X s 152 388 m -9 X s 160 404 m -17 X s 152 419 m -9 X s 152 435 m -9 X s 152 450 m -9 X s 152 466 m -9 X s 160 481 m -17 X s 160 481 m -17 X s 152 497 m -9 X s 152 513 m -9 X s 691 93 m 426 Y s 674 93 m 17 X s 683 108 m 8 X s 683 124 m 8 X s
 683 139 m 8 X s 683 155 m 8 X s 674 171 m 17 X s 683 186 m 8 X s 683 202 m 8 X s 683 217 m 8 X s 683 233 m 8 X s 674 248 m 17 X s 683 264 m 8 X s 683 279 m 8 X s 683 295 m 8 X s 683 310 m 8 X s 674 326 m 17 X s 683 342 m 8 X s 683 357 m 8 X s 683
 373 m 8 X s 683 388 m 8 X s 674 404 m 17 X s 683 419 m 8 X s 683 435 m 8 X s 683 450 m 8 X s 683 466 m 8 X s 674 481 m 17 X s 674 481 m 17 X s 683 497 m 8 X s 683 513 m 8 X s
 gsave  710 563 23 12 C 719.017 90.6052 t 90 r /Helvetica-Bold findfont 19.9164 sf 0 0 m (U/O\255flow \(S,B\): \(0.0, 0.0\)% / \(0.1, 0.9\)%) show NC gr  0.490196 0.545098 0.615686 c 0.364706 0.419608 0.490196 c 324 37 30 535 bf 0.490196 0.545098
 0.615686 c 30 535 m 324 X s 354 535 m 37 Y s 354 572 m -324 X s 30 572 m -37 Y s 1 1 1 c black 1 1 1 c
 gsave  710 563 23 12 C 34.101 545.616 t 0 r /Helvetica-Bold findfont 28.4519 sf 0 0 m (Input variable: Trk2_z0) show NC gr  0.490196 0.545098 0.615686 c 0.941176 0.941176 0.941176 c 710 563 779 12 bf black 1 1 0.992157 c 548 426 899 93 bf black 548
 426 899 93 bl 0 0 0.933333 c 6 lw 0.49 0.6 0.82 c black 3 lw 0.49 0.6 0.82 c 899 93 m 387 Y 14 X -15 Y 14 X -40 Y 13 X -61 Y 14 X -41 Y 14 X -48 Y 13 X -62 Y 14 X -25 Y 14 X -28 Y 13 X -27 Y 14 X -19 Y 14 X -6 Y 14 X -5 Y 13 X -5 Y 14 X -2 Y 14 X -1
 Y 13 X -1 Y 28 X -1 Y 301 X f 6 lw 0 0 0.933333 c 0.49 0.6 0.82 c 0 0 0.933333 c 899 480 m 14 X -15 Y 14 X -40 Y 13 X -61 Y 14 X -41 Y 14 X -48 Y 13 X -62 Y 14 X -25 Y 14 X -28 Y 13 X -27 Y 14 X -19 Y 14 X -6 Y 14 X -5 Y 13 X -5 Y 14 X -2 Y 14 X -1
 Y 13 X -1 Y 28 X -1 Y 301 X s black 3 lw 899 93 m 548 X s 979 106 m -13 Y s 999 99 m -6 Y s 1019 99 m -6 Y s 1039 99 m -6 Y s 1059 106 m -13 Y s 1079 99 m -6 Y s 1099 99 m -6 Y s 1119 99 m -6 Y s 1139 106 m -13 Y s 1159 99 m -6 Y s 1179 99 m -6 Y s
 1199 99 m -6 Y s 1219 106 m -13 Y s 1239 99 m -6 Y s 1259 99 m -6 Y s 1279 99 m -6 Y s 1298 106 m -13 Y s 1318 99 m -6 Y s 1338 99 m -6 Y s 1358 99 m -6 Y s 1378 106 m -13 Y s 979 106 m -13 Y s 959 99 m -6 Y s 939 99 m -6 Y s 919 99 m -6 Y s 1378
 106 m -13 Y s 1398 99 m -6 Y s 1418 99 m -6 Y s 1438 99 m -6 Y s
 gsave  710 563 779 12 C 969.037 65.3603 t 0 r /Helvetica findfont 25.6068 sf 0 0 m (2) show NC gr 
 gsave  710 563 779 12 C 1048.61 65.3603 t 0 r /Helvetica findfont 25.6068 sf 0 0 m (4) show NC gr 
 gsave  710 563 779 12 C 1128.17 65.3603 t 0 r /Helvetica findfont 25.6068 sf 0 0 m (6) show NC gr 
 gsave  710 563 779 12 C 1207.74 65.3603 t 0 r /Helvetica findfont 25.6068 sf 0 0 m (8) show NC gr 
 gsave  710 563 779 12 C 1281.63 65.3603 t 0 r /Helvetica findfont 25.6068 sf 0 0 m (10) show NC gr 
 gsave  710 563 779 12 C 1364.04 65.3603 t 0 r /Helvetica findfont 25.6068 sf 0 0 m (12) show NC gr 
 gsave  710 563 779 12 C 1301.52 25.5758 t 0 r /Helvetica findfont 28.4519 sf 0 0 m (Trk1_d0Sig) show NC gr  899 519 m 548 X s 979 506 m 13 Y s 999 512 m 7 Y s 1019 512 m 7 Y s 1039 512 m 7 Y s 1059 506 m 13 Y s 1079 512 m 7 Y s 1099 512 m 7 Y s 1119
 512 m 7 Y s 1139 506 m 13 Y s 1159 512 m 7 Y s 1179 512 m 7 Y s 1199 512 m 7 Y s 1219 506 m 13 Y s 1239 512 m 7 Y s 1259 512 m 7 Y s 1279 512 m 7 Y s 1298 506 m 13 Y s 1318 512 m 7 Y s 1338 512 m 7 Y s 1358 512 m 7 Y s 1378 506 m 13 Y s 979 506 m 13
 Y s 959 512 m 7 Y s 939 512 m 7 Y s 919 512 m 7 Y s 1378 506 m 13 Y s 1398 512 m 7 Y s 1418 512 m 7 Y s 1438 512 m 7 Y s 899 93 m 426 Y s 915 93 m -16 X s 907 108 m -8 X s 907 122 m -8 X s 907 137 m -8 X s 907 152 m -8 X s 915 167 m -16 X s 907 182
 m -8 X s 907 196 m -8 X s 907 211 m -8 X s 907 226 m -8 X s 915 241 m -16 X s 907 256 m -8 X s 907 270 m -8 X s 907 285 m -8 X s 907 300 m -8 X s 915 315 m -16 X s 907 330 m -8 X s 907 344 m -8 X s 907 359 m -8 X s 907 374 m -8 X s 915 389 m -16 X s
 907 404 m -8 X s 907 418 m -8 X s 907 433 m -8 X s 907 448 m -8 X s 915 463 m -16 X s 915 463 m -16 X s 907 478 m -8 X s 907 492 m -8 X s 907 507 m -8 X s
 gsave  710 563 779 12 C 875.259 82.4108 t 0 r /Helvetica findfont 25.6068 sf 0 0 m (0) show NC gr 
 gsave  710 563 779 12 C 858.208 156.296 t 0 r /Helvetica findfont 25.6068 sf 0 0 m (0.1) show NC gr 
 gsave  710 563 779 12 C 855.367 230.182 t 0 r /Helvetica findfont 25.6068 sf 0 0 m (0.2) show NC gr 
 gsave  710 563 779 12 C 855.367 304.067 t 0 r /Helvetica findfont 25.6068 sf 0 0 m (0.3) show NC gr 
 gsave  710 563 779 12 C 855.367 377.953 t 0 r /Helvetica findfont 25.6068 sf 0 0 m (0.4) show NC gr 
 gsave  710 563 779 12 C 855.367 451.838 t 0 r /Helvetica findfont 25.6068 sf 0 0 m (0.5) show NC gr 
 gsave  710 563 779 12 C 801.374 443.313 t 90 r /Helvetica findfont 28.4519 sf 0 0 m (0.343 ) show NC gr 
 gsave  710 563 779 12 C 787.165 440.471 t 90 r /Helvetica findfont 19.9164 sf 0 0 m ( ) show NC gr 
 gsave  710 563 779 12 C 801.374 429.104 t 90 r /Helvetica findfont 28.4519 sf 0 0 m (/) show NC gr 
 gsave  710 563 779 12 C 809.899 426.262 t 90 r /Helvetica findfont 19.9164 sf 0 0 m ( ) show NC gr 
 gsave  710 563 779 12 C 801.374 321.118 t 90 r /Helvetica findfont 28.4519 sf 0 0 m (\(1/N\) dN) show NC gr  1447 93 m 426 Y s 1430 93 m 17 X s 1438 108 m 9 X s 1438 122 m 9 X s 1438 137 m 9 X s 1438 152 m 9 X s 1430 167 m 17 X s 1438 182 m 9 X s
 1438 196 m 9 X s 1438 211 m 9 X s 1438 226 m 9 X s 1430 241 m 17 X s 1438 256 m 9 X s 1438 270 m 9 X s 1438 285 m 9 X s 1438 300 m 9 X s 1430 315 m 17 X s 1438 330 m 9 X s 1438 344 m 9 X s 1438 359 m 9 X s 1438 374 m 9 X s 1430 389 m 17 X s 1438 404
 m 9 X s 1438 418 m 9 X s 1438 433 m 9 X s 1438 448 m 9 X s 1430 463 m 17 X s 1430 463 m 17 X s 1438 478 m 9 X s 1438 492 m 9 X s 1438 507 m 9 X s 0.490196 0.545098 0.615686 c 0.364706 0.419608 0.490196 c 372 37 786 535 bf 0.490196 0.545098 0.615686
 c 786 535 m 372 X s 1158 535 m 37 Y s 1158 572 m -372 X s 786 572 m -37 Y s 1 1 1 c black 1 1 1 c
 gsave  710 563 779 12 C 790.007 545.616 t 0 r /Helvetica-Bold findfont 28.4519 sf 0 0 m (Input variable: Trk1_d0Sig) show NC gr  1 0 0 c 6 lw black 3 lw 1 0 0 c 1433 94 m -1 -1 d s 1418 94 m -1 -1 d s 1402 93 m s 1388 94 m -1 -1 d s 1373 94 m -1 -1
 d s 1357 93 m s 1342 93 m s 1329 95 m -2 -2 d s 1314 95 m -3 -2 d s 1296 93 m s 1287 98 m -6 -5 d s 1269 95 m -3 -2 d s 1256 97 m -1 X s 1254 96 m -3 -3 d s 1238 95 m -2 -2 d s 1223 95 m -2 -2 d s 1210 97 m -4 -4 d s 1197 99 m -6 -6 d s 1179 96 m -3
 -3 d s 1165 97 m -4 -4 d s 1152 99 m -6 -6 d s 1142 104 m -11 -11 d s 1131 108 m -15 -15 d s 1109 102 m -9 -9 d s 1103 110 m -18 -17 d s 1090 113 m -20 -20 d s 1077 115 m -22 -22 d s 1065 118 m -1 -2 d s 1059 112 m -19 -19 d s 1050 118 m -25 -25 d s
 1050 133 m -40 -40 d s 1040 138 m -45 -45 d s 1034 147 m -54 -54 d s 1022 151 m -57 -58 d s 1010 153 m -60 -60 d s 1009 167 m -74 -74 d s 1009 183 m -89 -90 d s 999 188 m -94 -95 d s 991 195 m -92 -92 d s 981 200 m -82 -82 d s 981 216 m -82 -83 d s
 981 231 m -82 -83 d s 981 245 m -82 -82 d s 968 247 m -69 -68 d s 968 262 m -69 -68 d s 968 278 m -69 -69 d s 968 293 m -69 -69 d s 968 308 m -69 -69 d s 954 309 m -55 -55 d s 954 324 m -55 -55 d s 954 340 m -55 -55 d s 954 355 m -55 -55 d s 942 357
 m -43 -42 d s 940 371 m -41 -41 d s 937 383 m -38 -38 d s 927 388 m -28 -28 d s 927 403 m -28 -27 d s 927 418 m -28 -27 d s 927 433 m -28 -27 d s 927 448 m -28 -27 d s 920 457 m -7 -7 d s 900 437 m -1 -1 d s 6 lw 899 437 m 14 X 20 Y 14 X -74 Y 13 X
 -26 Y 14 X -49 Y 14 X -63 Y 13 X -50 Y 14 X -7 Y 14 X -35 Y 13 X -6 Y 14 X -9 Y 14 X -26 Y 14 X 6 Y 13 X -5 Y 14 X -3 Y 14 X -8 Y 13 X 6 Y 14 X -4 Y 14 X -5 Y 13 X -2 Y 14 X -1 Y 14 X 3 Y 13 X -2 Y 14 X -2 Y 27 X 1 Y 14 X 1 Y 14 X -2 Y 13 X 3 Y 14 X
 -5 Y 14 X 2 Y 27 X -2 Y 27 X 1 Y 28 X -1 Y 13 X 1 Y 42 X s black 3 lw 899 93 m 548 X s 979 106 m -13 Y s 999 99 m -6 Y s 1019 99 m -6 Y s 1039 99 m -6 Y s 1059 106 m -13 Y s 1079 99 m -6 Y s 1099 99 m -6 Y s 1119 99 m -6 Y s 1139 106 m -13 Y s 1159
 99 m -6 Y s 1179 99 m -6 Y s 1199 99 m -6 Y s 1219 106 m -13 Y s 1239 99 m -6 Y s 1259 99 m -6 Y s 1279 99 m -6 Y s 1298 106 m -13 Y s 1318 99 m -6 Y s 1338 99 m -6 Y s 1358 99 m -6 Y s 1378 106 m -13 Y s 979 106 m -13 Y s 959 99 m -6 Y s 939 99 m
 -6 Y s 919 99 m -6 Y s 1378 106 m -13 Y s 1398 99 m -6 Y s 1418 99 m -6 Y s 1438 99 m -6 Y s 899 519 m 548 X s 979 506 m 13 Y s 999 512 m 7 Y s 1019 512 m 7 Y s 1039 512 m 7 Y s 1059 506 m 13 Y s 1079 512 m 7 Y s 1099 512 m 7 Y s 1119 512 m 7 Y s
 1139 506 m 13 Y s 1159 512 m 7 Y s 1179 512 m 7 Y s 1199 512 m 7 Y s 1219 506 m 13 Y s 1239 512 m 7 Y s 1259 512 m 7 Y s 1279 512 m 7 Y s 1298 506 m 13 Y s 1318 512 m 7 Y s 1338 512 m 7 Y s 1358 512 m 7 Y s 1378 506 m 13 Y s 979 506 m 13 Y s 959 512
 m 7 Y s 939 512 m 7 Y s 919 512 m 7 Y s 1378 506 m 13 Y s 1398 512 m 7 Y s 1418 512 m 7 Y s 1438 512 m 7 Y s 899 93 m 426 Y s 915 93 m -16 X s 907 108 m -8 X s 907 122 m -8 X s 907 137 m -8 X s 907 152 m -8 X s 915 167 m -16 X s 907 182 m -8 X s 907
 196 m -8 X s 907 211 m -8 X s 907 226 m -8 X s 915 241 m -16 X s 907 256 m -8 X s 907 270 m -8 X s 907 285 m -8 X s 907 300 m -8 X s 915 315 m -16 X s 907 330 m -8 X s 907 344 m -8 X s 907 359 m -8 X s 907 374 m -8 X s 915 389 m -16 X s 907 404 m -8
 X s 907 418 m -8 X s 907 433 m -8 X s 907 448 m -8 X s 915 463 m -16 X s 915 463 m -16 X s 907 478 m -8 X s 907 492 m -8 X s 907 507 m -8 X s 1447 93 m 426 Y s 1430 93 m 17 X s 1438 108 m 9 X s 1438 122 m 9 X s 1438 137 m 9 X s 1438 152 m 9 X s 1430
 167 m 17 X s 1438 182 m 9 X s 1438 196 m 9 X s 1438 211 m 9 X s 1438 226 m 9 X s 1430 241 m 17 X s 1438 256 m 9 X s 1438 270 m 9 X s 1438 285 m 9 X s 1438 300 m 9 X s 1430 315 m 17 X s 1438 330 m 9 X s 1438 344 m 9 X s 1438 359 m 9 X s 1438 374 m 9
 X s 1430 389 m 17 X s 1438 404 m 9 X s 1438 418 m 9 X s 1438 433 m 9 X s 1438 448 m 9 X s 1430 463 m 17 X s 1430 463 m 17 X s 1438 478 m 9 X s 1438 492 m 9 X s 1438 507 m 9 X s
 gsave  710 563 779 12 C 1474.92 90.6052 t 90 r /Helvetica-Bold findfont 19.9164 sf 0 0 m (U/O\255flow \(S,B\): \(0.0, 0.0\)% / \(0.0, 1.3\)%) show NC gr  0.490196 0.545098 0.615686 c 0.364706 0.419608 0.490196 c 372 37 786 535 bf 0.490196 0.545098
 0.615686 c 786 535 m 372 X s 1158 535 m 37 Y s 1158 572 m -372 X s 786 572 m -37 Y s 1 1 1 c black 1 1 1 c
 gsave  710 563 779 12 C 790.007 545.616 t 0 r /Helvetica-Bold findfont 28.4519 sf 0 0 m (Input variable: Trk1_d0Sig) show NC gr  0.490196 0.545098 0.615686 c 0.941176 0.941176 0.941176 c 711 563 1534 12 bf black 1 1 0.992157 c 547 426 1655 93 bf
 black 547 426 1655 93 bl 0 0 0.933333 c 6 lw 0.49 0.6 0.82 c black 3 lw 0.49 0.6 0.82 c 1655 93 m 333 Y 14 X -13 Y 14 X -11 Y 13 X -43 Y 14 X -56 Y 14 X -22 Y 13 X -47 Y 14 X -33 Y 14 X -39 Y 13 X -13 Y 14 X -22 Y 14 X -8 Y 13 X -7 Y 14 X -5 Y 14 X
 -7 Y 13 X -3 Y 14 X 1 Y 14 X -2 Y 13 X -1 Y 28 X -1 Y 14 X -1 Y 27 X 1 Y 14 X -1 Y 218 X f 6 lw 0 0 0.933333 c 0.49 0.6 0.82 c 0 0 0.933333 c 1655 426 m 14 X -13 Y 14 X -11 Y 13 X -43 Y 14 X -56 Y 14 X -22 Y 13 X -47 Y 14 X -33 Y 14 X -39 Y 13 X -13
 Y 14 X -22 Y 14 X -8 Y 13 X -7 Y 14 X -5 Y 14 X -7 Y 13 X -3 Y 14 X 1 Y 14 X -2 Y 13 X -1 Y 28 X -1 Y 14 X -1 Y 27 X 1 Y 14 X -1 Y 218 X s black 3 lw 1655 93 m 547 X s 1743 106 m -13 Y s 1764 99 m -6 Y s 1786 99 m -6 Y s 1808 99 m -6 Y s 1830 106 m
 -13 Y s 1852 99 m -6 Y s 1874 99 m -6 Y s 1895 99 m -6 Y s 1917 106 m -13 Y s 1939 99 m -6 Y s 1961 99 m -6 Y s 1983 99 m -6 Y s 2005 106 m -13 Y s 2026 99 m -6 Y s 2048 99 m -6 Y s 2070 99 m -6 Y s 2092 106 m -13 Y s 2114 99 m -6 Y s 2136 99 m -6 Y
 s 2157 99 m -6 Y s 2179 106 m -13 Y s 1743 106 m -13 Y s 1721 99 m -6 Y s 1699 99 m -6 Y s 1677 99 m -6 Y s 2179 106 m -13 Y s 2201 99 m -6 Y s
 gsave  711 563 1534 12 C 1733.47 65.3603 t 0 r /Helvetica findfont 25.6068 sf 0 0 m (2) show NC gr 
 gsave  711 563 1534 12 C 1818.72 65.3603 t 0 r /Helvetica findfont 25.6068 sf 0 0 m (4) show NC gr 
 gsave  711 563 1534 12 C 1906.81 65.3603 t 0 r /Helvetica findfont 25.6068 sf 0 0 m (6) show NC gr 
 gsave  711 563 1534 12 C 1994.91 65.3603 t 0 r /Helvetica findfont 25.6068 sf 0 0 m (8) show NC gr 
 gsave  711 563 1534 12 C 2077.32 65.3603 t 0 r /Helvetica findfont 25.6068 sf 0 0 m (10) show NC gr 
 gsave  711 563 1534 12 C 2162.57 65.3603 t 0 r /Helvetica findfont 25.6068 sf 0 0 m (12) show NC gr 
 gsave  711 563 1534 12 C 2057.43 25.5758 t 0 r /Helvetica findfont 28.4519 sf 0 0 m (Trk2_d0Sig) show NC gr  1655 519 m 547 X s 1743 506 m 13 Y s 1764 512 m 7 Y s 1786 512 m 7 Y s 1808 512 m 7 Y s 1830 506 m 13 Y s 1852 512 m 7 Y s 1874 512 m 7 Y s
 1895 512 m 7 Y s 1917 506 m 13 Y s 1939 512 m 7 Y s 1961 512 m 7 Y s 1983 512 m 7 Y s 2005 506 m 13 Y s 2026 512 m 7 Y s 2048 512 m 7 Y s 2070 512 m 7 Y s 2092 506 m 13 Y s 2114 512 m 7 Y s 2136 512 m 7 Y s 2157 512 m 7 Y s 2179 506 m 13 Y s 1743
 506 m 13 Y s 1721 512 m 7 Y s 1699 512 m 7 Y s 1677 512 m 7 Y s 2179 506 m 13 Y s 2201 512 m 7 Y s 1655 93 m 426 Y s 1671 93 m -16 X s 1663 106 m -8 X s 1663 119 m -8 X s 1663 133 m -8 X s 1663 146 m -8 X s 1671 159 m -16 X s 1663 173 m -8 X s 1663
 186 m -8 X s 1663 199 m -8 X s 1663 212 m -8 X s 1671 226 m -16 X s 1663 239 m -8 X s 1663 252 m -8 X s 1663 266 m -8 X s 1663 279 m -8 X s 1671 292 m -16 X s 1663 306 m -8 X s 1663 319 m -8 X s 1663 332 m -8 X s 1663 345 m -8 X s 1671 359 m -16 X s
 1663 372 m -8 X s 1663 385 m -8 X s 1663 399 m -8 X s 1663 412 m -8 X s 1671 425 m -16 X s 1663 438 m -8 X s 1663 452 m -8 X s 1663 465 m -8 X s 1663 478 m -8 X s 1671 492 m -16 X s 1671 492 m -16 X s 1663 505 m -8 X s 1663 518 m -8 X s
 gsave  711 563 1534 12 C 1631.16 82.4108 t 0 r /Helvetica findfont 25.6068 sf 0 0 m (0) show NC gr 
 gsave  711 563 1534 12 C 1614.11 150.613 t 0 r /Helvetica findfont 25.6068 sf 0 0 m (0.1) show NC gr 
 gsave  711 563 1534 12 C 1611.27 215.973 t 0 r /Helvetica findfont 25.6068 sf 0 0 m (0.2) show NC gr 
 gsave  711 563 1534 12 C 1611.27 281.333 t 0 r /Helvetica findfont 25.6068 sf 0 0 m (0.3) show NC gr 
 gsave  711 563 1534 12 C 1611.27 349.535 t 0 r /Helvetica findfont 25.6068 sf 0 0 m (0.4) show NC gr 
 gsave  711 563 1534 12 C 1611.27 414.895 t 0 r /Helvetica findfont 25.6068 sf 0 0 m (0.5) show NC gr 
 gsave  711 563 1534 12 C 1611.27 483.098 t 0 r /Helvetica findfont 25.6068 sf 0 0 m (0.6) show NC gr 
 gsave  711 563 1534 12 C 1557.28 443.313 t 90 r /Helvetica findfont 28.4519 sf 0 0 m (0.313 ) show NC gr 
 gsave  711 563 1534 12 C 1543.07 440.471 t 90 r /Helvetica findfont 19.9164 sf 0 0 m ( ) show NC gr 
 gsave  711 563 1534 12 C 1557.28 429.104 t 90 r /Helvetica findfont 28.4519 sf 0 0 m (/) show NC gr 
 gsave  711 563 1534 12 C 1565.8 426.262 t 90 r /Helvetica findfont 19.9164 sf 0 0 m ( ) show NC gr 
 gsave  711 563 1534 12 C 1557.28 321.118 t 90 r /Helvetica findfont 28.4519 sf 0 0 m (\(1/N\) dN) show NC gr  2202 93 m 426 Y s 2186 93 m 16 X s 2194 106 m 8 X s 2194 119 m 8 X s 2194 133 m 8 X s 2194 146 m 8 X s 2186 159 m 16 X s 2194 173 m 8 X s
 2194 186 m 8 X s 2194 199 m 8 X s 2194 212 m 8 X s 2186 226 m 16 X s 2194 239 m 8 X s 2194 252 m 8 X s 2194 266 m 8 X s 2194 279 m 8 X s 2186 292 m 16 X s 2194 306 m 8 X s 2194 319 m 8 X s 2194 332 m 8 X s 2194 345 m 8 X s 2186 359 m 16 X s 2194 372
 m 8 X s 2194 385 m 8 X s 2194 399 m 8 X s 2194 412 m 8 X s 2186 425 m 16 X s 2194 438 m 8 X s 2194 452 m 8 X s 2194 465 m 8 X s 2194 478 m 8 X s 2186 492 m 16 X s 2186 492 m 16 X s 2194 505 m 8 X s 2194 518 m 8 X s 0.490196 0.545098 0.615686 c
 0.364706 0.419608 0.490196 c 372 37 1542 535 bf 0.490196 0.545098 0.615686 c 1542 535 m 372 X s 1914 535 m 37 Y s 1914 572 m -372 X s 1542 572 m -37 Y s 1 1 1 c black 1 1 1 c
 gsave  711 563 1534 12 C 1545.91 545.616 t 0 r /Helvetica-Bold findfont 28.4519 sf 0 0 m (Input variable: Trk2_d0Sig) show NC gr  1 0 0 c 6 lw black 3 lw 1 0 0 c 2189 94 m -1 -1 d s 2176 96 m -1 -1 d s 2174 94 m -1 -1 d s 2158 93 m s 2144 94 m -1 -1
 d s 2130 95 m -2 -2 d s 2113 93 m s 2102 97 m -4 -4 d s 2085 95 m -3 -2 d s 2070 95 m -3 -2 d s 2056 96 m -4 -3 d s 2038 94 m -1 -1 d s 2025 96 m -1 Y s 2022 93 m s 2008 94 m -1 -1 d s 1993 94 m -1 -1 d s 1980 96 m -3 -3 d s 1964 95 m -2 -2 d s 1949
 95 m -2 -2 d s 1935 96 m -3 -3 d s 1923 99 m -6 -6 d s 1907 98 m -5 -5 d s 1889 95 m -2 -2 d s 1880 102 m -9 -9 d s 1864 100 m -8 -7 d s 1848 99 m -7 -6 d s 1841 108 m -15 -15 d s 1823 105 m -12 -12 d s 1819 116 m -23 -23 d s 1808 120 m -27 -27 d s
 1806 133 m -40 -40 d s 1792 134 m -41 -41 d s 1781 138 m -45 -45 d s 1765 137 m -44 -44 d s 1765 152 m -59 -59 d s 1765 167 m -74 -74 d s 1758 176 m -83 -83 d s 1751 184 m -91 -91 d s 1751 199 m -96 -96 d s 1749 212 m -94 -94 d s 1737 216 m -82 -83
 d s 1737 231 m -82 -83 d s 1737 246 m -82 -83 d s 1737 261 m -82 -82 d s 1728 267 m -73 -73 d s 1724 278 m -69 -69 d s 1724 293 m -69 -69 d s 1711 295 m -56 -56 d s 1710 309 m -55 -55 d s 1710 324 m -55 -55 d s 1710 340 m -55 -55 d s 1708 352 m -53
 -52 d s 1696 356 m -41 -41 d s 1696 371 m -41 -41 d s 1696 386 m -41 -41 d s 1683 388 m -28 -28 d s 1683 403 m -28 -27 d s 1683 418 m -28 -27 d s 1683 433 m -28 -27 d s 1671 437 m -16 -16 d s 1669 450 m -14 -14 d s 1669 465 m -14 -14 d s 1669 480 m
 -14 -14 d s 6 lw 1655 480 m 14 X -43 Y 14 X -49 Y 13 X -36 Y 14 X -57 Y 14 X -28 Y 13 X -55 Y 14 X -36 Y 14 X -39 Y 13 X 1 Y 14 X -4 Y 14 X -14 Y 13 X -15 Y 14 X 3 Y 14 X -9 Y 13 X 1 Y 14 X 2 Y 14 X -7 Y 13 X 3 Y 14 X 1 Y 14 X -3 Y 14 X -1 Y 27 X 1
 Y 14 X -2 Y 27 X -1 Y 14 X 3 Y 13 X -3 Y 14 X 3 Y 14 X -1 Y 27 X 2 Y 14 X -4 Y 13 X 2 Y 14 X -1 Y 14 X -1 Y 13 X 1 Y 14 X 2 Y 14 X -3 Y 13 X s black 3 lw 1655 93 m 547 X s 1743 106 m -13 Y s 1764 99 m -6 Y s 1786 99 m -6 Y s 1808 99 m -6 Y s 1830
 106 m -13 Y s 1852 99 m -6 Y s 1874 99 m -6 Y s 1895 99 m -6 Y s 1917 106 m -13 Y s 1939 99 m -6 Y s 1961 99 m -6 Y s 1983 99 m -6 Y s 2005 106 m -13 Y s 2026 99 m -6 Y s 2048 99 m -6 Y s 2070 99 m -6 Y s 2092 106 m -13 Y s 2114 99 m -6 Y s 2136 99
 m -6 Y s 2157 99 m -6 Y s 2179 106 m -13 Y s 1743 106 m -13 Y s 1721 99 m -6 Y s 1699 99 m -6 Y s 1677 99 m -6 Y s 2179 106 m -13 Y s 2201 99 m -6 Y s 1655 519 m 547 X s 1743 506 m 13 Y s 1764 512 m 7 Y s 1786 512 m 7 Y s 1808 512 m 7 Y s 1830 506 m
 13 Y s 1852 512 m 7 Y s 1874 512 m 7 Y s 1895 512 m 7 Y s 1917 506 m 13 Y s 1939 512 m 7 Y s 1961 512 m 7 Y s 1983 512 m 7 Y s 2005 506 m 13 Y s 2026 512 m 7 Y s 2048 512 m 7 Y s 2070 512 m 7 Y s 2092 506 m 13 Y s 2114 512 m 7 Y s 2136 512 m 7 Y s
 2157 512 m 7 Y s 2179 506 m 13 Y s 1743 506 m 13 Y s 1721 512 m 7 Y s 1699 512 m 7 Y s 1677 512 m 7 Y s 2179 506 m 13 Y s 2201 512 m 7 Y s 1655 93 m 426 Y s 1671 93 m -16 X s 1663 106 m -8 X s 1663 119 m -8 X s 1663 133 m -8 X s 1663 146 m -8 X s
 1671 159 m -16 X s 1663 173 m -8 X s 1663 186 m -8 X s 1663 199 m -8 X s 1663 212 m -8 X s 1671 226 m -16 X s 1663 239 m -8 X s 1663 252 m -8 X s 1663 266 m -8 X s 1663 279 m -8 X s 1671 292 m -16 X s 1663 306 m -8 X s 1663 319 m -8 X s 1663 332 m
 -8 X s 1663 345 m -8 X s 1671 359 m -16 X s 1663 372 m -8 X s 1663 385 m -8 X s 1663 399 m -8 X s 1663 412 m -8 X s 1671 425 m -16 X s 1663 438 m -8 X s 1663 452 m -8 X s 1663 465 m -8 X s 1663 478 m -8 X s 1671 492 m -16 X s 1671 492 m -16 X s 1663
 505 m -8 X s 1663 518 m -8 X s 2202 93 m 426 Y s 2186 93 m 16 X s 2194 106 m 8 X s 2194 119 m 8 X s 2194 133 m 8 X s 2194 146 m 8 X s 2186 159 m 16 X s 2194 173 m 8 X s 2194 186 m 8 X s 2194 199 m 8 X s 2194 212 m 8 X s 2186 226 m 16 X s 2194 239 m
 8 X s 2194 252 m 8 X s 2194 266 m 8 X s 2194 279 m 8 X s 2186 292 m 16 X s 2194 306 m 8 X s 2194 319 m 8 X s 2194 332 m 8 X s 2194 345 m 8 X s 2186 359 m 16 X s 2194 372 m 8 X s 2194 385 m 8 X s 2194 399 m 8 X s 2194 412 m 8 X s 2186 425 m 16 X s
 2194 438 m 8 X s 2194 452 m 8 X s 2194 465 m 8 X s 2194 478 m 8 X s 2186 492 m 16 X s 2186 492 m 16 X s 2194 505 m 8 X s 2194 518 m 8 X s
 gsave  711 563 1534 12 C 2230.83 90.6052 t 90 r /Helvetica-Bold findfont 19.9164 sf 0 0 m (U/O\255flow \(S,B\): \(0.0, 0.0\)% / \(0.0, 1.1\)%) show NC gr  0.490196 0.545098 0.615686 c 0.364706 0.419608 0.490196 c 372 37 1542 535 bf 0.490196 0.545098
 0.615686 c 1542 535 m 372 X s 1914 535 m 37 Y s 1914 572 m -372 X s 1542 572 m -37 Y s 1 1 1 c black 1 1 1 c
 gsave  711 563 1534 12 C 1545.91 545.616 t 0 r /Helvetica-Bold findfont 28.4519 sf 0 0 m (Input variable: Trk2_d0Sig) show NC gr 
 gr  gr showpage
end
%%EOF
