%!PS-Adobe-2.0 EPSF-2.0
%%BoundingBox:  0 0 567 293
%%Title: dataset/plots/variables_id_c4.eps: Input variables (training sample)
%%Creator: ROOT Version 6.18/00
%%CreationDate: Sun Sep 29 15:47:47 2019
%%DocumentNeededResources: ProcSet (FontSetInit)
%%EndComments
%%BeginProlog
80 dict begin
/s {stroke} def /l {lineto} def /m {moveto} def /t {translate} def
/r {rotate} def /rl {roll}  def /R {repeat} def
/d {rlineto} def /rm {rmoveto} def /gr {grestore} def /f {eofill} def
/c {setrgbcolor} def /black {0 setgray} def /sd {setdash} def
/cl {closepath} def /sf {scalefont setfont} def /lw {setlinewidth} def
/box {m dup 0 exch d exch 0 d 0 exch neg d cl} def
/NC{systemdict begin initclip end}def/C{NC box clip newpath}def
/bl {box s} def /bf {gsave box gsave f grestore 1 lw [] 0 sd s grestore} def /Y { 0 exch d} def /X { 0 d} def 
/K {{pop pop 0 moveto} exch kshow} bind def
/ita {/ang 15 def gsave [1 0 ang dup sin exch cos div 1 0 0] concat} def 
/mp {newpath /y exch def /x exch def} def
/side {[w .77 mul w .23 mul] .385 w mul sd w 0 l currentpoint t -144 r} def
/mr {mp x y w2 0 360 arc} def /m24 {mr s} def /m20 {mr f} def
/mb {mp x y w2 add m w2 neg 0 d 0 w neg d w 0 d 0 w d cl} def
/mt {mp x y w2 add m w2 neg w neg d w 0 d cl} def
/w4 {w 4 div} def
/w6 {w 6 div} def
/w8 {w 8 div} def
/m21 {mb f} def /m25 {mb s} def /m22 {mt f} def /m26{mt s} def
/m23 {mp x y w2 sub m w2 w d w neg 0 d cl f} def
/m27 {mp x y w2 add m w3 neg w2 neg d w3 w2 neg d w3 w2 d cl s} def
/m28 {mp x w2 sub y w2 sub w3 add m w3 0 d  0 w3 neg d w3 0 d 0 w3 d w3 0 d  0 w3 d w3 neg 0 d 0 w3 d w3 neg 0 d 0 w3 neg d w3 neg 0 d cl s } def
/m29 {mp gsave x w2 sub y w2 add w3 sub m currentpoint t 4 {side} repeat cl fill gr} def
/m30 {mp gsave x w2 sub y w2 add w3 sub m currentpoint t 4 {side} repeat cl s gr} def
/m31 {mp x y w2 sub m 0 w d x w2 sub y m w 0 d x w2 sub y w2 add m w w neg d x w2 sub y w2 sub m w w d s} def
/m32 {mp x y w2 sub m w2 w d w neg 0 d cl s} def
/m33 {mp x y w2 add m w3 neg w2 neg d w3 w2 neg d w3 w2 d cl f} def
/m34 {mp x w2 sub y w2 sub w3 add m w3 0 d  0 w3 neg d w3 0 d 0 w3 d w3 0 d  0 w3 d w3 neg 0 d 0 w3 d w3 neg 0 d 0 w3 neg d w3 neg 0 d cl f } def
/m35 {mp x y w2 add m w2 neg w2 neg d w2 w2 neg d w2 w2 d w2 neg w2 d x y w2 sub m 0 w d x w2 sub y m w 0 d s} def
/m36 {mb x w2 sub y w2 add m w w neg d x w2 sub y w2 sub m w w d s} def
/m37 {mp x y m w4 neg w2 d w4 neg w2 neg d w2 0 d  w4 neg w2 neg d w2 0 d w4 neg w2 d w2 0 d w4 neg w2 d w4 neg w2 neg d cl s} def
/m38 {mp x w4 sub y w2 add m w4 neg w4 neg d 0 w2 neg d w4 w4 neg d w2 0 d w4 w4 d 0 w2 d w4 neg w4 d w2 neg 0 d x y w2 sub m 0 w d x w2 sub y m w 0 d cl s} def
/m39 {mp x y m w4 neg w2 d w4 neg w2 neg d w2 0 d  w4 neg w2 neg d w2 0 d w4 neg w2 d w2 0 d w4 neg w2 d w4 neg w2 neg d cl f} def
/m40 {mp x y m w4 w2 d w4 w4 neg d w2 neg w4 neg d w2 w4 neg d w4 neg w4 neg d w4 neg w2 d w4 neg w2 neg d w4 neg w4 d w2 w4 d w2 neg w4 d w4 w4 d w4 w2 neg d cl s} def
/m41 {mp x y m w4 w2 d w4 w4 neg d w2 neg w4 neg d w2 w4 neg d w4 neg w4 neg d w4 neg w2 d w4 neg w2 neg d w4 neg w4 d w2 w4 d w2 neg w4 d w4 w4 d w4 w2 neg d cl f} def
/m42 {mp x y w2 add m w8 neg w2 -3 4 div mul d w2 -3 4 div mul w8 neg d w2 3 4 div mul w8 neg d w8 w2 -3 4 div mul d w8 w2 3 4 div mul d w2 3 4 div mul w8 d w2 -3 4 div mul w8 d w8 neg w2 3 4 div mul d cl s} def
/m43 {mp x y w2 add m w8 neg w2 -3 4 div mul d w2 -3 4 div mul w8 neg d w2 3 4 div mul w8 neg d w8 w2 -3 4 div mul d w8 w2 3 4 div mul d w2 3 4 div mul w8 d w2 -3 4 div mul w8 d w8 neg w2 3 4 div mul d cl f} def
/m44 {mp x y m w6 neg w2 d w2 2 3 div mul 0 d w6 neg w2 neg d w2 w6 d 0 w2 -2 3 div mul d w2 neg w6 d w6 w2 neg d w2 -2 3 div mul 0 d w6 w2 d w2 neg w6 neg d 0 w2 2 3 div mul d w2 w6 neg d cl s} def
/m45 {mp x y m w6 neg w2 d w2 2 3 div mul 0 d w6 neg w2 neg d w2 w6 d 0 w2 -2 3 div mul d w2 neg w6 d w6 w2 neg d w2 -2 3 div mul 0 d w6 w2 d w2 neg w6 neg d 0 w2 2 3 div mul d w2 w6 neg d cl f} def
/m46 {mp x y w4 add m w4 neg w4 d w4 neg w4 neg d  w4 w4 neg d w4 neg w4 neg d w4 w4 neg d w4 w4 d w4 w4 neg d w4 w4 d w4 neg w4 d w4 w4 d w4 neg w4 d w4 neg w4 neg d cl s} def
/m47 {mp x y w4 add m w4 neg w4 d w4 neg w4 neg d w4 w4 neg d w4 neg w4 neg d  w4 w4 neg d w4 w4 d w4 w4 neg d w4 w4 d w4 neg w4 d w4 w4 d w4 neg w4 d w4 neg w4 neg d cl f} def
/m48 {mp x y w4 add m w4 neg w4 d w4 neg w4 neg d w4 w4 neg d  w4 neg w4 neg d w4 w4 neg d w4 w4 d w4 w4 neg d w4 w4 d w4 neg w4 d w4 w4 d w4 neg w4 d w4 neg w4 neg d  w4 w4 neg d w4 neg w4 neg d w4 neg w4 d w4 w4 d cl f} def
/m49 {mp x w2 sub w3 add y w2 sub w3 add m  0 w3 neg d w3 0 d 0 w3 d w3 0 d 0 w3 d w3 neg 0 d 0 w3 d w3 neg 0 d 0 w3 neg d w3 neg 0 d 0 w3 neg d w3 0 d 0 w3 d w3 0 d 0 w3 neg d w3 neg 0 d cl f } def
/m2 {mp x y w2 sub m 0 w d x w2 sub y m w 0 d s} def
/m5 {mp x w2 sub y w2 sub m w w d x w2 sub y w2 add m w w neg d s} def
%%IncludeResource: ProcSet (FontSetInit)
%%IncludeResource: font Times-Roman
%%IncludeResource: font Times-Italic
%%IncludeResource: font Times-Bold
%%IncludeResource: font Times-BoldItalic
%%IncludeResource: font Helvetica
%%IncludeResource: font Helvetica-Oblique
%%IncludeResource: font Helvetica-Bold
%%IncludeResource: font Helvetica-BoldOblique
%%IncludeResource: font Courier
%%IncludeResource: font Courier-Oblique
%%IncludeResource: font Courier-Bold
%%IncludeResource: font Courier-BoldOblique
%%IncludeResource: font Symbol
%%IncludeResource: font ZapfDingbats
/reEncode {exch findfont dup length dict begin {1 index /FID eq  {pop pop} {def} ifelse } forall /Encoding exch def currentdict end dup /FontName get exch definefont pop } def [/Times-Bold /Times-Italic /Times-BoldItalic /Helvetica /Helvetica-Oblique
 /Helvetica-Bold /Helvetica-BoldOblique /Courier /Courier-Oblique /Courier-Bold /Courier-BoldOblique /Times-Roman /AvantGarde-Book /AvantGarde-BookOblique /AvantGarde-Demi /AvantGarde-DemiOblique /Bookman-Demi /Bookman-DemiItalic /Bookman-Light
 /Bookman-LightItalic /Helvetica-Narrow /Helvetica-Narrow-Bold /Helvetica-Narrow-BoldOblique /Helvetica-Narrow-Oblique /NewCenturySchlbk-Roman /NewCenturySchlbk-Bold /NewCenturySchlbk-BoldItalic /NewCenturySchlbk-Italic /Palatino-Bold
 /Palatino-BoldItalic /Palatino-Italic /Palatino-Roman ] {ISOLatin1Encoding reEncode } forall
%%EndProlog
%%BeginSetup
%%EndSetup
newpath  gsave  .25 .25 scale  gsave  0 0 t 0.490196 0.545098 0.615686 c[  ] 0 sd 3 lw 0.941176 0.941176 0.941176 c 2268 1174 0 0 bf 0.490196 0.545098 0.615686 c 0.941176 0.941176 0.941176 c 710 563 23 599 bf black 1 1 0.992157 c 548 426 143 680 bf
 black 548 426 143 680 bl 0 0 0.933333 c 6 lw 0.49 0.6 0.82 c black 3 lw 0.49 0.6 0.82 c 143 680 m 387 Y 14 X -27 Y 14 X -32 Y 14 X -45 Y 13 X -38 Y 14 X -18 Y 14 X -42 Y 13 X -40 Y 14 X -27 Y 14 X -14 Y 13 X -28 Y 14 X -19 Y 14 X -11 Y 13 X -16 Y 14
 X -4 Y 14 X -2 Y 13 X -7 Y 14 X -4 Y 14 X -5 Y 13 X -4 Y 14 X -1 Y 27 X -1 Y 14 X -1 Y 41 X -1 Y 192 X f 6 lw 0 0 0.933333 c 0.49 0.6 0.82 c 0 0 0.933333 c 143 1067 m 14 X -27 Y 14 X -32 Y 14 X -45 Y 13 X -38 Y 14 X -18 Y 14 X -42 Y 13 X -40 Y 14 X
 -27 Y 14 X -14 Y 13 X -28 Y 14 X -19 Y 14 X -11 Y 13 X -16 Y 14 X -4 Y 14 X -2 Y 13 X -7 Y 14 X -4 Y 14 X -5 Y 13 X -4 Y 14 X -1 Y 27 X -1 Y 14 X -1 Y 41 X -1 Y 192 X s black 3 lw 143 680 m 548 X s 235 693 m -13 Y s 257 686 m -6 Y s 280 686 m -6 Y s
 303 686 m -6 Y s 326 693 m -13 Y s 348 686 m -6 Y s 371 686 m -6 Y s 394 686 m -6 Y s 417 693 m -13 Y s 439 686 m -6 Y s 462 686 m -6 Y s 485 686 m -6 Y s 508 693 m -13 Y s 531 686 m -6 Y s 553 686 m -6 Y s 576 686 m -6 Y s 599 693 m -13 Y s 622 686
 m -6 Y s 644 686 m -6 Y s 667 686 m -6 Y s 690 693 m -13 Y s 235 693 m -13 Y s 212 686 m -6 Y s 189 686 m -6 Y s 166 686 m -6 Y s 690 693 m -13 Y s
 gsave  710 563 23 599 C 207.448 653.602 t 0 r /Helvetica findfont 25.6068 sf 0 0 m (0.02) show NC gr 
 gsave  710 563 23 599 C 298.384 653.602 t 0 r /Helvetica findfont 25.6068 sf 0 0 m (0.04) show NC gr 
 gsave  710 563 23 599 C 389.32 653.602 t 0 r /Helvetica findfont 25.6068 sf 0 0 m (0.06) show NC gr 
 gsave  710 563 23 599 C 480.256 653.602 t 0 r /Helvetica findfont 25.6068 sf 0 0 m (0.08) show NC gr 
 gsave  710 563 23 599 C 579.717 653.602 t 0 r /Helvetica findfont 25.6068 sf 0 0 m (0.1) show NC gr 
 gsave  710 563 23 599 C 662.128 653.602 t 0 r /Helvetica findfont 25.6068 sf 0 0 m (0.12) show NC gr 
 gsave  710 563 23 599 C 559.825 608.134 t 0 r /Helvetica findfont 28.4519 sf 0 0 m (Trk1_dEta) show NC gr  143 1106 m 548 X s 235 1093 m 13 Y s 257 1099 m 7 Y s 280 1099 m 7 Y s 303 1099 m 7 Y s 326 1093 m 13 Y s 348 1099 m 7 Y s 371 1099 m 7 Y s
 394 1099 m 7 Y s 417 1093 m 13 Y s 439 1099 m 7 Y s 462 1099 m 7 Y s 485 1099 m 7 Y s 508 1093 m 13 Y s 531 1099 m 7 Y s 553 1099 m 7 Y s 576 1099 m 7 Y s 599 1093 m 13 Y s 622 1099 m 7 Y s 644 1099 m 7 Y s 667 1099 m 7 Y s 690 1093 m 13 Y s 235
 1093 m 13 Y s 212 1099 m 7 Y s 189 1099 m 7 Y s 166 1099 m 7 Y s 690 1093 m 13 Y s 143 680 m 426 Y s 160 680 m -17 X s 152 696 m -9 X s 152 712 m -9 X s 152 728 m -9 X s 152 745 m -9 X s 160 761 m -17 X s 152 777 m -9 X s 152 793 m -9 X s 152 810 m
 -9 X s 152 826 m -9 X s 160 842 m -17 X s 152 858 m -9 X s 152 875 m -9 X s 152 891 m -9 X s 152 907 m -9 X s 160 923 m -17 X s 152 940 m -9 X s 152 956 m -9 X s 152 972 m -9 X s 152 988 m -9 X s 160 1005 m -17 X s 152 1021 m -9 X s 152 1037 m -9 X
 s 152 1053 m -9 X s 152 1070 m -9 X s 160 1086 m -17 X s 160 1086 m -17 X s 152 1102 m -9 X s
 gsave  710 563 23 599 C 119.354 670.653 t 0 r /Helvetica findfont 25.6068 sf 0 0 m (0) show NC gr 
 gsave  710 563 23 599 C 105.145 750.222 t 0 r /Helvetica findfont 25.6068 sf 0 0 m (10) show NC gr 
 gsave  710 563 23 599 C 105.145 832.633 t 0 r /Helvetica findfont 25.6068 sf 0 0 m (20) show NC gr 
 gsave  710 563 23 599 C 105.145 912.202 t 0 r /Helvetica findfont 25.6068 sf 0 0 m (30) show NC gr 
 gsave  710 563 23 599 C 105.145 994.612 t 0 r /Helvetica findfont 25.6068 sf 0 0 m (40) show NC gr 
 gsave  710 563 23 599 C 105.145 1077.02 t 0 r /Helvetica findfont 25.6068 sf 0 0 m (50) show NC gr 
 gsave  710 563 23 599 C 45.468 1031.56 t 90 r /Helvetica findfont 28.4519 sf 0 0 m (0.003 ) show NC gr 
 gsave  710 563 23 599 C 31.2593 1028.71 t 90 r /Helvetica findfont 19.9164 sf 0 0 m ( ) show NC gr 
 gsave  710 563 23 599 C 45.468 1017.35 t 90 r /Helvetica findfont 28.4519 sf 0 0 m (/) show NC gr 
 gsave  710 563 23 599 C 53.9933 1014.5 t 90 r /Helvetica findfont 19.9164 sf 0 0 m ( ) show NC gr 
 gsave  710 563 23 599 C 45.468 909.36 t 90 r /Helvetica findfont 28.4519 sf 0 0 m (\(1/N\) dN) show NC gr  691 680 m 426 Y s 674 680 m 17 X s 683 696 m 8 X s 683 712 m 8 X s 683 728 m 8 X s 683 745 m 8 X s 674 761 m 17 X s 683 777 m 8 X s 683 793 m
 8 X s 683 810 m 8 X s 683 826 m 8 X s 674 842 m 17 X s 683 858 m 8 X s 683 875 m 8 X s 683 891 m 8 X s 683 907 m 8 X s 674 923 m 17 X s 683 940 m 8 X s 683 956 m 8 X s 683 972 m 8 X s 683 988 m 8 X s 674 1005 m 17 X s 683 1021 m 8 X s 683 1037 m 8 X
 s 683 1053 m 8 X s 683 1070 m 8 X s 674 1086 m 17 X s 674 1086 m 17 X s 683 1102 m 8 X s 0.490196 0.545098 0.615686 c 0.364706 0.419608 0.490196 c 355 37 30 1122 bf 0.490196 0.545098 0.615686 c 30 1122 m 355 X s 385 1122 m 37 Y s 385 1159 m -355 X s
 30 1159 m -37 Y s 1 1 1 c black 1 1 1 c
 gsave  710 563 23 599 C 34.101 1133.86 t 0 r /Helvetica-Bold findfont 28.4519 sf 0 0 m (Input variable: Trk1_dEta) show NC gr  1 0 0 c 6 lw black 3 lw 1 0 0 c 676 680 m s 661 680 m s 646 680 m s 631 680 m s 616 680 m s 601 680 m s 586 680 m s 571
 680 m s 556 680 m s 541 680 m s 527 681 m -1 X s 525 680 m s 513 682 m -3 -2 d s 501 685 m -2 -1 d s 495 680 m cl s 483 682 m -3 -2 d s 467 681 m -2 -1 d s 454 684 m -4 -4 d s 442 686 m -7 -6 d s 425 685 m -5 -5 d s 412 686 m -7 -6 d s 403 693 m -13
 -13 d s 390 695 m -15 -15 d s 385 706 m -25 -26 d s 370 706 m -25 -26 d s 358 708 m -29 -28 d s 349 714 m -35 -34 d s 347 727 m -48 -47 d s 326 722 m -42 -42 d s 321 732 m -52 -52 d s 314 740 m -60 -60 d s 300 741 m -61 -61 d s 294 750 m -70 -70 d s
 294 765 m -85 -85 d s 294 780 m -100 -100 d s 294 795 m -115 -115 d s 287 804 m -7 -7 d s 278 794 m -114 -114 d s 267 798 m -118 -118 d s 264 811 m -121 -121 d s 253 815 m -110 -110 d s 253 830 m -110 -110 d s 247 839 m -104 -104 d s 239 846 m -96
 -96 d s 239 862 m -96 -97 d s 239 877 m -96 -96 d s 233 886 m -90 -90 d s 217 884 m -74 -73 d s 212 895 m -69 -69 d s 212 910 m -69 -69 d s 212 925 m -69 -69 d s 198 926 m -55 -55 d s 198 942 m -55 -55 d s 198 957 m -55 -55 d s 198 972 m -13 -14 d s
 173 947 m -30 -30 d s 187 976 m -2 -3 d s 171 960 m -28 -28 d s 171 975 m -28 -28 d s 171 990 m -28 -28 d s 158 992 m -1 -1 d s 148 982 m -5 -5 d s 6 lw 143 982 m 14 X 10 Y 14 X -45 Y 14 X 29 Y 13 X -51 Y 14 X -41 Y 14 X 2 Y 13 X -47 Y 14 X -28 Y 14
 X -17 Y 13 X 10 Y 14 X -63 Y 14 X -1 Y 13 X -18 Y 14 X 5 Y 14 X -19 Y 13 X -2 Y 28 X -11 Y 13 X -9 Y 14 X -1 Y 14 X 1 Y 13 X -2 Y 14 X -3 Y 14 X 1 Y 13 X -2 Y 14 X 5 Y 14 X -5 Y 13 X 1 Y 14 X -1 Y 151 X s black 3 lw 143 680 m 548 X s 235 693 m -13 Y
 s 257 686 m -6 Y s 280 686 m -6 Y s 303 686 m -6 Y s 326 693 m -13 Y s 348 686 m -6 Y s 371 686 m -6 Y s 394 686 m -6 Y s 417 693 m -13 Y s 439 686 m -6 Y s 462 686 m -6 Y s 485 686 m -6 Y s 508 693 m -13 Y s 531 686 m -6 Y s 553 686 m -6 Y s 576
 686 m -6 Y s 599 693 m -13 Y s 622 686 m -6 Y s 644 686 m -6 Y s 667 686 m -6 Y s 690 693 m -13 Y s 235 693 m -13 Y s 212 686 m -6 Y s 189 686 m -6 Y s 166 686 m -6 Y s 690 693 m -13 Y s 143 1106 m 548 X s 235 1093 m 13 Y s 257 1099 m 7 Y s 280 1099
 m 7 Y s 303 1099 m 7 Y s 326 1093 m 13 Y s 348 1099 m 7 Y s 371 1099 m 7 Y s 394 1099 m 7 Y s 417 1093 m 13 Y s 439 1099 m 7 Y s 462 1099 m 7 Y s 485 1099 m 7 Y s 508 1093 m 13 Y s 531 1099 m 7 Y s 553 1099 m 7 Y s 576 1099 m 7 Y s 599 1093 m 13 Y s
 622 1099 m 7 Y s 644 1099 m 7 Y s 667 1099 m 7 Y s 690 1093 m 13 Y s 235 1093 m 13 Y s 212 1099 m 7 Y s 189 1099 m 7 Y s 166 1099 m 7 Y s 690 1093 m 13 Y s 143 680 m 426 Y s 160 680 m -17 X s 152 696 m -9 X s 152 712 m -9 X s 152 728 m -9 X s 152
 745 m -9 X s 160 761 m -17 X s 152 777 m -9 X s 152 793 m -9 X s 152 810 m -9 X s 152 826 m -9 X s 160 842 m -17 X s 152 858 m -9 X s 152 875 m -9 X s 152 891 m -9 X s 152 907 m -9 X s 160 923 m -17 X s 152 940 m -9 X s 152 956 m -9 X s 152 972 m -9
 X s 152 988 m -9 X s 160 1005 m -17 X s 152 1021 m -9 X s 152 1037 m -9 X s 152 1053 m -9 X s 152 1070 m -9 X s 160 1086 m -17 X s 160 1086 m -17 X s 152 1102 m -9 X s 691 680 m 426 Y s 674 680 m 17 X s 683 696 m 8 X s 683 712 m 8 X s 683 728 m 8 X
 s 683 745 m 8 X s 674 761 m 17 X s 683 777 m 8 X s 683 793 m 8 X s 683 810 m 8 X s 683 826 m 8 X s 674 842 m 17 X s 683 858 m 8 X s 683 875 m 8 X s 683 891 m 8 X s 683 907 m 8 X s 674 923 m 17 X s 683 940 m 8 X s 683 956 m 8 X s 683 972 m 8 X s 683
 988 m 8 X s 674 1005 m 17 X s 683 1021 m 8 X s 683 1037 m 8 X s 683 1053 m 8 X s 683 1070 m 8 X s 674 1086 m 17 X s 674 1086 m 17 X s 683 1102 m 8 X s
 gsave  710 563 23 599 C 719.017 677.427 t 90 r /Helvetica-Bold findfont 19.9164 sf 0 0 m (U/O\255flow \(S,B\): \(0.0, 0.0\)% / \(0.0, 0.0\)%) show NC gr  0.490196 0.545098 0.615686 c 0.364706 0.419608 0.490196 c 355 37 30 1122 bf 0.490196 0.545098
 0.615686 c 30 1122 m 355 X s 385 1122 m 37 Y s 385 1159 m -355 X s 30 1159 m -37 Y s 1 1 1 c black 1 1 1 c
 gsave  710 563 23 599 C 34.101 1133.86 t 0 r /Helvetica-Bold findfont 28.4519 sf 0 0 m (Input variable: Trk1_dEta) show NC gr  0.490196 0.545098 0.615686 c 0.941176 0.941176 0.941176 c 710 563 779 599 bf black 1 1 0.992157 c 548 426 899 680 bf black
 548 426 899 680 bl 0 0 0.933333 c 6 lw 0.49 0.6 0.82 c black 3 lw 0.49 0.6 0.82 c 899 680 m 387 Y 14 X -27 Y 14 X -34 Y 13 X -41 Y 14 X -37 Y 14 X -33 Y 13 X -53 Y 14 X -22 Y 14 X -26 Y 13 X -30 Y 14 X -20 Y 14 X -9 Y 14 X -13 Y 13 X -12 Y 14 X -8 Y
 14 X -5 Y 13 X -4 Y 14 X -5 Y 14 X -2 Y 13 X -1 Y 14 X -2 Y 14 X -2 Y 68 X -1 Y 192 X f 6 lw 0 0 0.933333 c 0.49 0.6 0.82 c 0 0 0.933333 c 899 1067 m 14 X -27 Y 14 X -34 Y 13 X -41 Y 14 X -37 Y 14 X -33 Y 13 X -53 Y 14 X -22 Y 14 X -26 Y 13 X -30 Y
 14 X -20 Y 14 X -9 Y 14 X -13 Y 13 X -12 Y 14 X -8 Y 14 X -5 Y 13 X -4 Y 14 X -5 Y 14 X -2 Y 13 X -1 Y 14 X -2 Y 14 X -2 Y 68 X -1 Y 192 X s black 3 lw 899 680 m 548 X s 986 693 m -13 Y s 1008 686 m -6 Y s 1029 686 m -6 Y s 1051 686 m -6 Y s 1073
 693 m -13 Y s 1095 686 m -6 Y s 1116 686 m -6 Y s 1138 686 m -6 Y s 1160 693 m -13 Y s 1181 686 m -6 Y s 1203 686 m -6 Y s 1225 686 m -6 Y s 1246 693 m -13 Y s 1268 686 m -6 Y s 1290 686 m -6 Y s 1311 686 m -6 Y s 1333 693 m -13 Y s 1355 686 m -6 Y
 s 1376 686 m -6 Y s 1398 686 m -6 Y s 1420 693 m -13 Y s 986 693 m -13 Y s 964 686 m -6 Y s 943 686 m -6 Y s 921 686 m -6 Y s 1420 693 m -13 Y s 1442 686 m -6 Y s
 gsave  710 563 779 599 C 960.512 653.602 t 0 r /Helvetica findfont 25.6068 sf 0 0 m (0.02) show NC gr 
 gsave  710 563 779 599 C 1045.76 653.602 t 0 r /Helvetica findfont 25.6068 sf 0 0 m (0.04) show NC gr 
 gsave  710 563 779 599 C 1133.86 653.602 t 0 r /Helvetica findfont 25.6068 sf 0 0 m (0.06) show NC gr 
 gsave  710 563 779 599 C 1219.11 653.602 t 0 r /Helvetica findfont 25.6068 sf 0 0 m (0.08) show NC gr 
 gsave  710 563 779 599 C 1315.73 653.602 t 0 r /Helvetica findfont 25.6068 sf 0 0 m (0.1) show NC gr 
 gsave  710 563 779 599 C 1392.46 653.602 t 0 r /Helvetica findfont 25.6068 sf 0 0 m (0.12) show NC gr 
 gsave  710 563 779 599 C 1315.73 608.134 t 0 r /Helvetica findfont 28.4519 sf 0 0 m (Trk2_dEta) show NC gr  899 1106 m 548 X s 986 1093 m 13 Y s 1008 1099 m 7 Y s 1029 1099 m 7 Y s 1051 1099 m 7 Y s 1073 1093 m 13 Y s 1095 1099 m 7 Y s 1116 1099 m 7
 Y s 1138 1099 m 7 Y s 1160 1093 m 13 Y s 1181 1099 m 7 Y s 1203 1099 m 7 Y s 1225 1099 m 7 Y s 1246 1093 m 13 Y s 1268 1099 m 7 Y s 1290 1099 m 7 Y s 1311 1099 m 7 Y s 1333 1093 m 13 Y s 1355 1099 m 7 Y s 1376 1099 m 7 Y s 1398 1099 m 7 Y s 1420
 1093 m 13 Y s 986 1093 m 13 Y s 964 1099 m 7 Y s 943 1099 m 7 Y s 921 1099 m 7 Y s 1420 1093 m 13 Y s 1442 1099 m 7 Y s 899 680 m 426 Y s 915 680 m -16 X s 907 696 m -8 X s 907 712 m -8 X s 907 729 m -8 X s 907 745 m -8 X s 915 762 m -16 X s 907 778
 m -8 X s 907 794 m -8 X s 907 811 m -8 X s 907 827 m -8 X s 915 844 m -16 X s 907 860 m -8 X s 907 876 m -8 X s 907 893 m -8 X s 907 909 m -8 X s 915 926 m -16 X s 907 942 m -8 X s 907 958 m -8 X s 907 975 m -8 X s 907 991 m -8 X s 915 1008 m -16 X
 s 907 1024 m -8 X s 907 1040 m -8 X s 907 1057 m -8 X s 907 1073 m -8 X s 915 1089 m -16 X s 915 1089 m -16 X s
 gsave  710 563 779 599 C 875.259 670.653 t 0 r /Helvetica findfont 25.6068 sf 0 0 m (0) show NC gr 
 gsave  710 563 779 599 C 861.05 753.064 t 0 r /Helvetica findfont 25.6068 sf 0 0 m (10) show NC gr 
 gsave  710 563 779 599 C 861.05 832.633 t 0 r /Helvetica findfont 25.6068 sf 0 0 m (20) show NC gr 
 gsave  710 563 779 599 C 861.05 915.043 t 0 r /Helvetica findfont 25.6068 sf 0 0 m (30) show NC gr 
 gsave  710 563 779 599 C 861.05 997.454 t 0 r /Helvetica findfont 25.6068 sf 0 0 m (40) show NC gr 
 gsave  710 563 779 599 C 861.05 1079.86 t 0 r /Helvetica findfont 25.6068 sf 0 0 m (50) show NC gr 
 gsave  710 563 779 599 C 801.374 1000.3 t 90 r /Helvetica findfont 28.4519 sf 0 0 m (0.00315 ) show NC gr 
 gsave  710 563 779 599 C 787.165 997.454 t 90 r /Helvetica findfont 19.9164 sf 0 0 m ( ) show NC gr 
 gsave  710 563 779 599 C 801.374 986.087 t 90 r /Helvetica findfont 28.4519 sf 0 0 m (/) show NC gr 
 gsave  710 563 779 599 C 809.899 983.245 t 90 r /Helvetica findfont 19.9164 sf 0 0 m ( ) show NC gr 
 gsave  710 563 779 599 C 801.374 878.101 t 90 r /Helvetica findfont 28.4519 sf 0 0 m (\(1/N\) dN) show NC gr  1447 680 m 426 Y s 1430 680 m 17 X s 1438 696 m 9 X s 1438 712 m 9 X s 1438 729 m 9 X s 1438 745 m 9 X s 1430 762 m 17 X s 1438 778 m 9 X s
 1438 794 m 9 X s 1438 811 m 9 X s 1438 827 m 9 X s 1430 844 m 17 X s 1438 860 m 9 X s 1438 876 m 9 X s 1438 893 m 9 X s 1438 909 m 9 X s 1430 926 m 17 X s 1438 942 m 9 X s 1438 958 m 9 X s 1438 975 m 9 X s 1438 991 m 9 X s 1430 1008 m 17 X s 1438
 1024 m 9 X s 1438 1040 m 9 X s 1438 1057 m 9 X s 1438 1073 m 9 X s 1430 1089 m 17 X s 1430 1089 m 17 X s 0.490196 0.545098 0.615686 c 0.364706 0.419608 0.490196 c 355 37 786 1122 bf 0.490196 0.545098 0.615686 c 786 1122 m 355 X s 1141 1122 m 37 Y s
 1141 1159 m -355 X s 786 1159 m -37 Y s 1 1 1 c black 1 1 1 c
 gsave  710 563 779 599 C 790.007 1133.86 t 0 r /Helvetica-Bold findfont 28.4519 sf 0 0 m (Input variable: Trk2_dEta) show NC gr  1 0 0 c 6 lw black 3 lw 1 0 0 c 1432 680 m s 1417 680 m s 1402 680 m s 1387 680 m s 1372 680 m s 1358 681 m -1 -1 d s
 1342 680 m s 1327 680 m s 1311 680 m s 1299 682 m -3 -2 d s 1284 682 m -3 -2 d s 1269 682 m s 1268 681 m -2 -1 d s 1253 681 m -2 -1 d s 1237 681 m -1 -1 d s 1225 684 m -4 -4 d s 1210 684 m -4 -4 d s 1197 686 m -6 -6 d s 1182 686 m -6 -6 d s 1173 692
 m -12 -12 d s 1160 694 m -1 -1 d s 1155 689 m -9 -9 d s 1146 695 m -15 -15 d s 1134 698 m -18 -18 d s 1118 698 m -18 -18 d s 1118 713 m -33 -33 d s 1107 716 m -2 -2 d s 1104 714 m -34 -34 d s 1091 715 m -36 -35 d s 1091 731 m -51 -51 d s 1091 746 m
 -66 -66 d s 1078 748 m -68 -68 d s 1065 751 m -1 -2 d s 1063 748 m -68 -68 d s 1050 750 m -70 -70 d s 1050 765 m -85 -85 d s 1050 780 m -100 -100 d s 1036 782 m -101 -102 d s 1036 797 m -116 -117 d s 1032 808 m -127 -128 d s 1022 813 m -123 -123 d s
 1022 829 m -13 -14 d s 1006 812 m -107 -107 d s 1015 836 m -6 -6 d s 995 816 m -96 -96 d s 995 831 m -96 -96 d s 995 846 m -96 -96 d s 981 848 m -82 -83 d s 981 863 m -82 -82 d s 981 878 m -82 -82 d s 981 893 m -82 -82 d s 981 908 m -82 -82 d s 968
 910 m -69 -69 d s 955 912 m -56 -56 d s 946 918 m -47 -47 d s 940 928 m -41 -41 d s 940 943 m -41 -41 d s 936 954 m -37 -37 d s 913 946 m -14 -14 d s 913 961 m -14 -14 d s 913 976 m -14 -14 d s 902 980 m -3 -3 d s 6 lw 899 980 m 14 X -35 Y 14 X 9 Y
 13 X -36 Y 14 X -6 Y 14 X -3 Y 13 X -61 Y 14 X -36 Y 14 X 24 Y 13 X -28 Y 14 X -26 Y 14 X -34 Y 14 X 3 Y 13 X -3 Y 14 X -34 Y 14 X 2 Y 13 X -19 Y 14 X 1 Y 14 X -9 Y 13 X 5 Y 14 X -8 Y 27 X -2 Y 28 X -3 Y 41 X 1 Y 41 X -2 Y 41 X 1 Y 13 X -1 Y 83 X s
 black 3 lw 899 680 m 548 X s 986 693 m -13 Y s 1008 686 m -6 Y s 1029 686 m -6 Y s 1051 686 m -6 Y s 1073 693 m -13 Y s 1095 686 m -6 Y s 1116 686 m -6 Y s 1138 686 m -6 Y s 1160 693 m -13 Y s 1181 686 m -6 Y s 1203 686 m -6 Y s 1225 686 m -6 Y s
 1246 693 m -13 Y s 1268 686 m -6 Y s 1290 686 m -6 Y s 1311 686 m -6 Y s 1333 693 m -13 Y s 1355 686 m -6 Y s 1376 686 m -6 Y s 1398 686 m -6 Y s 1420 693 m -13 Y s 986 693 m -13 Y s 964 686 m -6 Y s 943 686 m -6 Y s 921 686 m -6 Y s 1420 693 m -13
 Y s 1442 686 m -6 Y s 899 1106 m 548 X s 986 1093 m 13 Y s 1008 1099 m 7 Y s 1029 1099 m 7 Y s 1051 1099 m 7 Y s 1073 1093 m 13 Y s 1095 1099 m 7 Y s 1116 1099 m 7 Y s 1138 1099 m 7 Y s 1160 1093 m 13 Y s 1181 1099 m 7 Y s 1203 1099 m 7 Y s 1225
 1099 m 7 Y s 1246 1093 m 13 Y s 1268 1099 m 7 Y s 1290 1099 m 7 Y s 1311 1099 m 7 Y s 1333 1093 m 13 Y s 1355 1099 m 7 Y s 1376 1099 m 7 Y s 1398 1099 m 7 Y s 1420 1093 m 13 Y s 986 1093 m 13 Y s 964 1099 m 7 Y s 943 1099 m 7 Y s 921 1099 m 7 Y s
 1420 1093 m 13 Y s 1442 1099 m 7 Y s 899 680 m 426 Y s 915 680 m -16 X s 907 696 m -8 X s 907 712 m -8 X s 907 729 m -8 X s 907 745 m -8 X s 915 762 m -16 X s 907 778 m -8 X s 907 794 m -8 X s 907 811 m -8 X s 907 827 m -8 X s 915 844 m -16 X s 907
 860 m -8 X s 907 876 m -8 X s 907 893 m -8 X s 907 909 m -8 X s 915 926 m -16 X s 907 942 m -8 X s 907 958 m -8 X s 907 975 m -8 X s 907 991 m -8 X s 915 1008 m -16 X s 907 1024 m -8 X s 907 1040 m -8 X s 907 1057 m -8 X s 907 1073 m -8 X s 915 1089
 m -16 X s 915 1089 m -16 X s 1447 680 m 426 Y s 1430 680 m 17 X s 1438 696 m 9 X s 1438 712 m 9 X s 1438 729 m 9 X s 1438 745 m 9 X s 1430 762 m 17 X s 1438 778 m 9 X s 1438 794 m 9 X s 1438 811 m 9 X s 1438 827 m 9 X s 1430 844 m 17 X s 1438 860 m
 9 X s 1438 876 m 9 X s 1438 893 m 9 X s 1438 909 m 9 X s 1430 926 m 17 X s 1438 942 m 9 X s 1438 958 m 9 X s 1438 975 m 9 X s 1438 991 m 9 X s 1430 1008 m 17 X s 1438 1024 m 9 X s 1438 1040 m 9 X s 1438 1057 m 9 X s 1438 1073 m 9 X s 1430 1089 m 17
 X s 1430 1089 m 17 X s
 gsave  710 563 779 599 C 1474.92 677.427 t 90 r /Helvetica-Bold findfont 19.9164 sf 0 0 m (U/O\255flow \(S,B\): \(0.0, 0.0\)% / \(0.0, 0.1\)%) show NC gr  0.490196 0.545098 0.615686 c 0.364706 0.419608 0.490196 c 355 37 786 1122 bf 0.490196 0.545098
 0.615686 c 786 1122 m 355 X s 1141 1122 m 37 Y s 1141 1159 m -355 X s 786 1159 m -37 Y s 1 1 1 c black 1 1 1 c
 gsave  710 563 779 599 C 790.007 1133.86 t 0 r /Helvetica-Bold findfont 28.4519 sf 0 0 m (Input variable: Trk2_dEta) show NC gr  0.490196 0.545098 0.615686 c 0.941176 0.941176 0.941176 c 711 563 1534 599 bf black 1 1 0.992157 c 547 426 1655 680 bf
 black 547 426 1655 680 bl 0 0 0.933333 c 6 lw 0.49 0.6 0.82 c black 3 lw 0.49 0.6 0.82 c 1655 680 m 8 Y 14 X -2 Y 14 X 6 Y 13 X 2 Y 14 X 4 Y 14 X -2 Y 13 X 4 Y 14 X 7 Y 14 X 4 Y 13 X -2 Y 14 X 9 Y 41 X 2 Y 14 X 6 Y 27 X 5 Y 14 X 4 Y 13 X 5 Y 14 X 65
 Y 14 X -73 Y 14 X 6 Y 13 X -3 Y 14 X 1 Y 14 X 7 Y 13 X 1 Y 14 X 3 Y 14 X -9 Y 13 X 9 Y 14 X 4 Y 14 X 1 Y 13 X -7 Y 14 X 5 Y 14 X 13 Y 13 X 1 Y 14 X 9 Y 14 X 18 Y 13 X 48 Y 14 X 228 Y 14 X -197 Y 13 X -190 Y f 6 lw 0 0 0.933333 c 0.49 0.6 0.82 c 0 0
 0.933333 c 1655 688 m 14 X -2 Y 14 X 6 Y 13 X 2 Y 14 X 4 Y 14 X -2 Y 13 X 4 Y 14 X 7 Y 14 X 4 Y 13 X -2 Y 14 X 9 Y 41 X 2 Y 14 X 6 Y 27 X 5 Y 14 X 4 Y 13 X 5 Y 14 X 65 Y 14 X -73 Y 14 X 6 Y 13 X -3 Y 14 X 1 Y 14 X 7 Y 13 X 1 Y 14 X 3 Y 14 X -9 Y 13
 X 9 Y 14 X 4 Y 14 X 1 Y 13 X -7 Y 14 X 5 Y 14 X 13 Y 13 X 1 Y 14 X 9 Y 14 X 18 Y 13 X 48 Y 14 X 228 Y 14 X -197 Y 13 X s black 3 lw 1655 680 m 547 X s 1655 693 m -13 Y s 1682 686 m -6 Y s 1709 686 m -6 Y s 1735 686 m -6 Y s 1762 693 m -13 Y s 1789
 686 m -6 Y s 1815 686 m -6 Y s 1842 686 m -6 Y s 1869 693 m -13 Y s 1895 686 m -6 Y s 1922 686 m -6 Y s 1949 686 m -6 Y s 1976 693 m -13 Y s 2002 686 m -6 Y s 2029 686 m -6 Y s 2056 686 m -6 Y s 2082 693 m -13 Y s 2109 686 m -6 Y s 2136 686 m -6 Y s
 2162 686 m -6 Y s 2189 693 m -13 Y s 1655 693 m -13 Y s 2189 693 m -13 Y s
 gsave  711 563 1534 599 C 1645.37 653.602 t 0 r /Helvetica findfont 25.6068 sf 0 0 m (0) show NC gr 
 gsave  711 563 1534 599 C 1744.83 653.602 t 0 r /Helvetica findfont 25.6068 sf 0 0 m (0.2) show NC gr 
 gsave  711 563 1534 599 C 1849.98 653.602 t 0 r /Helvetica findfont 25.6068 sf 0 0 m (0.4) show NC gr 
 gsave  711 563 1534 599 C 1957.97 653.602 t 0 r /Helvetica findfont 25.6068 sf 0 0 m (0.6) show NC gr 
 gsave  711 563 1534 599 C 2063.11 653.602 t 0 r /Helvetica findfont 25.6068 sf 0 0 m (0.8) show NC gr 
 gsave  711 563 1534 599 C 2182.46 653.602 t 0 r /Helvetica findfont 25.6068 sf 0 0 m (1) show NC gr 
 gsave  711 563 1534 599 C 1943.76 610.976 t 0 r /Helvetica findfont 28.4519 sf 0 0 m (Trk1_eProbabilityHT) show NC gr  1655 1106 m 547 X s 1655 1093 m 13 Y s 1682 1099 m 7 Y s 1709 1099 m 7 Y s 1735 1099 m 7 Y s 1762 1093 m 13 Y s 1789 1099 m 7 Y s
 1815 1099 m 7 Y s 1842 1099 m 7 Y s 1869 1093 m 13 Y s 1895 1099 m 7 Y s 1922 1099 m 7 Y s 1949 1099 m 7 Y s 1976 1093 m 13 Y s 2002 1099 m 7 Y s 2029 1099 m 7 Y s 2056 1099 m 7 Y s 2082 1093 m 13 Y s 2109 1099 m 7 Y s 2136 1099 m 7 Y s 2162 1099 m
 7 Y s 2189 1093 m 13 Y s 1655 1093 m 13 Y s 2189 1093 m 13 Y s 1655 680 m 426 Y s 1671 680 m -16 X s 1663 693 m -8 X s 1663 707 m -8 X s 1663 721 m -8 X s 1663 734 m -8 X s 1671 748 m -16 X s 1663 761 m -8 X s 1663 775 m -8 X s 1663 789 m -8 X s
 1663 802 m -8 X s 1671 816 m -16 X s 1663 829 m -8 X s 1663 843 m -8 X s 1663 857 m -8 X s 1663 870 m -8 X s 1671 884 m -16 X s 1663 897 m -8 X s 1663 911 m -8 X s 1663 925 m -8 X s 1663 938 m -8 X s 1671 952 m -16 X s 1663 966 m -8 X s 1663 979 m
 -8 X s 1663 993 m -8 X s 1663 1006 m -8 X s 1671 1020 m -16 X s 1663 1034 m -8 X s 1663 1047 m -8 X s 1663 1061 m -8 X s 1663 1074 m -8 X s 1671 1088 m -16 X s 1671 1088 m -16 X s 1663 1102 m -8 X s
 gsave  711 563 1534 599 C 1631.16 670.653 t 0 r /Helvetica findfont 25.6068 sf 0 0 m (0) show NC gr 
 gsave  711 563 1534 599 C 1634.01 738.855 t 0 r /Helvetica findfont 25.6068 sf 0 0 m (1) show NC gr 
 gsave  711 563 1534 599 C 1631.16 807.057 t 0 r /Helvetica findfont 25.6068 sf 0 0 m (2) show NC gr 
 gsave  711 563 1534 599 C 1631.16 875.259 t 0 r /Helvetica findfont 25.6068 sf 0 0 m (3) show NC gr 
 gsave  711 563 1534 599 C 1631.16 940.619 t 0 r /Helvetica findfont 25.6068 sf 0 0 m (4) show NC gr 
 gsave  711 563 1534 599 C 1631.16 1008.82 t 0 r /Helvetica findfont 25.6068 sf 0 0 m (5) show NC gr 
 gsave  711 563 1534 599 C 1631.16 1077.02 t 0 r /Helvetica findfont 25.6068 sf 0 0 m (6) show NC gr 
 gsave  711 563 1534 599 C 1557.28 1017.35 t 90 r /Helvetica findfont 28.4519 sf 0 0 m (0.0256 ) show NC gr 
 gsave  711 563 1534 599 C 1543.07 1014.5 t 90 r /Helvetica findfont 19.9164 sf 0 0 m ( ) show NC gr 
 gsave  711 563 1534 599 C 1557.28 1003.14 t 90 r /Helvetica findfont 28.4519 sf 0 0 m (/) show NC gr 
 gsave  711 563 1534 599 C 1565.8 1000.3 t 90 r /Helvetica findfont 19.9164 sf 0 0 m ( ) show NC gr 
 gsave  711 563 1534 599 C 1557.28 895.151 t 90 r /Helvetica findfont 28.4519 sf 0 0 m (\(1/N\) dN) show NC gr  2202 680 m 426 Y s 2186 680 m 16 X s 2194 693 m 8 X s 2194 707 m 8 X s 2194 721 m 8 X s 2194 734 m 8 X s 2186 748 m 16 X s 2194 761 m 8 X
 s 2194 775 m 8 X s 2194 789 m 8 X s 2194 802 m 8 X s 2186 816 m 16 X s 2194 829 m 8 X s 2194 843 m 8 X s 2194 857 m 8 X s 2194 870 m 8 X s 2186 884 m 16 X s 2194 897 m 8 X s 2194 911 m 8 X s 2194 925 m 8 X s 2194 938 m 8 X s 2186 952 m 16 X s 2194
 966 m 8 X s 2194 979 m 8 X s 2194 993 m 8 X s 2194 1006 m 8 X s 2186 1020 m 16 X s 2194 1034 m 8 X s 2194 1047 m 8 X s 2194 1061 m 8 X s 2194 1074 m 8 X s 2186 1088 m 16 X s 2186 1088 m 16 X s 2194 1102 m 8 X s 0.490196 0.545098 0.615686 c 0.364706
 0.419608 0.490196 c 497 37 1542 1122 bf 0.490196 0.545098 0.615686 c 1542 1122 m 497 X s 2039 1122 m 37 Y s 2039 1159 m -497 X s 1542 1159 m -37 Y s 1 1 1 c black 1 1 1 c
 gsave  711 563 1534 599 C 1545.91 1133.86 t 0 r /Helvetica-Bold findfont 28.4519 sf 0 0 m (Input variable: Trk1_eProbabilityHT) show NC gr  1 0 0 c 6 lw black 3 lw 1 0 0 c 2202 694 m -14 -14 d s 2202 709 m -29 -29 d s 2202 724 m -44 -44 d s 2202 740
 m -59 -60 d s 2202 755 m -74 -75 d s 2202 770 m -89 -90 d s 2202 785 m -104 -105 d s 2202 800 m -41 -41 d s 2156 753 m -74 -73 d s 2202 815 m -41 -41 d s 2143 756 m -76 -76 d s 2202 831 m -41 -42 d s 2124 752 m -4 -4 d s 2114 741 m -62 -61 d s 2202
 846 m -27 -28 d s 2167 810 m -6 -6 d s 2100 743 m -7 -7 d s 2091 733 m -54 -53 d s 2202 861 m -27 -28 d s 2079 737 m -13 -14 d s 2057 715 m -35 -35 d s 2191 864 m -16 -16 d s 2068 741 m -2 -3 d s 2052 725 m -45 -45 d s 2189 877 m -14 -13 d s 2052
 740 m -14 -14 d s 2035 723 m -43 -43 d s 2189 893 m -14 -14 d s 2041 744 m -3 -3 d s 2020 723 m -43 -43 d s 2189 908 m -14 -14 d s 2011 729 m -14 -14 d s 1994 712 m -32 -32 d s 2189 923 m -14 -14 d s 1984 717 m -37 -37 d s 2189 938 m -14 -14 d s
 1972 720 m -40 -40 d s 2189 953 m -14 -14 d s 1957 720 m -40 -40 d s 2189 968 m -14 -13 d s 1948 727 m -5 -6 d s 1936 715 m -34 -35 d s 2189 983 m -14 -13 d s 1929 722 m -42 -42 d s 2189 999 m -14 -14 d s 1929 737 m -58 -57 d s 2189 1014 m -14 -14 d
 s 1929 753 m -14 -14 d s 1914 737 m -13 -12 d s 1900 724 m -44 -44 d s 2189 1029 m -14 -14 d s 1929 768 m -14 -14 d s 1880 719 m -39 -39 d s 2186 1041 m -11 -11 d s 1929 783 m -14 -14 d s 1868 721 m -42 -41 d s 1929 798 m -14 -14 d s 1856 725 m -9
 -10 d s 1838 706 m -27 -26 d s 1929 813 m -14 -14 d s 1833 717 m -37 -37 d s 1924 823 m -9 -8 d s 1824 723 m -5 -5 d s 1817 716 m -36 -36 d s 1802 716 m -36 -36 d s 1792 721 m -41 -41 d s 1780 724 m -44 -44 d s 1771 731 m -50 -51 d s 1754 728 m -48
 -48 d s 1743 732 m -52 -52 d s 1737 742 m -62 -62 d s 1727 747 m -67 -67 d s 1717 752 m -7 -7 d s 1709 744 m -54 -54 d s 1688 737 m -33 -32 d s 1673 737 m -18 -17 d s 1661 741 m -6 -6 d s 6 lw 1655 741 m 14 X -4 Y 27 X 7 Y 14 X 8 Y 14 X -5 Y 13 X
 -15 Y 14 X -4 Y 14 X 3 Y 13 X -7 Y 14 X -8 Y 27 X 7 Y 14 X -17 Y 14 X 19 Y 13 X -4 Y 14 X -2 Y 14 X 5 Y 13 X 13 Y 14 X 86 Y 14 X -108 Y 14 X 12 Y 13 X -7 Y 28 X -8 Y 13 X 17 Y 14 X -6 Y 27 X 21 Y 14 X -29 Y 14 X 26 Y 13 X -8 Y 14 X 10 Y 14 X -2 Y 13
 X 11 Y 14 X 4 Y 14 X -3 Y 13 X 57 Y 14 X 231 Y 14 X -177 Y 13 X s black 3 lw 1655 680 m 547 X s 1655 693 m -13 Y s 1682 686 m -6 Y s 1709 686 m -6 Y s 1735 686 m -6 Y s 1762 693 m -13 Y s 1789 686 m -6 Y s 1815 686 m -6 Y s 1842 686 m -6 Y s 1869
 693 m -13 Y s 1895 686 m -6 Y s 1922 686 m -6 Y s 1949 686 m -6 Y s 1976 693 m -13 Y s 2002 686 m -6 Y s 2029 686 m -6 Y s 2056 686 m -6 Y s 2082 693 m -13 Y s 2109 686 m -6 Y s 2136 686 m -6 Y s 2162 686 m -6 Y s 2189 693 m -13 Y s 1655 693 m -13 Y
 s 2189 693 m -13 Y s 1655 1106 m 547 X s 1655 1093 m 13 Y s 1682 1099 m 7 Y s 1709 1099 m 7 Y s 1735 1099 m 7 Y s 1762 1093 m 13 Y s 1789 1099 m 7 Y s 1815 1099 m 7 Y s 1842 1099 m 7 Y s 1869 1093 m 13 Y s 1895 1099 m 7 Y s 1922 1099 m 7 Y s 1949
 1099 m 7 Y s 1976 1093 m 13 Y s 2002 1099 m 7 Y s 2029 1099 m 7 Y s 2056 1099 m 7 Y s 2082 1093 m 13 Y s 2109 1099 m 7 Y s 2136 1099 m 7 Y s 2162 1099 m 7 Y s 2189 1093 m 13 Y s 1655 1093 m 13 Y s 2189 1093 m 13 Y s 1655 680 m 426 Y s 1671 680 m -16
 X s 1663 693 m -8 X s 1663 707 m -8 X s 1663 721 m -8 X s 1663 734 m -8 X s 1671 748 m -16 X s 1663 761 m -8 X s 1663 775 m -8 X s 1663 789 m -8 X s 1663 802 m -8 X s 1671 816 m -16 X s 1663 829 m -8 X s 1663 843 m -8 X s 1663 857 m -8 X s 1663 870
 m -8 X s 1671 884 m -16 X s 1663 897 m -8 X s 1663 911 m -8 X s 1663 925 m -8 X s 1663 938 m -8 X s 1671 952 m -16 X s 1663 966 m -8 X s 1663 979 m -8 X s 1663 993 m -8 X s 1663 1006 m -8 X s 1671 1020 m -16 X s 1663 1034 m -8 X s 1663 1047 m -8 X s
 1663 1061 m -8 X s 1663 1074 m -8 X s 1671 1088 m -16 X s 1671 1088 m -16 X s 1663 1102 m -8 X s 2202 680 m 426 Y s 2186 680 m 16 X s 2194 693 m 8 X s 2194 707 m 8 X s 2194 721 m 8 X s 2194 734 m 8 X s 2186 748 m 16 X s 2194 761 m 8 X s 2194 775 m 8
 X s 2194 789 m 8 X s 2194 802 m 8 X s 2186 816 m 16 X s 2194 829 m 8 X s 2194 843 m 8 X s 2194 857 m 8 X s 2194 870 m 8 X s 2186 884 m 16 X s 2194 897 m 8 X s 2194 911 m 8 X s 2194 925 m 8 X s 2194 938 m 8 X s 2186 952 m 16 X s 2194 966 m 8 X s 2194
 979 m 8 X s 2194 993 m 8 X s 2194 1006 m 8 X s 2186 1020 m 16 X s 2194 1034 m 8 X s 2194 1047 m 8 X s 2194 1061 m 8 X s 2194 1074 m 8 X s 2186 1088 m 16 X s 2186 1088 m 16 X s 2194 1102 m 8 X s
 gsave  711 563 1534 599 C 2230.83 677.427 t 90 r /Helvetica-Bold findfont 19.9164 sf 0 0 m (U/O\255flow \(S,B\): \(0.0, 0.0\)% / \(0.0, 0.0\)%) show NC gr  0.490196 0.545098 0.615686 c 0.364706 0.419608 0.490196 c 497 37 1542 1122 bf 0.490196
 0.545098 0.615686 c 1542 1122 m 497 X s 2039 1122 m 37 Y s 2039 1159 m -497 X s 1542 1159 m -37 Y s 1 1 1 c black 1 1 1 c
 gsave  711 563 1534 599 C 1545.91 1133.86 t 0 r /Helvetica-Bold findfont 28.4519 sf 0 0 m (Input variable: Trk1_eProbabilityHT) show NC gr  0.490196 0.545098 0.615686 c 0.941176 0.941176 0.941176 c 710 563 23 12 bf black 1 1 0.992157 c 548 426 143
 93 bf black 548 426 143 93 bl 0 0 0.933333 c 6 lw 0.49 0.6 0.82 c black 3 lw 0.49 0.6 0.82 c 143 93 m 5 Y 14 X 3 Y 14 X 1 Y 14 X 2 Y 13 X 1 Y 41 X 6 Y 14 X 3 Y 14 X -2 Y 13 X 3 Y 14 X -2 Y 14 X 4 Y 27 X 3 Y 14 X 1 Y 13 X -4 Y 14 X 5 Y 14 X -1 Y 13 X
 46 Y 14 X -43 Y 27 X 2 Y 14 X -1 Y 14 X 3 Y 13 X 1 Y 14 X 2 Y 14 X -1 Y 13 X 9 Y 14 X -6 Y 14 X 6 Y 13 X 5 Y 14 X 10 Y 28 X 9 Y 13 X 4 Y 14 X 28 Y 14 X 38 Y 13 X 247 Y 14 X -144 Y 14 X -243 Y f 6 lw 0 0 0.933333 c 0.49 0.6 0.82 c 0 0 0.933333 c 143
 98 m 14 X 3 Y 14 X 1 Y 14 X 2 Y 13 X 1 Y 41 X 6 Y 14 X 3 Y 14 X -2 Y 13 X 3 Y 14 X -2 Y 14 X 4 Y 27 X 3 Y 14 X 1 Y 13 X -4 Y 14 X 5 Y 14 X -1 Y 13 X 46 Y 14 X -43 Y 27 X 2 Y 14 X -1 Y 14 X 3 Y 13 X 1 Y 14 X 2 Y 14 X -1 Y 13 X 9 Y 14 X -6 Y 14 X 6 Y
 13 X 5 Y 14 X 10 Y 28 X 9 Y 13 X 4 Y 14 X 28 Y 14 X 38 Y 13 X 247 Y 14 X -144 Y 14 X s black 3 lw 143 93 m 548 X s 250 106 m -13 Y s 277 99 m -6 Y s 303 99 m -6 Y s 330 99 m -6 Y s 357 106 m -13 Y s 384 99 m -6 Y s 410 99 m -6 Y s 437 99 m -6 Y s
 464 106 m -13 Y s 490 99 m -6 Y s 517 99 m -6 Y s 544 99 m -6 Y s 570 106 m -13 Y s 597 99 m -6 Y s 624 99 m -6 Y s 651 99 m -6 Y s 677 106 m -13 Y s 250 106 m -13 Y s 223 99 m -6 Y s 197 99 m -6 Y s 170 99 m -6 Y s 677 106 m -13 Y s
 gsave  710 563 23 12 C 230.182 65.3603 t 0 r /Helvetica findfont 25.6068 sf 0 0 m (0.2) show NC gr 
 gsave  710 563 23 12 C 338.168 65.3603 t 0 r /Helvetica findfont 25.6068 sf 0 0 m (0.4) show NC gr 
 gsave  710 563 23 12 C 446.155 65.3603 t 0 r /Helvetica findfont 25.6068 sf 0 0 m (0.6) show NC gr 
 gsave  710 563 23 12 C 551.299 65.3603 t 0 r /Helvetica findfont 25.6068 sf 0 0 m (0.8) show NC gr 
 gsave  710 563 23 12 C 670.653 65.3603 t 0 r /Helvetica findfont 25.6068 sf 0 0 m (1) show NC gr 
 gsave  710 563 23 12 C 431.946 25.5758 t 0 r /Helvetica findfont 28.4519 sf 0 0 m (Trk2_eProbabilityHT) show NC gr  143 519 m 548 X s 250 506 m 13 Y s 277 512 m 7 Y s 303 512 m 7 Y s 330 512 m 7 Y s 357 506 m 13 Y s 384 512 m 7 Y s 410 512 m 7 Y s
 437 512 m 7 Y s 464 506 m 13 Y s 490 512 m 7 Y s 517 512 m 7 Y s 544 512 m 7 Y s 570 506 m 13 Y s 597 512 m 7 Y s 624 512 m 7 Y s 651 512 m 7 Y s 677 506 m 13 Y s 250 506 m 13 Y s 223 512 m 7 Y s 197 512 m 7 Y s 170 512 m 7 Y s 677 506 m 13 Y s 143
 93 m 426 Y s 160 93 m -17 X s 152 103 m -9 X s 152 114 m -9 X s 152 124 m -9 X s 152 134 m -9 X s 160 145 m -17 X s 152 155 m -9 X s 152 166 m -9 X s 152 176 m -9 X s 152 186 m -9 X s 160 197 m -17 X s 152 207 m -9 X s 152 217 m -9 X s 152 228 m -9
 X s 152 238 m -9 X s 160 249 m -17 X s 152 259 m -9 X s 152 269 m -9 X s 152 280 m -9 X s 152 290 m -9 X s 160 301 m -17 X s 152 311 m -9 X s 152 321 m -9 X s 152 332 m -9 X s 152 342 m -9 X s 160 353 m -17 X s 152 363 m -9 X s 152 373 m -9 X s 152
 384 m -9 X s 152 394 m -9 X s 160 404 m -17 X s 152 415 m -9 X s 152 425 m -9 X s 152 436 m -9 X s 152 446 m -9 X s 160 456 m -17 X s 152 467 m -9 X s 152 477 m -9 X s 152 488 m -9 X s 152 498 m -9 X s 160 508 m -17 X s 160 508 m -17 X s 152 519 m
 -9 X s
 gsave  710 563 23 12 C 119.354 82.4108 t 0 r /Helvetica findfont 25.6068 sf 0 0 m (0) show NC gr 
 gsave  710 563 23 12 C 122.195 133.562 t 0 r /Helvetica findfont 25.6068 sf 0 0 m (1) show NC gr 
 gsave  710 563 23 12 C 119.354 187.555 t 0 r /Helvetica findfont 25.6068 sf 0 0 m (2) show NC gr 
 gsave  710 563 23 12 C 119.354 238.707 t 0 r /Helvetica findfont 25.6068 sf 0 0 m (3) show NC gr 
 gsave  710 563 23 12 C 119.354 289.858 t 0 r /Helvetica findfont 25.6068 sf 0 0 m (4) show NC gr 
 gsave  710 563 23 12 C 119.354 343.852 t 0 r /Helvetica findfont 25.6068 sf 0 0 m (5) show NC gr 
 gsave  710 563 23 12 C 119.354 395.003 t 0 r /Helvetica findfont 25.6068 sf 0 0 m (6) show NC gr 
 gsave  710 563 23 12 C 119.354 446.155 t 0 r /Helvetica findfont 25.6068 sf 0 0 m (7) show NC gr 
 gsave  710 563 23 12 C 119.354 497.306 t 0 r /Helvetica findfont 25.6068 sf 0 0 m (8) show NC gr 
 gsave  710 563 23 12 C 45.468 429.104 t 90 r /Helvetica findfont 28.4519 sf 0 0 m (0.0256 ) show NC gr 
 gsave  710 563 23 12 C 31.2593 426.262 t 90 r /Helvetica findfont 19.9164 sf 0 0 m ( ) show NC gr 
 gsave  710 563 23 12 C 45.468 414.895 t 90 r /Helvetica findfont 28.4519 sf 0 0 m (/) show NC gr 
 gsave  710 563 23 12 C 53.9933 412.054 t 90 r /Helvetica findfont 19.9164 sf 0 0 m ( ) show NC gr 
 gsave  710 563 23 12 C 45.468 306.909 t 90 r /Helvetica findfont 28.4519 sf 0 0 m (\(1/N\) dN) show NC gr  691 93 m 426 Y s 674 93 m 17 X s 683 103 m 8 X s 683 114 m 8 X s 683 124 m 8 X s 683 134 m 8 X s 674 145 m 17 X s 683 155 m 8 X s 683 166 m 8
 X s 683 176 m 8 X s 683 186 m 8 X s 674 197 m 17 X s 683 207 m 8 X s 683 217 m 8 X s 683 228 m 8 X s 683 238 m 8 X s 674 249 m 17 X s 683 259 m 8 X s 683 269 m 8 X s 683 280 m 8 X s 683 290 m 8 X s 674 301 m 17 X s 683 311 m 8 X s 683 321 m 8 X s
 683 332 m 8 X s 683 342 m 8 X s 674 353 m 17 X s 683 363 m 8 X s 683 373 m 8 X s 683 384 m 8 X s 683 394 m 8 X s 674 404 m 17 X s 683 415 m 8 X s 683 425 m 8 X s 683 436 m 8 X s 683 446 m 8 X s 674 456 m 17 X s 683 467 m 8 X s 683 477 m 8 X s 683
 488 m 8 X s 683 498 m 8 X s 674 508 m 17 X s 674 508 m 17 X s 683 519 m 8 X s 0.490196 0.545098 0.615686 c 0.364706 0.419608 0.490196 c 497 37 30 535 bf 0.490196 0.545098 0.615686 c 30 535 m 497 X s 527 535 m 37 Y s 527 572 m -497 X s 30 572 m -37 Y
 s 1 1 1 c black 1 1 1 c
 gsave  710 563 23 12 C 34.101 545.616 t 0 r /Helvetica-Bold findfont 28.4519 sf 0 0 m (Input variable: Trk2_eProbabilityHT) show NC gr  1 0 0 c 6 lw black 3 lw 1 0 0 c 691 107 m -15 -14 d s 691 123 m -30 -30 d s 691 138 m -45 -45 d s 691 153 m -60
 -60 d s 691 168 m -75 -75 d s 677 169 m -76 -76 d s 677 185 m -91 -92 d s 677 200 m -14 -14 d s 659 182 m -9 -10 d s 644 166 m -8 -8 d s 631 153 m -60 -60 d s 677 215 m -14 -14 d s 612 149 m -56 -56 d s 677 230 m -14 -14 d s 585 138 m -44 -45 d s
 677 245 m -14 -14 d s 571 139 m -4 -4 d s 564 132 m -10 -11 d s 545 112 m -20 -19 d s 677 260 m -14 -13 d s 540 123 m -30 -30 d s 677 275 m -14 -13 d s 531 129 m -36 -36 d s 677 291 m -14 -14 d s 516 129 m -36 -36 d s 677 306 m -14 -14 d s 499 127 m
 -34 -34 d s 677 321 m -14 -14 d s 491 134 m -6 -6 d s 484 127 m -34 -34 d s 668 327 m -5 -5 d s 472 130 m -37 -37 d s 449 123 m -29 -30 d s 433 121 m -28 -28 d s 421 125 m -31 -32 d s 417 135 m -42 -42 d s 417 151 m -14 -14 d s 395 129 m -35 -36 d s
 417 166 m -14 -14 d s 378 127 m -33 -34 d s 417 181 m -14 -14 d s 364 128 m -35 -35 d s 417 196 m -14 -14 d s 360 139 m -11 -12 d s 343 121 m -29 -28 d s 406 200 m -3 -3 d s 323 116 m -24 -23 d s 321 130 m -37 -37 d s 310 134 m -41 -41 d s 298 137 m
 -4 -4 d s 286 125 m -32 -32 d s 275 129 m -36 -36 d s 267 136 m -43 -43 d s 255 139 m -46 -46 d s 239 138 m -45 -45 d s 239 154 m -60 -61 d s 218 147 m -54 -54 d s 202 146 m -4 -3 d s 196 141 m -47 -48 d s 182 142 m -39 -39 d s 171 145 m -28 -27 d s
 159 149 m -2 -2 d s 155 145 m -12 -12 d s 6 lw 143 145 m 14 X 4 Y 14 X -7 Y 14 X -1 Y 13 X 5 Y 14 X 1 Y 14 X 7 Y 13 X -16 Y 14 X 1 Y 14 X -10 Y 13 X -4 Y 14 X 12 Y 14 X -3 Y 13 X -18 Y 14 X 5 Y 14 X 18 Y 13 X -11 Y 14 X -1 Y 14 X 2 Y 13 X 71 Y 14 X
 -75 Y 14 X -4 Y 13 X 2 Y 14 X 8 Y 14 X -4 Y 13 X 7 Y 14 X -7 Y 14 X 2 Y 27 X -17 Y 14 X 20 Y 13 X 7 Y 14 X -1 Y 14 X 9 Y 14 X 2 Y 13 X 4 Y 14 X 13 Y 14 X 16 Y 13 X 145 Y 14 X -158 Y 14 X s black 3 lw 143 93 m 548 X s 250 106 m -13 Y s 277 99 m -6 Y
 s 303 99 m -6 Y s 330 99 m -6 Y s 357 106 m -13 Y s 384 99 m -6 Y s 410 99 m -6 Y s 437 99 m -6 Y s 464 106 m -13 Y s 490 99 m -6 Y s 517 99 m -6 Y s 544 99 m -6 Y s 570 106 m -13 Y s 597 99 m -6 Y s 624 99 m -6 Y s 651 99 m -6 Y s 677 106 m -13 Y s
 250 106 m -13 Y s 223 99 m -6 Y s 197 99 m -6 Y s 170 99 m -6 Y s 677 106 m -13 Y s 143 519 m 548 X s 250 506 m 13 Y s 277 512 m 7 Y s 303 512 m 7 Y s 330 512 m 7 Y s 357 506 m 13 Y s 384 512 m 7 Y s 410 512 m 7 Y s 437 512 m 7 Y s 464 506 m 13 Y s
 490 512 m 7 Y s 517 512 m 7 Y s 544 512 m 7 Y s 570 506 m 13 Y s 597 512 m 7 Y s 624 512 m 7 Y s 651 512 m 7 Y s 677 506 m 13 Y s 250 506 m 13 Y s 223 512 m 7 Y s 197 512 m 7 Y s 170 512 m 7 Y s 677 506 m 13 Y s 143 93 m 426 Y s 160 93 m -17 X s 152
 103 m -9 X s 152 114 m -9 X s 152 124 m -9 X s 152 134 m -9 X s 160 145 m -17 X s 152 155 m -9 X s 152 166 m -9 X s 152 176 m -9 X s 152 186 m -9 X s 160 197 m -17 X s 152 207 m -9 X s 152 217 m -9 X s 152 228 m -9 X s 152 238 m -9 X s 160 249 m -17
 X s 152 259 m -9 X s 152 269 m -9 X s 152 280 m -9 X s 152 290 m -9 X s 160 301 m -17 X s 152 311 m -9 X s 152 321 m -9 X s 152 332 m -9 X s 152 342 m -9 X s 160 353 m -17 X s 152 363 m -9 X s 152 373 m -9 X s 152 384 m -9 X s 152 394 m -9 X s 160
 404 m -17 X s 152 415 m -9 X s 152 425 m -9 X s 152 436 m -9 X s 152 446 m -9 X s 160 456 m -17 X s 152 467 m -9 X s 152 477 m -9 X s 152 488 m -9 X s 152 498 m -9 X s 160 508 m -17 X s 160 508 m -17 X s 152 519 m -9 X s 691 93 m 426 Y s 674 93 m 17
 X s 683 103 m 8 X s 683 114 m 8 X s 683 124 m 8 X s 683 134 m 8 X s 674 145 m 17 X s 683 155 m 8 X s 683 166 m 8 X s 683 176 m 8 X s 683 186 m 8 X s 674 197 m 17 X s 683 207 m 8 X s 683 217 m 8 X s 683 228 m 8 X s 683 238 m 8 X s 674 249 m 17 X s
 683 259 m 8 X s 683 269 m 8 X s 683 280 m 8 X s 683 290 m 8 X s 674 301 m 17 X s 683 311 m 8 X s 683 321 m 8 X s 683 332 m 8 X s 683 342 m 8 X s 674 353 m 17 X s 683 363 m 8 X s 683 373 m 8 X s 683 384 m 8 X s 683 394 m 8 X s 674 404 m 17 X s 683
 415 m 8 X s 683 425 m 8 X s 683 436 m 8 X s 683 446 m 8 X s 674 456 m 17 X s 683 467 m 8 X s 683 477 m 8 X s 683 488 m 8 X s 683 498 m 8 X s 674 508 m 17 X s 674 508 m 17 X s 683 519 m 8 X s
 gsave  710 563 23 12 C 719.017 90.6052 t 90 r /Helvetica-Bold findfont 19.9164 sf 0 0 m (U/O\255flow \(S,B\): \(0.0, 0.0\)% / \(0.0, 0.0\)%) show NC gr  0.490196 0.545098 0.615686 c 0.364706 0.419608 0.490196 c 497 37 30 535 bf 0.490196 0.545098
 0.615686 c 30 535 m 497 X s 527 535 m 37 Y s 527 572 m -497 X s 30 572 m -37 Y s 1 1 1 c black 1 1 1 c
 gsave  710 563 23 12 C 34.101 545.616 t 0 r /Helvetica-Bold findfont 28.4519 sf 0 0 m (Input variable: Trk2_eProbabilityHT) show NC gr  0.490196 0.545098 0.615686 c 0.941176 0.941176 0.941176 c 710 563 779 12 bf black 1 1 0.992157 c 548 426 899 93
 bf black 548 426 899 93 bl 0 0 0.933333 c 6 lw 0.49 0.6 0.82 c black 3 lw 0.49 0.6 0.82 c 899 93 m 21 Y 14 X -21 Y 123 X 1 Y 14 X 6 Y 14 X 14 Y 13 X 13 Y 14 X 16 Y 14 X 25 Y 13 X 32 Y 14 X 35 Y 14 X 31 Y 13 X 66 Y 14 X 25 Y 14 X 65 Y 13 X 22 Y 14 X
 -12 Y 14 X -321 Y 13 X -15 Y 14 X -2 Y 27 X -1 Y 165 X f 6 lw 0 0 0.933333 c 0.49 0.6 0.82 c 0 0 0.933333 c 899 114 m 14 X -21 Y 123 X 1 Y 14 X 6 Y 14 X 14 Y 13 X 13 Y 14 X 16 Y 14 X 25 Y 13 X 32 Y 14 X 35 Y 14 X 31 Y 13 X 66 Y 14 X 25 Y 14 X 65 Y
 13 X 22 Y 14 X -12 Y 14 X -321 Y 13 X -15 Y 14 X -2 Y 27 X -1 Y 165 X s black 3 lw 899 93 m 548 X s 981 106 m -13 Y s 998 99 m -6 Y s 1014 99 m -6 Y s 1031 99 m -6 Y s 1047 99 m -6 Y s 1063 106 m -13 Y s 1080 99 m -6 Y s 1096 99 m -6 Y s 1113 99 m
 -6 Y s 1129 99 m -6 Y s 1146 106 m -13 Y s 1162 99 m -6 Y s 1178 99 m -6 Y s 1195 99 m -6 Y s 1211 99 m -6 Y s 1228 106 m -13 Y s 1244 99 m -6 Y s 1261 99 m -6 Y s 1277 99 m -6 Y s 1293 99 m -6 Y s 1310 106 m -13 Y s 1326 99 m -6 Y s 1343 99 m -6 Y
 s 1359 99 m -6 Y s 1376 99 m -6 Y s 1392 106 m -13 Y s 981 106 m -13 Y s 965 99 m -6 Y s 949 99 m -6 Y s 932 99 m -6 Y s 916 99 m -6 Y s 1392 106 m -13 Y s 1408 99 m -6 Y s 1425 99 m -6 Y s 1441 99 m -6 Y s
 gsave  710 563 779 12 C 963.353 65.3603 t 0 r /Helvetica findfont 25.6068 sf 0 0 m (0.1) show NC gr 
 gsave  710 563 779 12 C 1045.76 65.3603 t 0 r /Helvetica findfont 25.6068 sf 0 0 m (0.2) show NC gr 
 gsave  710 563 779 12 C 1128.17 65.3603 t 0 r /Helvetica findfont 25.6068 sf 0 0 m (0.3) show NC gr 
 gsave  710 563 779 12 C 1210.59 65.3603 t 0 r /Helvetica findfont 25.6068 sf 0 0 m (0.4) show NC gr 
 gsave  710 563 779 12 C 1290.15 65.3603 t 0 r /Helvetica findfont 25.6068 sf 0 0 m (0.5) show NC gr 
 gsave  710 563 779 12 C 1372.57 65.3603 t 0 r /Helvetica findfont 25.6068 sf 0 0 m (0.6) show NC gr 
 gsave  710 563 779 12 C 1378.25 22.734 t 0 r /Helvetica findfont 28.4519 sf 0 0 m (dR_tt) show NC gr  899 519 m 548 X s 981 506 m 13 Y s 998 512 m 7 Y s 1014 512 m 7 Y s 1031 512 m 7 Y s 1047 512 m 7 Y s 1063 506 m 13 Y s 1080 512 m 7 Y s 1096 512 m
 7 Y s 1113 512 m 7 Y s 1129 512 m 7 Y s 1146 506 m 13 Y s 1162 512 m 7 Y s 1178 512 m 7 Y s 1195 512 m 7 Y s 1211 512 m 7 Y s 1228 506 m 13 Y s 1244 512 m 7 Y s 1261 512 m 7 Y s 1277 512 m 7 Y s 1293 512 m 7 Y s 1310 506 m 13 Y s 1326 512 m 7 Y s
 1343 512 m 7 Y s 1359 512 m 7 Y s 1376 512 m 7 Y s 1392 506 m 13 Y s 981 506 m 13 Y s 965 512 m 7 Y s 949 512 m 7 Y s 932 512 m 7 Y s 916 512 m 7 Y s 1392 506 m 13 Y s 1408 512 m 7 Y s 1425 512 m 7 Y s 1441 512 m 7 Y s 899 93 m 426 Y s 915 93 m -16
 X s 907 111 m -8 X s 907 129 m -8 X s 907 147 m -8 X s 915 166 m -16 X s 907 184 m -8 X s 907 202 m -8 X s 907 220 m -8 X s 915 238 m -16 X s 907 256 m -8 X s 907 275 m -8 X s 907 293 m -8 X s 915 311 m -16 X s 907 329 m -8 X s 907 347 m -8 X s 907
 365 m -8 X s 915 384 m -16 X s 907 402 m -8 X s 907 420 m -8 X s 907 438 m -8 X s 915 456 m -16 X s 915 456 m -16 X s 907 474 m -8 X s 907 493 m -8 X s 907 511 m -8 X s
 gsave  710 563 779 12 C 875.259 82.4108 t 0 r /Helvetica findfont 25.6068 sf 0 0 m (0) show NC gr 
 gsave  710 563 779 12 C 875.259 156.296 t 0 r /Helvetica findfont 25.6068 sf 0 0 m (2) show NC gr 
 gsave  710 563 779 12 C 875.259 227.34 t 0 r /Helvetica findfont 25.6068 sf 0 0 m (4) show NC gr 
 gsave  710 563 779 12 C 875.259 301.225 t 0 r /Helvetica findfont 25.6068 sf 0 0 m (6) show NC gr 
 gsave  710 563 779 12 C 875.259 372.269 t 0 r /Helvetica findfont 25.6068 sf 0 0 m (8) show NC gr 
 gsave  710 563 779 12 C 861.05 446.155 t 0 r /Helvetica findfont 25.6068 sf 0 0 m (10) show NC gr 
 gsave  710 563 779 12 C 801.374 429.104 t 90 r /Helvetica findfont 28.4519 sf 0 0 m (0.0167 ) show NC gr 
 gsave  710 563 779 12 C 787.165 426.262 t 90 r /Helvetica findfont 19.9164 sf 0 0 m ( ) show NC gr 
 gsave  710 563 779 12 C 801.374 414.895 t 90 r /Helvetica findfont 28.4519 sf 0 0 m (/) show NC gr 
 gsave  710 563 779 12 C 809.899 412.054 t 90 r /Helvetica findfont 19.9164 sf 0 0 m ( ) show NC gr 
 gsave  710 563 779 12 C 801.374 306.909 t 90 r /Helvetica findfont 28.4519 sf 0 0 m (\(1/N\) dN) show NC gr  1447 93 m 426 Y s 1430 93 m 17 X s 1438 111 m 9 X s 1438 129 m 9 X s 1438 147 m 9 X s 1430 166 m 17 X s 1438 184 m 9 X s 1438 202 m 9 X s
 1438 220 m 9 X s 1430 238 m 17 X s 1438 256 m 9 X s 1438 275 m 9 X s 1438 293 m 9 X s 1430 311 m 17 X s 1438 329 m 9 X s 1438 347 m 9 X s 1438 365 m 9 X s 1430 384 m 17 X s 1438 402 m 9 X s 1438 420 m 9 X s 1438 438 m 9 X s 1430 456 m 17 X s 1430
 456 m 17 X s 1438 474 m 9 X s 1438 493 m 9 X s 1438 511 m 9 X s 0.490196 0.545098 0.615686 c 0.364706 0.419608 0.490196 c 290 37 786 535 bf 0.490196 0.545098 0.615686 c 786 535 m 290 X s 1076 535 m 37 Y s 1076 572 m -290 X s 786 572 m -37 Y s 1 1 1
 c black 1 1 1 c
 gsave  710 563 779 12 C 790.007 545.616 t 0 r /Helvetica-Bold findfont 28.4519 sf 0 0 m (Input variable: dR_tt) show NC gr  1 0 0 c 6 lw black 3 lw 1 0 0 c 1433 94 m s 1432 93 m s 1418 94 m -1 -1 d s 1403 94 m -1 -1 d s 1387 93 m s 1375 96 m -3 -3 d
 s 1358 94 m -1 -1 d s 1344 95 m -2 -2 d s 1333 99 m -6 -6 d s 1316 97 m -5 -4 d s 1310 106 m -14 -13 d s 1296 108 m -15 -15 d s 1282 109 m -16 -16 d s 1281 123 m -30 -30 d s 1269 126 m -33 -33 d s 1260 132 m -39 -39 d s 1255 142 m -49 -49 d s 1241
 144 m -50 -51 d s 1241 159 m -65 -66 d s 1234 167 m -73 -74 d s 1228 175 m -82 -82 d s 1228 190 m -97 -97 d s 1228 206 m -28 -28 d s 1199 176 m -83 -83 d s 1221 214 m -7 -7 d s 1212 205 m -12 -12 d s 1187 179 m -87 -86 d s 1187 195 m -102 -102 d s
 1174 197 m -15 -15 d s 1149 172 m -17 -17 d s 1128 151 m -58 -58 d s 1162 201 m -3 -4 d s 1138 176 m -6 -6 d s 1118 156 m -63 -63 d s 1107 160 m -2 -2 d s 1097 150 m -57 -57 d s 1078 146 m -1 -1 d s 1077 145 m -13 -14 d s 1057 125 m -32 -32 d s 1050
 133 m -14 -14 d s 1035 118 m -25 -25 d s 1044 142 m -8 -8 d s 1019 117 m -24 -24 d s 1009 122 m -29 -29 d s 993 121 m -28 -28 d s 978 121 m -28 -28 d s 968 126 m -33 -33 d s 958 131 m -38 -38 d s 954 143 m -49 -50 d s 949 152 m -50 -49 d s 940 159 m
 -41 -41 d s 940 174 m -41 -41 d s 940 190 m -41 -42 d s 931 195 m -32 -32 d s 927 206 m -28 -27 d s 927 221 m -28 -27 d s 927 236 m -28 -27 d s 922 247 m -23 -23 d s 913 253 m -14 -14 d s 913 268 m -14 -14 d s 913 283 m -14 -14 d s 913 298 m -14 -13
 d s 913 314 m -14 -14 d s 913 329 m -14 -14 d s 913 344 m -14 -14 d s 913 359 m -14 -14 d s 913 374 m -14 -14 d s 913 389 m -14 -13 d s 913 404 m -14 -13 d s 913 420 m -14 -14 d s 913 435 m -14 -14 d s 913 450 m -14 -14 d s 913 465 m -14 -14 d s 913
 480 m -14 -14 d s 6 lw 899 480 m 14 X -233 Y 14 X -52 Y 13 X -43 Y 14 X -21 Y 14 X -10 Y 27 X 2 Y 14 X -6 Y 13 X 1 Y 14 X 24 Y 14 X -17 Y 14 X 20 Y 13 X 1 Y 14 X 4 Y 14 X 10 Y 13 X -9 Y 14 X 25 Y 14 X -4 Y 13 X 29 Y 14 X -4 Y 14 X -21 Y 13 X 29 Y 14
 X 9 Y 14 X -47 Y 13 X -24 Y 14 X -11 Y 14 X -9 Y 13 X -15 Y 14 X -2 Y 14 X -9 Y 13 X 2 Y 14 X -4 Y 14 X -1 Y 13 X 2 Y 14 X -3 Y 14 X 1 Y 27 X -1 Y 14 X 1 Y 14 X s black 3 lw 899 93 m 548 X s 981 106 m -13 Y s 998 99 m -6 Y s 1014 99 m -6 Y s 1031 99
 m -6 Y s 1047 99 m -6 Y s 1063 106 m -13 Y s 1080 99 m -6 Y s 1096 99 m -6 Y s 1113 99 m -6 Y s 1129 99 m -6 Y s 1146 106 m -13 Y s 1162 99 m -6 Y s 1178 99 m -6 Y s 1195 99 m -6 Y s 1211 99 m -6 Y s 1228 106 m -13 Y s 1244 99 m -6 Y s 1261 99 m -6
 Y s 1277 99 m -6 Y s 1293 99 m -6 Y s 1310 106 m -13 Y s 1326 99 m -6 Y s 1343 99 m -6 Y s 1359 99 m -6 Y s 1376 99 m -6 Y s 1392 106 m -13 Y s 981 106 m -13 Y s 965 99 m -6 Y s 949 99 m -6 Y s 932 99 m -6 Y s 916 99 m -6 Y s 1392 106 m -13 Y s 1408
 99 m -6 Y s 1425 99 m -6 Y s 1441 99 m -6 Y s 899 519 m 548 X s 981 506 m 13 Y s 998 512 m 7 Y s 1014 512 m 7 Y s 1031 512 m 7 Y s 1047 512 m 7 Y s 1063 506 m 13 Y s 1080 512 m 7 Y s 1096 512 m 7 Y s 1113 512 m 7 Y s 1129 512 m 7 Y s 1146 506 m 13 Y
 s 1162 512 m 7 Y s 1178 512 m 7 Y s 1195 512 m 7 Y s 1211 512 m 7 Y s 1228 506 m 13 Y s 1244 512 m 7 Y s 1261 512 m 7 Y s 1277 512 m 7 Y s 1293 512 m 7 Y s 1310 506 m 13 Y s 1326 512 m 7 Y s 1343 512 m 7 Y s 1359 512 m 7 Y s 1376 512 m 7 Y s 1392
 506 m 13 Y s 981 506 m 13 Y s 965 512 m 7 Y s 949 512 m 7 Y s 932 512 m 7 Y s 916 512 m 7 Y s 1392 506 m 13 Y s 1408 512 m 7 Y s 1425 512 m 7 Y s 1441 512 m 7 Y s 899 93 m 426 Y s 915 93 m -16 X s 907 111 m -8 X s 907 129 m -8 X s 907 147 m -8 X s
 915 166 m -16 X s 907 184 m -8 X s 907 202 m -8 X s 907 220 m -8 X s 915 238 m -16 X s 907 256 m -8 X s 907 275 m -8 X s 907 293 m -8 X s 915 311 m -16 X s 907 329 m -8 X s 907 347 m -8 X s 907 365 m -8 X s 915 384 m -16 X s 907 402 m -8 X s 907 420
 m -8 X s 907 438 m -8 X s 915 456 m -16 X s 915 456 m -16 X s 907 474 m -8 X s 907 493 m -8 X s 907 511 m -8 X s 1447 93 m 426 Y s 1430 93 m 17 X s 1438 111 m 9 X s 1438 129 m 9 X s 1438 147 m 9 X s 1430 166 m 17 X s 1438 184 m 9 X s 1438 202 m 9 X
 s 1438 220 m 9 X s 1430 238 m 17 X s 1438 256 m 9 X s 1438 275 m 9 X s 1438 293 m 9 X s 1430 311 m 17 X s 1438 329 m 9 X s 1438 347 m 9 X s 1438 365 m 9 X s 1430 384 m 17 X s 1438 402 m 9 X s 1438 420 m 9 X s 1438 438 m 9 X s 1430 456 m 17 X s 1430
 456 m 17 X s 1438 474 m 9 X s 1438 493 m 9 X s 1438 511 m 9 X s
 gsave  710 563 779 12 C 1474.92 90.6052 t 90 r /Helvetica-Bold findfont 19.9164 sf 0 0 m (U/O\255flow \(S,B\): \(0.0, 0.0\)% / \(0.0, 0.0\)%) show NC gr  0.490196 0.545098 0.615686 c 0.364706 0.419608 0.490196 c 290 37 786 535 bf 0.490196 0.545098
 0.615686 c 786 535 m 290 X s 1076 535 m 37 Y s 1076 572 m -290 X s 786 572 m -37 Y s 1 1 1 c black 1 1 1 c
 gsave  710 563 779 12 C 790.007 545.616 t 0 r /Helvetica-Bold findfont 28.4519 sf 0 0 m (Input variable: dR_tt) show NC gr  0.490196 0.545098 0.615686 c 0.941176 0.941176 0.941176 c 711 563 1534 12 bf
 gr  gr showpage
end
%%EOF
