%!PS-Adobe-2.0 EPSF-2.0
%%BoundingBox:  0 0 567 293
%%Title: dataset/plots/variables_id_c3.eps: Input variables (training sample)
%%Creator: ROOT Version 6.18/00
%%CreationDate: Sun Sep 29 15:47:01 2019
%%DocumentNeededResources: ProcSet (FontSetInit)
%%EndComments
%%BeginProlog
80 dict begin
/s {stroke} def /l {lineto} def /m {moveto} def /t {translate} def
/r {rotate} def /rl {roll}  def /R {repeat} def
/d {rlineto} def /rm {rmoveto} def /gr {grestore} def /f {eofill} def
/c {setrgbcolor} def /black {0 setgray} def /sd {setdash} def
/cl {closepath} def /sf {scalefont setfont} def /lw {setlinewidth} def
/box {m dup 0 exch d exch 0 d 0 exch neg d cl} def
/NC{systemdict begin initclip end}def/C{NC box clip newpath}def
/bl {box s} def /bf {gsave box gsave f grestore 1 lw [] 0 sd s grestore} def /Y { 0 exch d} def /X { 0 d} def 
/K {{pop pop 0 moveto} exch kshow} bind def
/ita {/ang 15 def gsave [1 0 ang dup sin exch cos div 1 0 0] concat} def 
/mp {newpath /y exch def /x exch def} def
/side {[w .77 mul w .23 mul] .385 w mul sd w 0 l currentpoint t -144 r} def
/mr {mp x y w2 0 360 arc} def /m24 {mr s} def /m20 {mr f} def
/mb {mp x y w2 add m w2 neg 0 d 0 w neg d w 0 d 0 w d cl} def
/mt {mp x y w2 add m w2 neg w neg d w 0 d cl} def
/w4 {w 4 div} def
/w6 {w 6 div} def
/w8 {w 8 div} def
/m21 {mb f} def /m25 {mb s} def /m22 {mt f} def /m26{mt s} def
/m23 {mp x y w2 sub m w2 w d w neg 0 d cl f} def
/m27 {mp x y w2 add m w3 neg w2 neg d w3 w2 neg d w3 w2 d cl s} def
/m28 {mp x w2 sub y w2 sub w3 add m w3 0 d  0 w3 neg d w3 0 d 0 w3 d w3 0 d  0 w3 d w3 neg 0 d 0 w3 d w3 neg 0 d 0 w3 neg d w3 neg 0 d cl s } def
/m29 {mp gsave x w2 sub y w2 add w3 sub m currentpoint t 4 {side} repeat cl fill gr} def
/m30 {mp gsave x w2 sub y w2 add w3 sub m currentpoint t 4 {side} repeat cl s gr} def
/m31 {mp x y w2 sub m 0 w d x w2 sub y m w 0 d x w2 sub y w2 add m w w neg d x w2 sub y w2 sub m w w d s} def
/m32 {mp x y w2 sub m w2 w d w neg 0 d cl s} def
/m33 {mp x y w2 add m w3 neg w2 neg d w3 w2 neg d w3 w2 d cl f} def
/m34 {mp x w2 sub y w2 sub w3 add m w3 0 d  0 w3 neg d w3 0 d 0 w3 d w3 0 d  0 w3 d w3 neg 0 d 0 w3 d w3 neg 0 d 0 w3 neg d w3 neg 0 d cl f } def
/m35 {mp x y w2 add m w2 neg w2 neg d w2 w2 neg d w2 w2 d w2 neg w2 d x y w2 sub m 0 w d x w2 sub y m w 0 d s} def
/m36 {mb x w2 sub y w2 add m w w neg d x w2 sub y w2 sub m w w d s} def
/m37 {mp x y m w4 neg w2 d w4 neg w2 neg d w2 0 d  w4 neg w2 neg d w2 0 d w4 neg w2 d w2 0 d w4 neg w2 d w4 neg w2 neg d cl s} def
/m38 {mp x w4 sub y w2 add m w4 neg w4 neg d 0 w2 neg d w4 w4 neg d w2 0 d w4 w4 d 0 w2 d w4 neg w4 d w2 neg 0 d x y w2 sub m 0 w d x w2 sub y m w 0 d cl s} def
/m39 {mp x y m w4 neg w2 d w4 neg w2 neg d w2 0 d  w4 neg w2 neg d w2 0 d w4 neg w2 d w2 0 d w4 neg w2 d w4 neg w2 neg d cl f} def
/m40 {mp x y m w4 w2 d w4 w4 neg d w2 neg w4 neg d w2 w4 neg d w4 neg w4 neg d w4 neg w2 d w4 neg w2 neg d w4 neg w4 d w2 w4 d w2 neg w4 d w4 w4 d w4 w2 neg d cl s} def
/m41 {mp x y m w4 w2 d w4 w4 neg d w2 neg w4 neg d w2 w4 neg d w4 neg w4 neg d w4 neg w2 d w4 neg w2 neg d w4 neg w4 d w2 w4 d w2 neg w4 d w4 w4 d w4 w2 neg d cl f} def
/m42 {mp x y w2 add m w8 neg w2 -3 4 div mul d w2 -3 4 div mul w8 neg d w2 3 4 div mul w8 neg d w8 w2 -3 4 div mul d w8 w2 3 4 div mul d w2 3 4 div mul w8 d w2 -3 4 div mul w8 d w8 neg w2 3 4 div mul d cl s} def
/m43 {mp x y w2 add m w8 neg w2 -3 4 div mul d w2 -3 4 div mul w8 neg d w2 3 4 div mul w8 neg d w8 w2 -3 4 div mul d w8 w2 3 4 div mul d w2 3 4 div mul w8 d w2 -3 4 div mul w8 d w8 neg w2 3 4 div mul d cl f} def
/m44 {mp x y m w6 neg w2 d w2 2 3 div mul 0 d w6 neg w2 neg d w2 w6 d 0 w2 -2 3 div mul d w2 neg w6 d w6 w2 neg d w2 -2 3 div mul 0 d w6 w2 d w2 neg w6 neg d 0 w2 2 3 div mul d w2 w6 neg d cl s} def
/m45 {mp x y m w6 neg w2 d w2 2 3 div mul 0 d w6 neg w2 neg d w2 w6 d 0 w2 -2 3 div mul d w2 neg w6 d w6 w2 neg d w2 -2 3 div mul 0 d w6 w2 d w2 neg w6 neg d 0 w2 2 3 div mul d w2 w6 neg d cl f} def
/m46 {mp x y w4 add m w4 neg w4 d w4 neg w4 neg d  w4 w4 neg d w4 neg w4 neg d w4 w4 neg d w4 w4 d w4 w4 neg d w4 w4 d w4 neg w4 d w4 w4 d w4 neg w4 d w4 neg w4 neg d cl s} def
/m47 {mp x y w4 add m w4 neg w4 d w4 neg w4 neg d w4 w4 neg d w4 neg w4 neg d  w4 w4 neg d w4 w4 d w4 w4 neg d w4 w4 d w4 neg w4 d w4 w4 d w4 neg w4 d w4 neg w4 neg d cl f} def
/m48 {mp x y w4 add m w4 neg w4 d w4 neg w4 neg d w4 w4 neg d  w4 neg w4 neg d w4 w4 neg d w4 w4 d w4 w4 neg d w4 w4 d w4 neg w4 d w4 w4 d w4 neg w4 d w4 neg w4 neg d  w4 w4 neg d w4 neg w4 neg d w4 neg w4 d w4 w4 d cl f} def
/m49 {mp x w2 sub w3 add y w2 sub w3 add m  0 w3 neg d w3 0 d 0 w3 d w3 0 d 0 w3 d w3 neg 0 d 0 w3 d w3 neg 0 d 0 w3 neg d w3 neg 0 d 0 w3 neg d w3 0 d 0 w3 d w3 0 d 0 w3 neg d w3 neg 0 d cl f } def
/m2 {mp x y w2 sub m 0 w d x w2 sub y m w 0 d s} def
/m5 {mp x w2 sub y w2 sub m w w d x w2 sub y w2 add m w w neg d s} def
%%IncludeResource: ProcSet (FontSetInit)
%%IncludeResource: font Times-Roman
%%IncludeResource: font Times-Italic
%%IncludeResource: font Times-Bold
%%IncludeResource: font Times-BoldItalic
%%IncludeResource: font Helvetica
%%IncludeResource: font Helvetica-Oblique
%%IncludeResource: font Helvetica-Bold
%%IncludeResource: font Helvetica-BoldOblique
%%IncludeResource: font Courier
%%IncludeResource: font Courier-Oblique
%%IncludeResource: font Courier-Bold
%%IncludeResource: font Courier-BoldOblique
%%IncludeResource: font Symbol
%%IncludeResource: font ZapfDingbats
/reEncode {exch findfont dup length dict begin {1 index /FID eq  {pop pop} {def} ifelse } forall /Encoding exch def currentdict end dup /FontName get exch definefont pop } def [/Times-Bold /Times-Italic /Times-BoldItalic /Helvetica /Helvetica-Oblique
 /Helvetica-Bold /Helvetica-BoldOblique /Courier /Courier-Oblique /Courier-Bold /Courier-BoldOblique /Times-Roman /AvantGarde-Book /AvantGarde-BookOblique /AvantGarde-Demi /AvantGarde-DemiOblique /Bookman-Demi /Bookman-DemiItalic /Bookman-Light
 /Bookman-LightItalic /Helvetica-Narrow /Helvetica-Narrow-Bold /Helvetica-Narrow-BoldOblique /Helvetica-Narrow-Oblique /NewCenturySchlbk-Roman /NewCenturySchlbk-Bold /NewCenturySchlbk-BoldItalic /NewCenturySchlbk-Italic /Palatino-Bold
 /Palatino-BoldItalic /Palatino-Italic /Palatino-Roman ] {ISOLatin1Encoding reEncode } forall
%%EndProlog
%%BeginSetup
%%EndSetup
newpath  gsave  .25 .25 scale  gsave  0 0 t 0.490196 0.545098 0.615686 c[  ] 0 sd 3 lw 0.941176 0.941176 0.941176 c 2268 1174 0 0 bf 0.490196 0.545098 0.615686 c 0.941176 0.941176 0.941176 c 710 563 23 599 bf black 1 1 0.992157 c 548 426 143 680 bf
 black 548 426 143 680 bl 0 0 0.933333 c 6 lw 0.49 0.6 0.82 c black 3 lw 0.49 0.6 0.82 c 143 680 m 387 Y 14 X -53 Y 14 X -67 Y 14 X -78 Y 13 X -45 Y 14 X -38 Y 14 X -28 Y 13 X -22 Y 14 X -15 Y 14 X -7 Y 13 X -14 Y 14 X -2 Y 14 X -9 Y 13 X -3 Y 28 X
 -4 Y 13 X 1 Y 14 X -2 Y 27 X 1 Y 14 X -1 Y 14 X -1 Y 260 X f 6 lw 0 0 0.933333 c 0.49 0.6 0.82 c 0 0 0.933333 c 143 1067 m 14 X -53 Y 14 X -67 Y 14 X -78 Y 13 X -45 Y 14 X -38 Y 14 X -28 Y 13 X -22 Y 14 X -15 Y 14 X -7 Y 13 X -14 Y 14 X -2 Y 14 X -9
 Y 13 X -3 Y 28 X -4 Y 13 X 1 Y 14 X -2 Y 27 X 1 Y 14 X -1 Y 14 X -1 Y 260 X s black 3 lw 143 680 m 548 X s 143 693 m -13 Y s 162 686 m -6 Y s 180 686 m -6 Y s 198 686 m -6 Y s 216 686 m -6 Y s 234 693 m -13 Y s 253 686 m -6 Y s 271 686 m -6 Y s 289
 686 m -6 Y s 307 686 m -6 Y s 325 693 m -13 Y s 343 686 m -6 Y s 362 686 m -6 Y s 380 686 m -6 Y s 398 686 m -6 Y s 416 693 m -13 Y s 434 686 m -6 Y s 452 686 m -6 Y s 471 686 m -6 Y s 489 686 m -6 Y s 507 693 m -13 Y s 525 686 m -6 Y s 543 686 m -6
 Y s 562 686 m -6 Y s 580 686 m -6 Y s 598 693 m -13 Y s 616 686 m -6 Y s 634 686 m -6 Y s 652 686 m -6 Y s 671 686 m -6 Y s 689 693 m -13 Y s 689 693 m -13 Y s
 gsave  710 563 23 599 C 133.562 653.602 t 0 r /Helvetica findfont 25.6068 sf 0 0 m (0) show NC gr 
 gsave  710 563 23 599 C 227.34 653.602 t 0 r /Helvetica findfont 25.6068 sf 0 0 m (1) show NC gr 
 gsave  710 563 23 599 C 315.434 653.602 t 0 r /Helvetica findfont 25.6068 sf 0 0 m (2) show NC gr 
 gsave  710 563 23 599 C 406.37 653.602 t 0 r /Helvetica findfont 25.6068 sf 0 0 m (3) show NC gr 
 gsave  710 563 23 599 C 497.306 653.602 t 0 r /Helvetica findfont 25.6068 sf 0 0 m (4) show NC gr 
 gsave  710 563 23 599 C 588.242 653.602 t 0 r /Helvetica findfont 25.6068 sf 0 0 m (5) show NC gr 
 gsave  710 563 23 599 C 679.178 653.602 t 0 r /Helvetica findfont 25.6068 sf 0 0 m (6) show NC gr 
 gsave  710 563 23 599 C 545.616 610.976 t 0 r /Helvetica findfont 28.4519 sf 0 0 m (Trk1_z0Sig) show NC gr  143 1106 m 548 X s 143 1093 m 13 Y s 162 1099 m 7 Y s 180 1099 m 7 Y s 198 1099 m 7 Y s 216 1099 m 7 Y s 234 1093 m 13 Y s 253 1099 m 7 Y s
 271 1099 m 7 Y s 289 1099 m 7 Y s 307 1099 m 7 Y s 325 1093 m 13 Y s 343 1099 m 7 Y s 362 1099 m 7 Y s 380 1099 m 7 Y s 398 1099 m 7 Y s 416 1093 m 13 Y s 434 1099 m 7 Y s 452 1099 m 7 Y s 471 1099 m 7 Y s 489 1099 m 7 Y s 507 1093 m 13 Y s 525 1099
 m 7 Y s 543 1099 m 7 Y s 562 1099 m 7 Y s 580 1099 m 7 Y s 598 1093 m 13 Y s 616 1099 m 7 Y s 634 1099 m 7 Y s 652 1099 m 7 Y s 671 1099 m 7 Y s 689 1093 m 13 Y s 689 1093 m 13 Y s 143 680 m 426 Y s 160 680 m -17 X s 152 693 m -9 X s 152 706 m -9 X
 s 152 718 m -9 X s 160 731 m -17 X s 152 744 m -9 X s 152 757 m -9 X s 152 770 m -9 X s 160 783 m -17 X s 152 796 m -9 X s 152 809 m -9 X s 152 822 m -9 X s 160 835 m -17 X s 152 848 m -9 X s 152 861 m -9 X s 152 874 m -9 X s 160 887 m -17 X s 152
 900 m -9 X s 152 913 m -9 X s 152 925 m -9 X s 160 938 m -17 X s 152 951 m -9 X s 152 964 m -9 X s 152 977 m -9 X s 160 990 m -17 X s 152 1003 m -9 X s 152 1016 m -9 X s 152 1029 m -9 X s 160 1042 m -17 X s 152 1055 m -9 X s 152 1068 m -9 X s 152
 1081 m -9 X s 160 1094 m -17 X s 160 1094 m -17 X s
 gsave  710 563 23 599 C 119.354 670.653 t 0 r /Helvetica findfont 25.6068 sf 0 0 m (0) show NC gr 
 gsave  710 563 23 599 C 99.4613 721.805 t 0 r /Helvetica findfont 25.6068 sf 0 0 m (0.2) show NC gr 
 gsave  710 563 23 599 C 99.4613 772.956 t 0 r /Helvetica findfont 25.6068 sf 0 0 m (0.4) show NC gr 
 gsave  710 563 23 599 C 99.4613 824.107 t 0 r /Helvetica findfont 25.6068 sf 0 0 m (0.6) show NC gr 
 gsave  710 563 23 599 C 99.4613 878.101 t 0 r /Helvetica findfont 25.6068 sf 0 0 m (0.8) show NC gr 
 gsave  710 563 23 599 C 122.195 929.252 t 0 r /Helvetica findfont 25.6068 sf 0 0 m (1) show NC gr 
 gsave  710 563 23 599 C 99.4613 980.404 t 0 r /Helvetica findfont 25.6068 sf 0 0 m (1.2) show NC gr 
 gsave  710 563 23 599 C 99.4613 1031.56 t 0 r /Helvetica findfont 25.6068 sf 0 0 m (1.4) show NC gr 
 gsave  710 563 23 599 C 99.4613 1082.71 t 0 r /Helvetica findfont 25.6068 sf 0 0 m (1.6) show NC gr 
 gsave  710 563 23 599 C 45.468 1048.61 t 90 r /Helvetica findfont 28.4519 sf 0 0 m (0.15 ) show NC gr 
 gsave  710 563 23 599 C 31.2593 1045.76 t 90 r /Helvetica findfont 19.9164 sf 0 0 m ( ) show NC gr 
 gsave  710 563 23 599 C 45.468 1034.4 t 90 r /Helvetica findfont 28.4519 sf 0 0 m (/) show NC gr 
 gsave  710 563 23 599 C 53.9933 1031.56 t 90 r /Helvetica findfont 19.9164 sf 0 0 m ( ) show NC gr 
 gsave  710 563 23 599 C 45.468 926.41 t 90 r /Helvetica findfont 28.4519 sf 0 0 m (\(1/N\) dN) show NC gr  691 680 m 426 Y s 674 680 m 17 X s 683 693 m 8 X s 683 706 m 8 X s 683 718 m 8 X s 674 731 m 17 X s 683 744 m 8 X s 683 757 m 8 X s 683 770 m
 8 X s 674 783 m 17 X s 683 796 m 8 X s 683 809 m 8 X s 683 822 m 8 X s 674 835 m 17 X s 683 848 m 8 X s 683 861 m 8 X s 683 874 m 8 X s 674 887 m 17 X s 683 900 m 8 X s 683 913 m 8 X s 683 925 m 8 X s 674 938 m 17 X s 683 951 m 8 X s 683 964 m 8 X s
 683 977 m 8 X s 674 990 m 17 X s 683 1003 m 8 X s 683 1016 m 8 X s 683 1029 m 8 X s 674 1042 m 17 X s 683 1055 m 8 X s 683 1068 m 8 X s 683 1081 m 8 X s 674 1094 m 17 X s 674 1094 m 17 X s 0.490196 0.545098 0.615686 c 0.364706 0.419608 0.490196 c
 366 37 30 1122 bf 0.490196 0.545098 0.615686 c 30 1122 m 366 X s 396 1122 m 37 Y s 396 1159 m -366 X s 30 1159 m -37 Y s 1 1 1 c black 1 1 1 c
 gsave  710 563 23 599 C 34.101 1133.86 t 0 r /Helvetica-Bold findfont 28.4519 sf 0 0 m (Input variable: Trk1_z0Sig) show NC gr  1 0 0 c 6 lw black 3 lw 1 0 0 c 677 680 m -1 X s 664 682 m -1 X s 663 681 m -2 -1 d s 648 681 m -2 -1 d s 634 682 m -3 -2
 d s 621 685 m -5 -5 d s 603 681 m -2 -1 d s 588 682 m -2 -2 d s 573 682 m -2 -2 d s 561 685 m -5 -5 d s 546 685 m -5 -5 d s 527 681 m -2 -1 d s 516 685 m -6 -5 d s 500 684 m -5 -4 d s 486 686 m -6 -6 d s 473 688 m -8 -8 d s 457 687 m -7 -7 d s 440
 685 m -5 -5 d s 429 688 m -9 -8 d s 412 687 m -7 -7 d s 403 693 m -13 -13 d s 383 688 m -8 -8 d s 376 696 m -16 -16 d s 362 698 m -17 -18 d s 349 699 m -20 -19 d s 336 701 m -22 -21 d s 327 708 m -6 -6 d s 318 698 m -19 -18 d s 308 703 m -24 -23 d s
 297 708 m -28 -28 d s 294 720 m -40 -40 d s 282 723 m -43 -43 d s 267 723 m -43 -43 d s 267 738 m -58 -58 d s 255 742 m -61 -62 d s 253 754 m -74 -74 d s 238 755 m -74 -75 d s 226 757 m -77 -77 d s 226 772 m -83 -82 d s 223 785 m -80 -80 d s 212 789
 m -69 -69 d s 212 804 m -69 -69 d s 205 812 m -62 -62 d s 198 820 m -55 -55 d s 198 836 m -55 -55 d s 198 851 m -55 -55 d s 198 865 m -55 -54 d s 185 867 m -42 -41 d s 183 881 m -40 -40 d s 171 884 m -28 -28 d s 171 899 m -28 -28 d s 171 914 m -28
 -27 d s 171 929 m -28 -27 d s 161 934 m -18 -17 d s 157 946 m -14 -14 d s 157 961 m -14 -14 d s 154 973 m -11 -11 d s 6 lw 143 973 m 14 X -39 Y 14 X -53 Y 14 X -16 Y 13 X -53 Y 14 X -27 Y 14 X -30 Y 27 X -13 Y 14 X -19 Y 27 X -15 Y 14 X -10 Y 13 X
 10 Y 14 X -7 Y 14 X -2 Y 13 X -3 Y 14 X -8 Y 14 X 6 Y 13 X -7 Y 14 X 1 Y 14 X -3 Y 13 X 2 Y 14 X 1 Y 27 X -2 Y 14 X -2 Y 14 X 1 Y 13 X -4 Y 14 X 4 Y 27 X -3 Y 28 X -1 Y 14 X 4 Y 13 X -3 Y 14 X -1 Y 27 X 1 Y 14 X -2 Y 14 X s black 3 lw 143 680 m 548
 X s 143 693 m -13 Y s 162 686 m -6 Y s 180 686 m -6 Y s 198 686 m -6 Y s 216 686 m -6 Y s 234 693 m -13 Y s 253 686 m -6 Y s 271 686 m -6 Y s 289 686 m -6 Y s 307 686 m -6 Y s 325 693 m -13 Y s 343 686 m -6 Y s 362 686 m -6 Y s 380 686 m -6 Y s 398
 686 m -6 Y s 416 693 m -13 Y s 434 686 m -6 Y s 452 686 m -6 Y s 471 686 m -6 Y s 489 686 m -6 Y s 507 693 m -13 Y s 525 686 m -6 Y s 543 686 m -6 Y s 562 686 m -6 Y s 580 686 m -6 Y s 598 693 m -13 Y s 616 686 m -6 Y s 634 686 m -6 Y s 652 686 m -6
 Y s 671 686 m -6 Y s 689 693 m -13 Y s 689 693 m -13 Y s 143 1106 m 548 X s 143 1093 m 13 Y s 162 1099 m 7 Y s 180 1099 m 7 Y s 198 1099 m 7 Y s 216 1099 m 7 Y s 234 1093 m 13 Y s 253 1099 m 7 Y s 271 1099 m 7 Y s 289 1099 m 7 Y s 307 1099 m 7 Y s
 325 1093 m 13 Y s 343 1099 m 7 Y s 362 1099 m 7 Y s 380 1099 m 7 Y s 398 1099 m 7 Y s 416 1093 m 13 Y s 434 1099 m 7 Y s 452 1099 m 7 Y s 471 1099 m 7 Y s 489 1099 m 7 Y s 507 1093 m 13 Y s 525 1099 m 7 Y s 543 1099 m 7 Y s 562 1099 m 7 Y s 580 1099
 m 7 Y s 598 1093 m 13 Y s 616 1099 m 7 Y s 634 1099 m 7 Y s 652 1099 m 7 Y s 671 1099 m 7 Y s 689 1093 m 13 Y s 689 1093 m 13 Y s 143 680 m 426 Y s 160 680 m -17 X s 152 693 m -9 X s 152 706 m -9 X s 152 718 m -9 X s 160 731 m -17 X s 152 744 m -9 X
 s 152 757 m -9 X s 152 770 m -9 X s 160 783 m -17 X s 152 796 m -9 X s 152 809 m -9 X s 152 822 m -9 X s 160 835 m -17 X s 152 848 m -9 X s 152 861 m -9 X s 152 874 m -9 X s 160 887 m -17 X s 152 900 m -9 X s 152 913 m -9 X s 152 925 m -9 X s 160
 938 m -17 X s 152 951 m -9 X s 152 964 m -9 X s 152 977 m -9 X s 160 990 m -17 X s 152 1003 m -9 X s 152 1016 m -9 X s 152 1029 m -9 X s 160 1042 m -17 X s 152 1055 m -9 X s 152 1068 m -9 X s 152 1081 m -9 X s 160 1094 m -17 X s 160 1094 m -17 X s
 691 680 m 426 Y s 674 680 m 17 X s 683 693 m 8 X s 683 706 m 8 X s 683 718 m 8 X s 674 731 m 17 X s 683 744 m 8 X s 683 757 m 8 X s 683 770 m 8 X s 674 783 m 17 X s 683 796 m 8 X s 683 809 m 8 X s 683 822 m 8 X s 674 835 m 17 X s 683 848 m 8 X s 683
 861 m 8 X s 683 874 m 8 X s 674 887 m 17 X s 683 900 m 8 X s 683 913 m 8 X s 683 925 m 8 X s 674 938 m 17 X s 683 951 m 8 X s 683 964 m 8 X s 683 977 m 8 X s 674 990 m 17 X s 683 1003 m 8 X s 683 1016 m 8 X s 683 1029 m 8 X s 674 1042 m 17 X s 683
 1055 m 8 X s 683 1068 m 8 X s 683 1081 m 8 X s 674 1094 m 17 X s 674 1094 m 17 X s
 gsave  710 563 23 599 C 719.017 677.427 t 90 r /Helvetica-Bold findfont 19.9164 sf 0 0 m (U/O\255flow \(S,B\): \(0.0, 0.0\)% / \(0.1, 0.6\)%) show NC gr  0.490196 0.545098 0.615686 c 0.364706 0.419608 0.490196 c 366 37 30 1122 bf 0.490196 0.545098
 0.615686 c 30 1122 m 366 X s 396 1122 m 37 Y s 396 1159 m -366 X s 30 1159 m -37 Y s 1 1 1 c black 1 1 1 c
 gsave  710 563 23 599 C 34.101 1133.86 t 0 r /Helvetica-Bold findfont 28.4519 sf 0 0 m (Input variable: Trk1_z0Sig) show NC gr  0.490196 0.545098 0.615686 c 0.941176 0.941176 0.941176 c 710 563 779 599 bf black 1 1 0.992157 c 548 426 899 680 bf
 black 548 426 899 680 bl 0 0 0.933333 c 6 lw 0.49 0.6 0.82 c black 3 lw 0.49 0.6 0.82 c 899 680 m 387 Y 14 X -56 Y 14 X -94 Y 13 X -53 Y 14 X -52 Y 14 X -36 Y 13 X -27 Y 14 X -18 Y 14 X -14 Y 13 X -11 Y 14 X -7 Y 14 X -6 Y 14 X -6 Y 13 X -1 Y 14 X
 -2 Y 14 X -2 Y 13 X -1 Y 55 X -1 Y 27 X 1 Y 28 X -1 Y 219 X f 6 lw 0 0 0.933333 c 0.49 0.6 0.82 c 0 0 0.933333 c 899 1067 m 14 X -56 Y 14 X -94 Y 13 X -53 Y 14 X -52 Y 14 X -36 Y 13 X -27 Y 14 X -18 Y 14 X -14 Y 13 X -11 Y 14 X -7 Y 14 X -6 Y 14 X
 -6 Y 13 X -1 Y 14 X -2 Y 14 X -2 Y 13 X -1 Y 55 X -1 Y 27 X 1 Y 28 X -1 Y 219 X s black 3 lw 899 680 m 548 X s 986 693 m -13 Y s 1003 686 m -6 Y s 1020 686 m -6 Y s 1038 686 m -6 Y s 1055 686 m -6 Y s 1072 693 m -13 Y s 1090 686 m -6 Y s 1107 686 m
 -6 Y s 1124 686 m -6 Y s 1141 686 m -6 Y s 1159 693 m -13 Y s 1176 686 m -6 Y s 1193 686 m -6 Y s 1211 686 m -6 Y s 1228 686 m -6 Y s 1245 693 m -13 Y s 1263 686 m -6 Y s 1280 686 m -6 Y s 1297 686 m -6 Y s 1314 686 m -6 Y s 1332 693 m -13 Y s 1349
 686 m -6 Y s 1366 686 m -6 Y s 1384 686 m -6 Y s 1401 686 m -6 Y s 1418 693 m -13 Y s 986 693 m -13 Y s 969 686 m -6 Y s 951 686 m -6 Y s 934 686 m -6 Y s 917 686 m -6 Y s 1418 693 m -13 Y s 1435 686 m -6 Y s
 gsave  710 563 779 599 C 977.562 653.602 t 0 r /Helvetica findfont 25.6068 sf 0 0 m (1) show NC gr 
 gsave  710 563 779 599 C 1062.81 653.602 t 0 r /Helvetica findfont 25.6068 sf 0 0 m (2) show NC gr 
 gsave  710 563 779 599 C 1148.07 653.602 t 0 r /Helvetica findfont 25.6068 sf 0 0 m (3) show NC gr 
 gsave  710 563 779 599 C 1236.16 653.602 t 0 r /Helvetica findfont 25.6068 sf 0 0 m (4) show NC gr 
 gsave  710 563 779 599 C 1321.41 653.602 t 0 r /Helvetica findfont 25.6068 sf 0 0 m (5) show NC gr 
 gsave  710 563 779 599 C 1409.51 653.602 t 0 r /Helvetica findfont 25.6068 sf 0 0 m (6) show NC gr 
 gsave  710 563 779 599 C 1301.52 610.976 t 0 r /Helvetica findfont 28.4519 sf 0 0 m (Trk2_z0Sig) show NC gr  899 1106 m 548 X s 986 1093 m 13 Y s 1003 1099 m 7 Y s 1020 1099 m 7 Y s 1038 1099 m 7 Y s 1055 1099 m 7 Y s 1072 1093 m 13 Y s 1090 1099 m
 7 Y s 1107 1099 m 7 Y s 1124 1099 m 7 Y s 1141 1099 m 7 Y s 1159 1093 m 13 Y s 1176 1099 m 7 Y s 1193 1099 m 7 Y s 1211 1099 m 7 Y s 1228 1099 m 7 Y s 1245 1093 m 13 Y s 1263 1099 m 7 Y s 1280 1099 m 7 Y s 1297 1099 m 7 Y s 1314 1099 m 7 Y s 1332
 1093 m 13 Y s 1349 1099 m 7 Y s 1366 1099 m 7 Y s 1384 1099 m 7 Y s 1401 1099 m 7 Y s 1418 1093 m 13 Y s 986 1093 m 13 Y s 969 1099 m 7 Y s 951 1099 m 7 Y s 934 1099 m 7 Y s 917 1099 m 7 Y s 1418 1093 m 13 Y s 1435 1099 m 7 Y s 899 680 m 426 Y s 915
 680 m -16 X s 907 692 m -8 X s 907 705 m -8 X s 907 718 m -8 X s 915 731 m -16 X s 907 744 m -8 X s 907 757 m -8 X s 907 769 m -8 X s 915 782 m -16 X s 907 795 m -8 X s 907 808 m -8 X s 907 821 m -8 X s 915 833 m -16 X s 907 846 m -8 X s 907 859 m
 -8 X s 907 872 m -8 X s 915 885 m -16 X s 907 897 m -8 X s 907 910 m -8 X s 907 923 m -8 X s 915 936 m -16 X s 907 949 m -8 X s 907 962 m -8 X s 907 974 m -8 X s 915 987 m -16 X s 907 1000 m -8 X s 907 1013 m -8 X s 907 1026 m -8 X s 915 1038 m -16
 X s 907 1051 m -8 X s 907 1064 m -8 X s 907 1077 m -8 X s 915 1090 m -16 X s 915 1090 m -16 X s 907 1102 m -8 X s
 gsave  710 563 779 599 C 875.259 670.653 t 0 r /Helvetica findfont 25.6068 sf 0 0 m (0) show NC gr 
 gsave  710 563 779 599 C 855.367 721.805 t 0 r /Helvetica findfont 25.6068 sf 0 0 m (0.2) show NC gr 
 gsave  710 563 779 599 C 855.367 772.956 t 0 r /Helvetica findfont 25.6068 sf 0 0 m (0.4) show NC gr 
 gsave  710 563 779 599 C 855.367 824.107 t 0 r /Helvetica findfont 25.6068 sf 0 0 m (0.6) show NC gr 
 gsave  710 563 779 599 C 855.367 875.259 t 0 r /Helvetica findfont 25.6068 sf 0 0 m (0.8) show NC gr 
 gsave  710 563 779 599 C 878.101 926.41 t 0 r /Helvetica findfont 25.6068 sf 0 0 m (1) show NC gr 
 gsave  710 563 779 599 C 855.367 977.562 t 0 r /Helvetica findfont 25.6068 sf 0 0 m (1.2) show NC gr 
 gsave  710 563 779 599 C 855.367 1028.71 t 0 r /Helvetica findfont 25.6068 sf 0 0 m (1.4) show NC gr 
 gsave  710 563 779 599 C 855.367 1079.86 t 0 r /Helvetica findfont 25.6068 sf 0 0 m (1.6) show NC gr 
 gsave  710 563 779 599 C 801.374 1031.56 t 90 r /Helvetica findfont 28.4519 sf 0 0 m (0.158 ) show NC gr 
 gsave  710 563 779 599 C 787.165 1028.71 t 90 r /Helvetica findfont 19.9164 sf 0 0 m ( ) show NC gr 
 gsave  710 563 779 599 C 801.374 1017.35 t 90 r /Helvetica findfont 28.4519 sf 0 0 m (/) show NC gr 
 gsave  710 563 779 599 C 809.899 1014.5 t 90 r /Helvetica findfont 19.9164 sf 0 0 m ( ) show NC gr 
 gsave  710 563 779 599 C 801.374 909.36 t 90 r /Helvetica findfont 28.4519 sf 0 0 m (\(1/N\) dN) show NC gr  1447 680 m 426 Y s 1430 680 m 17 X s 1438 692 m 9 X s 1438 705 m 9 X s 1438 718 m 9 X s 1430 731 m 17 X s 1438 744 m 9 X s 1438 757 m 9 X s
 1438 769 m 9 X s 1430 782 m 17 X s 1438 795 m 9 X s 1438 808 m 9 X s 1438 821 m 9 X s 1430 833 m 17 X s 1438 846 m 9 X s 1438 859 m 9 X s 1438 872 m 9 X s 1430 885 m 17 X s 1438 897 m 9 X s 1438 910 m 9 X s 1438 923 m 9 X s 1430 936 m 17 X s 1438
 949 m 9 X s 1438 962 m 9 X s 1438 974 m 9 X s 1430 987 m 17 X s 1438 1000 m 9 X s 1438 1013 m 9 X s 1438 1026 m 9 X s 1430 1038 m 17 X s 1438 1051 m 9 X s 1438 1064 m 9 X s 1438 1077 m 9 X s 1430 1090 m 17 X s 1430 1090 m 17 X s 1438 1102 m 9 X s
 0.490196 0.545098 0.615686 c 0.364706 0.419608 0.490196 c 366 37 786 1122 bf 0.490196 0.545098 0.615686 c 786 1122 m 366 X s 1152 1122 m 37 Y s 1152 1159 m -366 X s 786 1159 m -37 Y s 1 1 1 c black 1 1 1 c
 gsave  710 563 779 599 C 790.007 1133.86 t 0 r /Helvetica-Bold findfont 28.4519 sf 0 0 m (Input variable: Trk2_z0Sig) show NC gr  1 0 0 c 6 lw black 3 lw 1 0 0 c 1432 680 m s 1417 680 m s 1404 681 m -2 -1 d s 1388 681 m -1 -1 d s 1373 681 m -1 -1 d
 s 1358 681 m -1 -1 d s 1342 681 m -1 Y s 1327 680 m s 1314 682 m -3 -2 d s 1298 681 m -2 -1 d s 1282 681 m -1 -1 d s 1270 683 m -1 -1 d s 1268 681 m -2 -1 d s 1255 684 m -4 -4 d s 1239 682 m -3 -2 d s 1228 686 m -7 -6 d s 1209 683 m -3 -3 d s 1196
 685 m -5 -5 d s 1183 687 m -7 -7 d s 1170 689 m -9 -9 d s 1153 687 m -7 -7 d s 1138 687 m -7 -7 d s 1126 690 m -10 -10 d s 1107 686 m -7 -6 d s 1098 692 m -13 -12 d s 1091 700 m -21 -20 d s 1077 702 m s 1077 701 m -22 -21 d s 1059 699 m -19 -19 d s
 1050 705 m -25 -25 d s 1049 719 m -39 -39 d s 1034 719 m -39 -39 d s 1022 722 m -42 -42 d s 1009 724 m -44 -44 d s 1008 738 m -58 -58 d s 995 740 m -60 -60 d s 995 755 m -75 -75 d s 981 757 m -76 -77 d s 981 772 m -82 -82 d s 981 787 m -82 -82 d s
 977 798 m -78 -78 d s 965 801 m -66 -66 d s 954 805 m -55 -55 d s 954 820 m -55 -55 d s 954 836 m -55 -55 d s 954 851 m -55 -55 d s 948 860 m -49 -49 d s 940 867 m -41 -41 d s 940 882 m -41 -41 d s 940 898 m -41 -42 d s 930 902 m -31 -31 d s 927 914
 m -28 -27 d s 927 929 m -28 -27 d s 925 942 m -26 -25 d s 913 946 m -14 -14 d s 913 961 m -14 -14 d s 913 976 m -14 -14 d s 901 979 m -2 -2 d s 6 lw 899 979 m 14 X -37 Y 14 X -40 Y 13 X -42 Y 14 X -59 Y 14 X -3 Y 13 X -43 Y 14 X -17 Y 14 X -15 Y 13
 X -4 Y 28 X -20 Y 14 X 2 Y 13 X 1 Y 14 X -10 Y 14 X -6 Y 13 X 4 Y 14 X -3 Y 27 X 2 Y 14 X -2 Y 14 X -2 Y 13 X -2 Y 14 X 3 Y 14 X -4 Y 13 X 2 Y 14 X -3 Y 14 X 2 Y 13 X -3 Y 14 X 1 Y 14 X 1 Y 13 X -2 Y 14 X 1 Y 68 X -1 Y 42 X s black 3 lw 899 680 m
 548 X s 986 693 m -13 Y s 1003 686 m -6 Y s 1020 686 m -6 Y s 1038 686 m -6 Y s 1055 686 m -6 Y s 1072 693 m -13 Y s 1090 686 m -6 Y s 1107 686 m -6 Y s 1124 686 m -6 Y s 1141 686 m -6 Y s 1159 693 m -13 Y s 1176 686 m -6 Y s 1193 686 m -6 Y s 1211
 686 m -6 Y s 1228 686 m -6 Y s 1245 693 m -13 Y s 1263 686 m -6 Y s 1280 686 m -6 Y s 1297 686 m -6 Y s 1314 686 m -6 Y s 1332 693 m -13 Y s 1349 686 m -6 Y s 1366 686 m -6 Y s 1384 686 m -6 Y s 1401 686 m -6 Y s 1418 693 m -13 Y s 986 693 m -13 Y s
 969 686 m -6 Y s 951 686 m -6 Y s 934 686 m -6 Y s 917 686 m -6 Y s 1418 693 m -13 Y s 1435 686 m -6 Y s 899 1106 m 548 X s 986 1093 m 13 Y s 1003 1099 m 7 Y s 1020 1099 m 7 Y s 1038 1099 m 7 Y s 1055 1099 m 7 Y s 1072 1093 m 13 Y s 1090 1099 m 7 Y
 s 1107 1099 m 7 Y s 1124 1099 m 7 Y s 1141 1099 m 7 Y s 1159 1093 m 13 Y s 1176 1099 m 7 Y s 1193 1099 m 7 Y s 1211 1099 m 7 Y s 1228 1099 m 7 Y s 1245 1093 m 13 Y s 1263 1099 m 7 Y s 1280 1099 m 7 Y s 1297 1099 m 7 Y s 1314 1099 m 7 Y s 1332 1093 m
 13 Y s 1349 1099 m 7 Y s 1366 1099 m 7 Y s 1384 1099 m 7 Y s 1401 1099 m 7 Y s 1418 1093 m 13 Y s 986 1093 m 13 Y s 969 1099 m 7 Y s 951 1099 m 7 Y s 934 1099 m 7 Y s 917 1099 m 7 Y s 1418 1093 m 13 Y s 1435 1099 m 7 Y s 899 680 m 426 Y s 915 680 m
 -16 X s 907 692 m -8 X s 907 705 m -8 X s 907 718 m -8 X s 915 731 m -16 X s 907 744 m -8 X s 907 757 m -8 X s 907 769 m -8 X s 915 782 m -16 X s 907 795 m -8 X s 907 808 m -8 X s 907 821 m -8 X s 915 833 m -16 X s 907 846 m -8 X s 907 859 m -8 X s
 907 872 m -8 X s 915 885 m -16 X s 907 897 m -8 X s 907 910 m -8 X s 907 923 m -8 X s 915 936 m -16 X s 907 949 m -8 X s 907 962 m -8 X s 907 974 m -8 X s 915 987 m -16 X s 907 1000 m -8 X s 907 1013 m -8 X s 907 1026 m -8 X s 915 1038 m -16 X s 907
 1051 m -8 X s 907 1064 m -8 X s 907 1077 m -8 X s 915 1090 m -16 X s 915 1090 m -16 X s 907 1102 m -8 X s 1447 680 m 426 Y s 1430 680 m 17 X s 1438 692 m 9 X s 1438 705 m 9 X s 1438 718 m 9 X s 1430 731 m 17 X s 1438 744 m 9 X s 1438 757 m 9 X s
 1438 769 m 9 X s 1430 782 m 17 X s 1438 795 m 9 X s 1438 808 m 9 X s 1438 821 m 9 X s 1430 833 m 17 X s 1438 846 m 9 X s 1438 859 m 9 X s 1438 872 m 9 X s 1430 885 m 17 X s 1438 897 m 9 X s 1438 910 m 9 X s 1438 923 m 9 X s 1430 936 m 17 X s 1438
 949 m 9 X s 1438 962 m 9 X s 1438 974 m 9 X s 1430 987 m 17 X s 1438 1000 m 9 X s 1438 1013 m 9 X s 1438 1026 m 9 X s 1430 1038 m 17 X s 1438 1051 m 9 X s 1438 1064 m 9 X s 1438 1077 m 9 X s 1430 1090 m 17 X s 1430 1090 m 17 X s 1438 1102 m 9 X s
 gsave  710 563 779 599 C 1474.92 677.427 t 90 r /Helvetica-Bold findfont 19.9164 sf 0 0 m (U/O\255flow \(S,B\): \(0.0, 0.0\)% / \(0.0, 0.8\)%) show NC gr  0.490196 0.545098 0.615686 c 0.364706 0.419608 0.490196 c 366 37 786 1122 bf 0.490196 0.545098
 0.615686 c 786 1122 m 366 X s 1152 1122 m 37 Y s 1152 1159 m -366 X s 786 1159 m -37 Y s 1 1 1 c black 1 1 1 c
 gsave  710 563 779 599 C 790.007 1133.86 t 0 r /Helvetica-Bold findfont 28.4519 sf 0 0 m (Input variable: Trk2_z0Sig) show NC gr  0.490196 0.545098 0.615686 c 0.941176 0.941176 0.941176 c 711 563 1534 599 bf black 1 1 0.992157 c 547 426 1655 680 bf
 black 547 426 1655 680 bl 0 0 0.933333 c 6 lw 0.49 0.6 0.82 c black 3 lw 0.49 0.6 0.82 c 1655 680 m 18 Y 14 X 27 Y 14 X 96 Y 13 X 246 Y 14 X -105 Y 14 X -174 Y 13 X -60 Y 14 X -26 Y 14 X -7 Y 13 X -5 Y 14 X -3 Y 27 X -4 Y 14 X -1 Y 27 X -1 Y 28 X -1
 Y 27 X 1 Y 14 X -1 Y 273 X f 6 lw 0 0 0.933333 c 0.49 0.6 0.82 c 0 0 0.933333 c 1655 698 m 14 X 27 Y 14 X 96 Y 13 X 246 Y 14 X -105 Y 14 X -174 Y 13 X -60 Y 14 X -26 Y 14 X -7 Y 13 X -5 Y 14 X -3 Y 27 X -4 Y 14 X -1 Y 27 X -1 Y 28 X -1 Y 27 X 1 Y 14
 X -1 Y 273 X s black 3 lw 1655 680 m 547 X s 1711 693 m -13 Y s 1722 686 m -6 Y s 1733 686 m -6 Y s 1744 686 m -6 Y s 1755 686 m -6 Y s 1766 693 m -13 Y s 1777 686 m -6 Y s 1789 686 m -6 Y s 1800 686 m -6 Y s 1811 686 m -6 Y s 1822 693 m -13 Y s
 1833 686 m -6 Y s 1844 686 m -6 Y s 1855 686 m -6 Y s 1866 686 m -6 Y s 1877 693 m -13 Y s 1889 686 m -6 Y s 1900 686 m -6 Y s 1911 686 m -6 Y s 1922 686 m -6 Y s 1933 693 m -13 Y s 1944 686 m -6 Y s 1955 686 m -6 Y s 1966 686 m -6 Y s 1977 686 m -6
 Y s 1989 693 m -13 Y s 2000 686 m -6 Y s 2011 686 m -6 Y s 2022 686 m -6 Y s 2033 686 m -6 Y s 2044 693 m -13 Y s 2055 686 m -6 Y s 2066 686 m -6 Y s 2077 686 m -6 Y s 2089 686 m -6 Y s 2100 693 m -13 Y s 2111 686 m -6 Y s 2122 686 m -6 Y s 2133 686
 m -6 Y s 2144 686 m -6 Y s 2155 693 m -13 Y s 1711 693 m -13 Y s 1700 686 m -6 Y s 1689 686 m -6 Y s 1677 686 m -6 Y s 1666 686 m -6 Y s 2155 693 m -13 Y s 2166 686 m -6 Y s 2177 686 m -6 Y s 2189 686 m -6 Y s 2200 686 m -6 Y s
 gsave  711 563 1534 599 C 1705.05 653.602 t 0 r /Helvetica findfont 25.6068 sf 0 0 m (1) show NC gr 
 gsave  711 563 1534 599 C 1756.2 653.602 t 0 r /Helvetica findfont 25.6068 sf 0 0 m (2) show NC gr 
 gsave  711 563 1534 599 C 1813.04 653.602 t 0 r /Helvetica findfont 25.6068 sf 0 0 m (3) show NC gr 
 gsave  711 563 1534 599 C 1867.03 653.602 t 0 r /Helvetica findfont 25.6068 sf 0 0 m (4) show NC gr 
 gsave  711 563 1534 599 C 1923.86 653.602 t 0 r /Helvetica findfont 25.6068 sf 0 0 m (5) show NC gr 
 gsave  711 563 1534 599 C 1977.86 653.602 t 0 r /Helvetica findfont 25.6068 sf 0 0 m (6) show NC gr 
 gsave  711 563 1534 599 C 2034.69 653.602 t 0 r /Helvetica findfont 25.6068 sf 0 0 m (7) show NC gr 
 gsave  711 563 1534 599 C 2088.69 653.602 t 0 r /Helvetica findfont 25.6068 sf 0 0 m (8) show NC gr 
 gsave  711 563 1534 599 C 2145.52 653.602 t 0 r /Helvetica findfont 25.6068 sf 0 0 m (9) show NC gr 
 gsave  711 563 1534 599 C 2031.85 608.134 t 0 r /Helvetica findfont 28.4519 sf 0 0 m (Trk1_EOverP) show NC gr  1655 1106 m 547 X s 1711 1093 m 13 Y s 1722 1099 m 7 Y s 1733 1099 m 7 Y s 1744 1099 m 7 Y s 1755 1099 m 7 Y s 1766 1093 m 13 Y s 1777
 1099 m 7 Y s 1789 1099 m 7 Y s 1800 1099 m 7 Y s 1811 1099 m 7 Y s 1822 1093 m 13 Y s 1833 1099 m 7 Y s 1844 1099 m 7 Y s 1855 1099 m 7 Y s 1866 1099 m 7 Y s 1877 1093 m 13 Y s 1889 1099 m 7 Y s 1900 1099 m 7 Y s 1911 1099 m 7 Y s 1922 1099 m 7 Y s
 1933 1093 m 13 Y s 1944 1099 m 7 Y s 1955 1099 m 7 Y s 1966 1099 m 7 Y s 1977 1099 m 7 Y s 1989 1093 m 13 Y s 2000 1099 m 7 Y s 2011 1099 m 7 Y s 2022 1099 m 7 Y s 2033 1099 m 7 Y s 2044 1093 m 13 Y s 2055 1099 m 7 Y s 2066 1099 m 7 Y s 2077 1099 m
 7 Y s 2089 1099 m 7 Y s 2100 1093 m 13 Y s 2111 1099 m 7 Y s 2122 1099 m 7 Y s 2133 1099 m 7 Y s 2144 1099 m 7 Y s 2155 1093 m 13 Y s 1711 1093 m 13 Y s 1700 1099 m 7 Y s 1689 1099 m 7 Y s 1677 1099 m 7 Y s 1666 1099 m 7 Y s 2155 1093 m 13 Y s 2166
 1099 m 7 Y s 2177 1099 m 7 Y s 2189 1099 m 7 Y s 2200 1099 m 7 Y s 1655 680 m 426 Y s 1671 680 m -16 X s 1663 693 m -8 X s 1663 707 m -8 X s 1663 721 m -8 X s 1671 734 m -16 X s 1663 748 m -8 X s 1663 762 m -8 X s 1663 775 m -8 X s 1671 789 m -16 X
 s 1663 803 m -8 X s 1663 816 m -8 X s 1663 830 m -8 X s 1671 844 m -16 X s 1663 857 m -8 X s 1663 871 m -8 X s 1663 885 m -8 X s 1671 898 m -16 X s 1663 912 m -8 X s 1663 926 m -8 X s 1663 939 m -8 X s 1671 953 m -16 X s 1663 967 m -8 X s 1663 981 m
 -8 X s 1663 994 m -8 X s 1671 1008 m -16 X s 1663 1022 m -8 X s 1663 1035 m -8 X s 1663 1049 m -8 X s 1671 1063 m -16 X s 1671 1063 m -16 X s 1663 1076 m -8 X s 1663 1090 m -8 X s 1663 1104 m -8 X s
 gsave  711 563 1534 599 C 1631.16 670.653 t 0 r /Helvetica findfont 25.6068 sf 0 0 m (0) show NC gr 
 gsave  711 563 1534 599 C 1611.27 724.646 t 0 r /Helvetica findfont 25.6068 sf 0 0 m (0.2) show NC gr 
 gsave  711 563 1534 599 C 1611.27 778.639 t 0 r /Helvetica findfont 25.6068 sf 0 0 m (0.4) show NC gr 
 gsave  711 563 1534 599 C 1611.27 832.633 t 0 r /Helvetica findfont 25.6068 sf 0 0 m (0.6) show NC gr 
 gsave  711 563 1534 599 C 1611.27 889.468 t 0 r /Helvetica findfont 25.6068 sf 0 0 m (0.8) show NC gr 
 gsave  711 563 1534 599 C 1634.01 943.461 t 0 r /Helvetica findfont 25.6068 sf 0 0 m (1) show NC gr 
 gsave  711 563 1534 599 C 1611.27 997.454 t 0 r /Helvetica findfont 25.6068 sf 0 0 m (1.2) show NC gr 
 gsave  711 563 1534 599 C 1611.27 1051.45 t 0 r /Helvetica findfont 25.6068 sf 0 0 m (1.4) show NC gr 
 gsave  711 563 1534 599 C 1557.28 1031.56 t 90 r /Helvetica findfont 28.4519 sf 0 0 m (0.246 ) show NC gr 
 gsave  711 563 1534 599 C 1543.07 1028.71 t 90 r /Helvetica findfont 19.9164 sf 0 0 m ( ) show NC gr 
 gsave  711 563 1534 599 C 1557.28 1017.35 t 90 r /Helvetica findfont 28.4519 sf 0 0 m (/) show NC gr 
 gsave  711 563 1534 599 C 1565.8 1014.5 t 90 r /Helvetica findfont 19.9164 sf 0 0 m ( ) show NC gr 
 gsave  711 563 1534 599 C 1557.28 909.36 t 90 r /Helvetica findfont 28.4519 sf 0 0 m (\(1/N\) dN) show NC gr  2202 680 m 426 Y s 2186 680 m 16 X s 2194 693 m 8 X s 2194 707 m 8 X s 2194 721 m 8 X s 2186 734 m 16 X s 2194 748 m 8 X s 2194 762 m 8 X s
 2194 775 m 8 X s 2186 789 m 16 X s 2194 803 m 8 X s 2194 816 m 8 X s 2194 830 m 8 X s 2186 844 m 16 X s 2194 857 m 8 X s 2194 871 m 8 X s 2194 885 m 8 X s 2186 898 m 16 X s 2194 912 m 8 X s 2194 926 m 8 X s 2194 939 m 8 X s 2186 953 m 16 X s 2194
 967 m 8 X s 2194 981 m 8 X s 2194 994 m 8 X s 2186 1008 m 16 X s 2194 1022 m 8 X s 2194 1035 m 8 X s 2194 1049 m 8 X s 2186 1063 m 16 X s 2186 1063 m 16 X s 2194 1076 m 8 X s 2194 1090 m 8 X s 2194 1104 m 8 X s 0.490196 0.545098 0.615686 c 0.364706
 0.419608 0.490196 c 397 37 1542 1122 bf 0.490196 0.545098 0.615686 c 1542 1122 m 397 X s 1939 1122 m 37 Y s 1939 1159 m -397 X s 1542 1159 m -37 Y s 1 1 1 c black 1 1 1 c
 gsave  711 563 1534 599 C 1545.91 1133.86 t 0 r /Helvetica-Bold findfont 28.4519 sf 0 0 m (Input variable: Trk1_EOverP) show NC gr  1 0 0 c 6 lw black 3 lw 1 0 0 c 2189 680 m -1 X s 2173 680 m s 2159 681 m -1 -1 d s 2144 681 m -1 -1 d s 2128 680 m s
 2115 682 m -2 -2 d s 2101 683 m -3 -3 d s 2086 683 m -4 -3 d s 2070 682 m -3 -2 d s 2057 685 m -5 -5 d s 2038 681 m -1 -1 d s 2026 683 m -1 -1 d s 2023 681 m -1 -1 d s 2009 682 m -2 -2 d s 1997 685 m -5 -5 d s 1982 685 m -5 -5 d s 1966 684 m -4 -4 d
 s 1954 686 m -7 -6 d s 1938 686 m -6 -6 d s 1921 684 m -4 -4 d s 1912 690 m -10 -10 d s 1895 688 m -8 -8 d s 1885 693 m -14 -13 d s 1872 695 m -16 -15 d s 1858 696 m -17 -16 d s 1847 700 m -21 -20 d s 1840 709 m -29 -29 d s 1823 706 m -27 -26 d s
 1814 713 m -33 -33 d s 1803 717 m -37 -37 d s 1792 721 m -41 -41 d s 1778 722 m -42 -42 d s 1778 738 m -57 -58 d s 1765 739 m -59 -59 d s 1755 745 m -64 -65 d s 1743 748 m -68 -68 d s 1737 757 m -77 -77 d s 1737 772 m -82 -82 d s 1728 778 m -73 -73
 d s 1724 789 m -55 -55 d s 1657 722 m -2 -2 d s 1713 793 m -44 -44 d s 1710 805 m -27 -27 d s 1677 772 m -8 -8 d s 1710 820 m -27 -27 d s 1692 817 m -9 -9 d s 6 lw 1655 722 m 14 X 50 Y 14 X 45 Y 13 X 4 Y 14 X -28 Y 14 X -15 Y 13 X -30 Y 14 X -3 Y 14
 X -7 Y 13 X -16 Y 14 X -5 Y 14 X -4 Y 13 X -7 Y 14 X 3 Y 14 X -13 Y 13 X -1 Y 14 X -2 Y 14 X -5 Y 13 X 2 Y 14 X -6 Y 14 X 2 Y 27 X -2 Y 14 X 1 Y 27 X -3 Y 14 X -1 Y 14 X 2 Y 13 X -3 Y 14 X 5 Y 14 X -3 Y 13 X 1 Y 28 X -1 Y 13 X -2 Y 14 X 1 Y 27 X -1
 Y 14 X 1 Y 14 X -1 Y 13 X s black 3 lw 1655 680 m 547 X s 1711 693 m -13 Y s 1722 686 m -6 Y s 1733 686 m -6 Y s 1744 686 m -6 Y s 1755 686 m -6 Y s 1766 693 m -13 Y s 1777 686 m -6 Y s 1789 686 m -6 Y s 1800 686 m -6 Y s 1811 686 m -6 Y s 1822 693
 m -13 Y s 1833 686 m -6 Y s 1844 686 m -6 Y s 1855 686 m -6 Y s 1866 686 m -6 Y s 1877 693 m -13 Y s 1889 686 m -6 Y s 1900 686 m -6 Y s 1911 686 m -6 Y s 1922 686 m -6 Y s 1933 693 m -13 Y s 1944 686 m -6 Y s 1955 686 m -6 Y s 1966 686 m -6 Y s
 1977 686 m -6 Y s 1989 693 m -13 Y s 2000 686 m -6 Y s 2011 686 m -6 Y s 2022 686 m -6 Y s 2033 686 m -6 Y s 2044 693 m -13 Y s 2055 686 m -6 Y s 2066 686 m -6 Y s 2077 686 m -6 Y s 2089 686 m -6 Y s 2100 693 m -13 Y s 2111 686 m -6 Y s 2122 686 m
 -6 Y s 2133 686 m -6 Y s 2144 686 m -6 Y s 2155 693 m -13 Y s 1711 693 m -13 Y s 1700 686 m -6 Y s 1689 686 m -6 Y s 1677 686 m -6 Y s 1666 686 m -6 Y s 2155 693 m -13 Y s 2166 686 m -6 Y s 2177 686 m -6 Y s 2189 686 m -6 Y s 2200 686 m -6 Y s 1655
 1106 m 547 X s 1711 1093 m 13 Y s 1722 1099 m 7 Y s 1733 1099 m 7 Y s 1744 1099 m 7 Y s 1755 1099 m 7 Y s 1766 1093 m 13 Y s 1777 1099 m 7 Y s 1789 1099 m 7 Y s 1800 1099 m 7 Y s 1811 1099 m 7 Y s 1822 1093 m 13 Y s 1833 1099 m 7 Y s 1844 1099 m 7 Y
 s 1855 1099 m 7 Y s 1866 1099 m 7 Y s 1877 1093 m 13 Y s 1889 1099 m 7 Y s 1900 1099 m 7 Y s 1911 1099 m 7 Y s 1922 1099 m 7 Y s 1933 1093 m 13 Y s 1944 1099 m 7 Y s 1955 1099 m 7 Y s 1966 1099 m 7 Y s 1977 1099 m 7 Y s 1989 1093 m 13 Y s 2000 1099
 m 7 Y s 2011 1099 m 7 Y s 2022 1099 m 7 Y s 2033 1099 m 7 Y s 2044 1093 m 13 Y s 2055 1099 m 7 Y s 2066 1099 m 7 Y s 2077 1099 m 7 Y s 2089 1099 m 7 Y s 2100 1093 m 13 Y s 2111 1099 m 7 Y s 2122 1099 m 7 Y s 2133 1099 m 7 Y s 2144 1099 m 7 Y s 2155
 1093 m 13 Y s 1711 1093 m 13 Y s 1700 1099 m 7 Y s 1689 1099 m 7 Y s 1677 1099 m 7 Y s 1666 1099 m 7 Y s 2155 1093 m 13 Y s 2166 1099 m 7 Y s 2177 1099 m 7 Y s 2189 1099 m 7 Y s 2200 1099 m 7 Y s 1655 680 m 426 Y s 1671 680 m -16 X s 1663 693 m -8 X
 s 1663 707 m -8 X s 1663 721 m -8 X s 1671 734 m -16 X s 1663 748 m -8 X s 1663 762 m -8 X s 1663 775 m -8 X s 1671 789 m -16 X s 1663 803 m -8 X s 1663 816 m -8 X s 1663 830 m -8 X s 1671 844 m -16 X s 1663 857 m -8 X s 1663 871 m -8 X s 1663 885 m
 -8 X s 1671 898 m -16 X s 1663 912 m -8 X s 1663 926 m -8 X s 1663 939 m -8 X s 1671 953 m -16 X s 1663 967 m -8 X s 1663 981 m -8 X s 1663 994 m -8 X s 1671 1008 m -16 X s 1663 1022 m -8 X s 1663 1035 m -8 X s 1663 1049 m -8 X s 1671 1063 m -16 X s
 1671 1063 m -16 X s 1663 1076 m -8 X s 1663 1090 m -8 X s 1663 1104 m -8 X s 2202 680 m 426 Y s 2186 680 m 16 X s 2194 693 m 8 X s 2194 707 m 8 X s 2194 721 m 8 X s 2186 734 m 16 X s 2194 748 m 8 X s 2194 762 m 8 X s 2194 775 m 8 X s 2186 789 m 16 X
 s 2194 803 m 8 X s 2194 816 m 8 X s 2194 830 m 8 X s 2186 844 m 16 X s 2194 857 m 8 X s 2194 871 m 8 X s 2194 885 m 8 X s 2186 898 m 16 X s 2194 912 m 8 X s 2194 926 m 8 X s 2194 939 m 8 X s 2186 953 m 16 X s 2194 967 m 8 X s 2194 981 m 8 X s 2194
 994 m 8 X s 2186 1008 m 16 X s 2194 1022 m 8 X s 2194 1035 m 8 X s 2194 1049 m 8 X s 2186 1063 m 16 X s 2186 1063 m 16 X s 2194 1076 m 8 X s 2194 1090 m 8 X s 2194 1104 m 8 X s
 gsave  711 563 1534 599 C 2230.83 677.427 t 90 r /Helvetica-Bold findfont 19.9164 sf 0 0 m (U/O\255flow \(S,B\): \(0.0, 0.0\)% / \(0.1, 1.1\)%) show NC gr  0.490196 0.545098 0.615686 c 0.364706 0.419608 0.490196 c 397 37 1542 1122 bf 0.490196
 0.545098 0.615686 c 1542 1122 m 397 X s 1939 1122 m 37 Y s 1939 1159 m -397 X s 1542 1159 m -37 Y s 1 1 1 c black 1 1 1 c
 gsave  711 563 1534 599 C 1545.91 1133.86 t 0 r /Helvetica-Bold findfont 28.4519 sf 0 0 m (Input variable: Trk1_EOverP) show NC gr  0.490196 0.545098 0.615686 c 0.941176 0.941176 0.941176 c 710 563 23 12 bf black 1 1 0.992157 c 548 426 143 93 bf
 black 548 426 143 93 bl 0 0 0.933333 c 6 lw 0.49 0.6 0.82 c black 3 lw 0.49 0.6 0.82 c 143 93 m 387 Y 14 X -329 Y 14 X -40 Y 14 X -8 Y 13 X -5 Y 14 X -3 Y 41 X -1 Y 55 X -1 Y 383 X f 6 lw 0 0 0.933333 c 0.49 0.6 0.82 c 0 0 0.933333 c 143 480 m 14 X
 -329 Y 14 X -40 Y 14 X -8 Y 13 X -5 Y 14 X -3 Y 41 X -1 Y 55 X -1 Y 383 X s black 3 lw 143 93 m 548 X s 206 106 m -13 Y s 219 99 m -6 Y s 231 99 m -6 Y s 244 99 m -6 Y s 256 99 m -6 Y s 269 106 m -13 Y s 281 99 m -6 Y s 294 99 m -6 Y s 306 99 m -6 Y
 s 319 99 m -6 Y s 331 106 m -13 Y s 344 99 m -6 Y s 356 99 m -6 Y s 369 99 m -6 Y s 381 99 m -6 Y s 394 106 m -13 Y s 407 99 m -6 Y s 419 99 m -6 Y s 432 99 m -6 Y s 444 99 m -6 Y s 457 106 m -13 Y s 469 99 m -6 Y s 482 99 m -6 Y s 494 99 m -6 Y s
 507 99 m -6 Y s 519 106 m -13 Y s 532 99 m -6 Y s 544 99 m -6 Y s 557 99 m -6 Y s 569 99 m -6 Y s 582 106 m -13 Y s 594 99 m -6 Y s 607 99 m -6 Y s 620 99 m -6 Y s 632 99 m -6 Y s 645 106 m -13 Y s 206 106 m -13 Y s 194 99 m -6 Y s 181 99 m -6 Y s
 168 99 m -6 Y s 156 99 m -6 Y s 645 106 m -13 Y s 657 99 m -6 Y s 670 99 m -6 Y s 682 99 m -6 Y s
 gsave  710 563 23 12 C 190.397 65.3603 t 0 r /Helvetica findfont 25.6068 sf 0 0 m (10) show NC gr 
 gsave  710 563 23 12 C 252.916 65.3603 t 0 r /Helvetica findfont 25.6068 sf 0 0 m (20) show NC gr 
 gsave  710 563 23 12 C 315.434 65.3603 t 0 r /Helvetica findfont 25.6068 sf 0 0 m (30) show NC gr 
 gsave  710 563 23 12 C 377.953 65.3603 t 0 r /Helvetica findfont 25.6068 sf 0 0 m (40) show NC gr 
 gsave  710 563 23 12 C 440.471 65.3603 t 0 r /Helvetica findfont 25.6068 sf 0 0 m (50) show NC gr 
 gsave  710 563 23 12 C 502.99 65.3603 t 0 r /Helvetica findfont 25.6068 sf 0 0 m (60) show NC gr 
 gsave  710 563 23 12 C 565.508 65.3603 t 0 r /Helvetica findfont 25.6068 sf 0 0 m (70) show NC gr 
 gsave  710 563 23 12 C 628.027 65.3603 t 0 r /Helvetica findfont 25.6068 sf 0 0 m (80) show NC gr 
 gsave  710 563 23 12 C 520.04 22.734 t 0 r /Helvetica findfont 28.4519 sf 0 0 m (Trk2_EOverP) show NC gr  143 519 m 548 X s 206 506 m 13 Y s 219 512 m 7 Y s 231 512 m 7 Y s 244 512 m 7 Y s 256 512 m 7 Y s 269 506 m 13 Y s 281 512 m 7 Y s 294 512 m 7
 Y s 306 512 m 7 Y s 319 512 m 7 Y s 331 506 m 13 Y s 344 512 m 7 Y s 356 512 m 7 Y s 369 512 m 7 Y s 381 512 m 7 Y s 394 506 m 13 Y s 407 512 m 7 Y s 419 512 m 7 Y s 432 512 m 7 Y s 444 512 m 7 Y s 457 506 m 13 Y s 469 512 m 7 Y s 482 512 m 7 Y s
 494 512 m 7 Y s 507 512 m 7 Y s 519 506 m 13 Y s 532 512 m 7 Y s 544 512 m 7 Y s 557 512 m 7 Y s 569 512 m 7 Y s 582 506 m 13 Y s 594 512 m 7 Y s 607 512 m 7 Y s 620 512 m 7 Y s 632 512 m 7 Y s 645 506 m 13 Y s 206 506 m 13 Y s 194 512 m 7 Y s 181
 512 m 7 Y s 168 512 m 7 Y s 156 512 m 7 Y s 645 506 m 13 Y s 657 512 m 7 Y s 670 512 m 7 Y s 682 512 m 7 Y s 143 93 m 426 Y s 160 93 m -17 X s 152 104 m -9 X s 152 114 m -9 X s 152 125 m -9 X s 152 136 m -9 X s 160 147 m -17 X s 152 157 m -9 X s 152
 168 m -9 X s 152 179 m -9 X s 152 189 m -9 X s 160 200 m -17 X s 152 211 m -9 X s 152 222 m -9 X s 152 232 m -9 X s 152 243 m -9 X s 160 254 m -17 X s 152 265 m -9 X s 152 275 m -9 X s 152 286 m -9 X s 152 297 m -9 X s 160 307 m -17 X s 152 318 m -9
 X s 152 329 m -9 X s 152 340 m -9 X s 152 350 m -9 X s 160 361 m -17 X s 152 372 m -9 X s 152 383 m -9 X s 152 393 m -9 X s 152 404 m -9 X s 160 415 m -17 X s 152 426 m -9 X s 152 436 m -9 X s 152 447 m -9 X s 152 458 m -9 X s 160 468 m -17 X s 160
 468 m -17 X s 152 479 m -9 X s 152 490 m -9 X s 152 501 m -9 X s 152 511 m -9 X s
 gsave  710 563 23 12 C 119.354 82.4108 t 0 r /Helvetica findfont 25.6068 sf 0 0 m (0) show NC gr 
 gsave  710 563 23 12 C 85.2525 136.404 t 0 r /Helvetica findfont 25.6068 sf 0 0 m (0.05) show NC gr 
 gsave  710 563 23 12 C 102.303 190.397 t 0 r /Helvetica findfont 25.6068 sf 0 0 m (0.1) show NC gr 
 gsave  710 563 23 12 C 85.2525 244.39 t 0 r /Helvetica findfont 25.6068 sf 0 0 m (0.15) show NC gr 
 gsave  710 563 23 12 C 99.4613 298.384 t 0 r /Helvetica findfont 25.6068 sf 0 0 m (0.2) show NC gr 
 gsave  710 563 23 12 C 85.2525 352.377 t 0 r /Helvetica findfont 25.6068 sf 0 0 m (0.25) show NC gr 
 gsave  710 563 23 12 C 99.4613 403.529 t 0 r /Helvetica findfont 25.6068 sf 0 0 m (0.3) show NC gr 
 gsave  710 563 23 12 C 85.2525 457.522 t 0 r /Helvetica findfont 25.6068 sf 0 0 m (0.35) show NC gr 
 gsave  710 563 23 12 C 45.468 460.363 t 90 r /Helvetica findfont 28.4519 sf 0 0 m (2.18 ) show NC gr 
 gsave  710 563 23 12 C 31.2593 457.522 t 90 r /Helvetica findfont 19.9164 sf 0 0 m ( ) show NC gr 
 gsave  710 563 23 12 C 45.468 446.155 t 90 r /Helvetica findfont 28.4519 sf 0 0 m (/) show NC gr 
 gsave  710 563 23 12 C 53.9933 443.313 t 90 r /Helvetica findfont 19.9164 sf 0 0 m ( ) show NC gr 
 gsave  710 563 23 12 C 45.468 338.168 t 90 r /Helvetica findfont 28.4519 sf 0 0 m (\(1/N\) dN) show NC gr  691 93 m 426 Y s 674 93 m 17 X s 683 104 m 8 X s 683 114 m 8 X s 683 125 m 8 X s 683 136 m 8 X s 674 147 m 17 X s 683 157 m 8 X s 683 168 m 8
 X s 683 179 m 8 X s 683 189 m 8 X s 674 200 m 17 X s 683 211 m 8 X s 683 222 m 8 X s 683 232 m 8 X s 683 243 m 8 X s 674 254 m 17 X s 683 265 m 8 X s 683 275 m 8 X s 683 286 m 8 X s 683 297 m 8 X s 674 307 m 17 X s 683 318 m 8 X s 683 329 m 8 X s
 683 340 m 8 X s 683 350 m 8 X s 674 361 m 17 X s 683 372 m 8 X s 683 383 m 8 X s 683 393 m 8 X s 683 404 m 8 X s 674 415 m 17 X s 683 426 m 8 X s 683 436 m 8 X s 683 447 m 8 X s 683 458 m 8 X s 674 468 m 17 X s 674 468 m 17 X s 683 479 m 8 X s 683
 490 m 8 X s 683 501 m 8 X s 683 511 m 8 X s 0.490196 0.545098 0.615686 c 0.364706 0.419608 0.490196 c 398 37 30 535 bf 0.490196 0.545098 0.615686 c 30 535 m 398 X s 428 535 m 37 Y s 428 572 m -398 X s 30 572 m -37 Y s 1 1 1 c black 1 1 1 c
 gsave  710 563 23 12 C 34.101 545.616 t 0 r /Helvetica-Bold findfont 28.4519 sf 0 0 m (Input variable: Trk2_EOverP) show NC gr  1 0 0 c 6 lw black 3 lw 1 0 0 c 676 93 m s 661 93 m s 646 93 m s 631 93 m s 616 93 m s 601 93 m s 586 93 m s 571 93 m s
 556 93 m s 541 93 m s 525 93 m s 510 93 m cl s 495 93 m cl s 480 93 m s 466 93 m -1 X s 450 93 m s 435 93 m s 420 93 m s 405 93 m s 390 93 m s 375 93 m s 360 93 m s 345 93 m s 330 93 m -1 X s 315 94 m -1 -1 d s 300 93 m -1 X s 285 94 m -1 -1 d s 271
 95 m -2 -2 d s 257 96 m -3 -3 d s 242 96 m -3 -3 d s 226 95 m -2 -2 d s 216 100 m -7 -7 d s 203 102 m -9 -9 d s 194 108 m -15 -15 d s 185 114 m -21 -21 d s 185 129 m -36 -36 d s 179 139 m -36 -36 d s 171 145 m -28 -27 d s 171 161 m -28 -28 d s 171
 176 m -28 -28 d s 171 191 m -28 -28 d s 171 206 m -28 -27 d s 159 210 m -16 -16 d s 157 223 m -14 -14 d s 157 238 m -14 -14 d s 157 253 m -14 -14 d s 157 268 m -14 -14 d s 157 283 m -14 -14 d s 157 298 m -14 -13 d s 157 314 m -14 -14 d s 157 329 m
 -14 -14 d s 157 344 m -14 -14 d s 157 359 m -14 -14 d s 157 374 m -14 -14 d s 145 377 m -2 -1 d s 6 lw 143 377 m 14 X -167 Y 14 X -71 Y 14 X -31 Y 13 X -6 Y 14 X -2 Y 14 X -5 Y 13 X 1 Y 28 X -1 Y 13 X -1 Y 14 X -1 Y 14 X 1 Y 13 X -1 Y 370 X s black
 3 lw 143 93 m 548 X s 206 106 m -13 Y s 219 99 m -6 Y s 231 99 m -6 Y s 244 99 m -6 Y s 256 99 m -6 Y s 269 106 m -13 Y s 281 99 m -6 Y s 294 99 m -6 Y s 306 99 m -6 Y s 319 99 m -6 Y s 331 106 m -13 Y s 344 99 m -6 Y s 356 99 m -6 Y s 369 99 m -6 Y
 s 381 99 m -6 Y s 394 106 m -13 Y s 407 99 m -6 Y s 419 99 m -6 Y s 432 99 m -6 Y s 444 99 m -6 Y s 457 106 m -13 Y s 469 99 m -6 Y s 482 99 m -6 Y s 494 99 m -6 Y s 507 99 m -6 Y s 519 106 m -13 Y s 532 99 m -6 Y s 544 99 m -6 Y s 557 99 m -6 Y s
 569 99 m -6 Y s 582 106 m -13 Y s 594 99 m -6 Y s 607 99 m -6 Y s 620 99 m -6 Y s 632 99 m -6 Y s 645 106 m -13 Y s 206 106 m -13 Y s 194 99 m -6 Y s 181 99 m -6 Y s 168 99 m -6 Y s 156 99 m -6 Y s 645 106 m -13 Y s 657 99 m -6 Y s 670 99 m -6 Y s
 682 99 m -6 Y s 143 519 m 548 X s 206 506 m 13 Y s 219 512 m 7 Y s 231 512 m 7 Y s 244 512 m 7 Y s 256 512 m 7 Y s 269 506 m 13 Y s 281 512 m 7 Y s 294 512 m 7 Y s 306 512 m 7 Y s 319 512 m 7 Y s 331 506 m 13 Y s 344 512 m 7 Y s 356 512 m 7 Y s 369
 512 m 7 Y s 381 512 m 7 Y s 394 506 m 13 Y s 407 512 m 7 Y s 419 512 m 7 Y s 432 512 m 7 Y s 444 512 m 7 Y s 457 506 m 13 Y s 469 512 m 7 Y s 482 512 m 7 Y s 494 512 m 7 Y s 507 512 m 7 Y s 519 506 m 13 Y s 532 512 m 7 Y s 544 512 m 7 Y s 557 512 m
 7 Y s 569 512 m 7 Y s 582 506 m 13 Y s 594 512 m 7 Y s 607 512 m 7 Y s 620 512 m 7 Y s 632 512 m 7 Y s 645 506 m 13 Y s 206 506 m 13 Y s 194 512 m 7 Y s 181 512 m 7 Y s 168 512 m 7 Y s 156 512 m 7 Y s 645 506 m 13 Y s 657 512 m 7 Y s 670 512 m 7 Y s
 682 512 m 7 Y s 143 93 m 426 Y s 160 93 m -17 X s 152 104 m -9 X s 152 114 m -9 X s 152 125 m -9 X s 152 136 m -9 X s 160 147 m -17 X s 152 157 m -9 X s 152 168 m -9 X s 152 179 m -9 X s 152 189 m -9 X s 160 200 m -17 X s 152 211 m -9 X s 152 222 m
 -9 X s 152 232 m -9 X s 152 243 m -9 X s 160 254 m -17 X s 152 265 m -9 X s 152 275 m -9 X s 152 286 m -9 X s 152 297 m -9 X s 160 307 m -17 X s 152 318 m -9 X s 152 329 m -9 X s 152 340 m -9 X s 152 350 m -9 X s 160 361 m -17 X s 152 372 m -9 X s
 152 383 m -9 X s 152 393 m -9 X s 152 404 m -9 X s 160 415 m -17 X s 152 426 m -9 X s 152 436 m -9 X s 152 447 m -9 X s 152 458 m -9 X s 160 468 m -17 X s 160 468 m -17 X s 152 479 m -9 X s 152 490 m -9 X s 152 501 m -9 X s 152 511 m -9 X s 691 93 m
 426 Y s 674 93 m 17 X s 683 104 m 8 X s 683 114 m 8 X s 683 125 m 8 X s 683 136 m 8 X s 674 147 m 17 X s 683 157 m 8 X s 683 168 m 8 X s 683 179 m 8 X s 683 189 m 8 X s 674 200 m 17 X s 683 211 m 8 X s 683 222 m 8 X s 683 232 m 8 X s 683 243 m 8 X s
 674 254 m 17 X s 683 265 m 8 X s 683 275 m 8 X s 683 286 m 8 X s 683 297 m 8 X s 674 307 m 17 X s 683 318 m 8 X s 683 329 m 8 X s 683 340 m 8 X s 683 350 m 8 X s 674 361 m 17 X s 683 372 m 8 X s 683 383 m 8 X s 683 393 m 8 X s 683 404 m 8 X s 674
 415 m 17 X s 683 426 m 8 X s 683 436 m 8 X s 683 447 m 8 X s 683 458 m 8 X s 674 468 m 17 X s 674 468 m 17 X s 683 479 m 8 X s 683 490 m 8 X s 683 501 m 8 X s 683 511 m 8 X s
 gsave  710 563 23 12 C 719.017 90.6052 t 90 r /Helvetica-Bold findfont 19.9164 sf 0 0 m (U/O\255flow \(S,B\): \(0.0, 0.0\)% / \(0.2, 0.1\)%) show NC gr  0.490196 0.545098 0.615686 c 0.364706 0.419608 0.490196 c 398 37 30 535 bf 0.490196 0.545098
 0.615686 c 30 535 m 398 X s 428 535 m 37 Y s 428 572 m -398 X s 30 572 m -37 Y s 1 1 1 c black 1 1 1 c
 gsave  710 563 23 12 C 34.101 545.616 t 0 r /Helvetica-Bold findfont 28.4519 sf 0 0 m (Input variable: Trk2_EOverP) show NC gr  0.490196 0.545098 0.615686 c 0.941176 0.941176 0.941176 c 710 563 779 12 bf black 1 1 0.992157 c 548 426 899 93 bf black
 548 426 899 93 bl 0 0 0.933333 c 6 lw 0.49 0.6 0.82 c black 3 lw 0.49 0.6 0.82 c 899 93 m 387 Y 14 X -66 Y 14 X -276 Y 13 X -38 Y 14 X -5 Y 14 X -2 Y 479 X f 6 lw 0 0 0.933333 c 0.49 0.6 0.82 c 0 0 0.933333 c 899 480 m 14 X -66 Y 14 X -276 Y 13 X
 -38 Y 14 X -5 Y 14 X -2 Y 479 X s black 3 lw 899 93 m 548 X s 899 106 m -13 Y s 921 99 m -6 Y s 943 99 m -6 Y s 964 99 m -6 Y s 986 99 m -6 Y s 1008 106 m -13 Y s 1030 99 m -6 Y s 1051 99 m -6 Y s 1073 99 m -6 Y s 1095 99 m -6 Y s 1116 106 m -13 Y s
 1138 99 m -6 Y s 1160 99 m -6 Y s 1182 99 m -6 Y s 1203 99 m -6 Y s 1225 106 m -13 Y s 1247 99 m -6 Y s 1268 99 m -6 Y s 1290 99 m -6 Y s 1312 99 m -6 Y s 1333 106 m -13 Y s 1355 99 m -6 Y s 1377 99 m -6 Y s 1399 99 m -6 Y s 1420 99 m -6 Y s 1442
 106 m -13 Y s 899 106 m -13 Y s 1442 106 m -13 Y s
 gsave  710 563 779 12 C 889.468 65.3603 t 0 r /Helvetica findfont 25.6068 sf 0 0 m (0) show NC gr 
 gsave  710 563 779 12 C 983.246 65.3603 t 0 r /Helvetica findfont 25.6068 sf 0 0 m (0.01) show NC gr 
 gsave  710 563 779 12 C 1088.39 65.3603 t 0 r /Helvetica findfont 25.6068 sf 0 0 m (0.02) show NC gr 
 gsave  710 563 779 12 C 1199.22 65.3603 t 0 r /Helvetica findfont 25.6068 sf 0 0 m (0.03) show NC gr 
 gsave  710 563 779 12 C 1307.21 65.3603 t 0 r /Helvetica findfont 25.6068 sf 0 0 m (0.04) show NC gr 
 gsave  710 563 779 12 C 1415.19 65.3603 t 0 r /Helvetica findfont 25.6068 sf 0 0 m (0.05) show NC gr 
 gsave  710 563 779 12 C 1318.57 22.734 t 0 r /Helvetica findfont 28.4519 sf 0 0 m (Trk1_dPhi) show NC gr  899 519 m 548 X s 899 506 m 13 Y s 921 512 m 7 Y s 943 512 m 7 Y s 964 512 m 7 Y s 986 512 m 7 Y s 1008 506 m 13 Y s 1030 512 m 7 Y s 1051 512
 m 7 Y s 1073 512 m 7 Y s 1095 512 m 7 Y s 1116 506 m 13 Y s 1138 512 m 7 Y s 1160 512 m 7 Y s 1182 512 m 7 Y s 1203 512 m 7 Y s 1225 506 m 13 Y s 1247 512 m 7 Y s 1268 512 m 7 Y s 1290 512 m 7 Y s 1312 512 m 7 Y s 1333 506 m 13 Y s 1355 512 m 7 Y s
 1377 512 m 7 Y s 1399 512 m 7 Y s 1420 512 m 7 Y s 1442 506 m 13 Y s 899 506 m 13 Y s 1442 506 m 13 Y s 899 93 m 426 Y s 915 93 m -16 X s 907 102 m -8 X s 907 112 m -8 X s 907 122 m -8 X s 907 131 m -8 X s 915 141 m -16 X s 907 151 m -8 X s 907 160
 m -8 X s 907 170 m -8 X s 907 179 m -8 X s 915 189 m -16 X s 907 199 m -8 X s 907 208 m -8 X s 907 218 m -8 X s 907 228 m -8 X s 915 237 m -16 X s 907 247 m -8 X s 907 256 m -8 X s 907 266 m -8 X s 907 276 m -8 X s 915 285 m -16 X s 907 295 m -8 X s
 907 305 m -8 X s 907 314 m -8 X s 907 324 m -8 X s 915 334 m -16 X s 907 343 m -8 X s 907 353 m -8 X s 907 362 m -8 X s 907 372 m -8 X s 915 382 m -16 X s 907 391 m -8 X s 907 401 m -8 X s 907 411 m -8 X s 907 420 m -8 X s 915 430 m -16 X s 907 439
 m -8 X s 907 449 m -8 X s 907 459 m -8 X s 907 468 m -8 X s 915 478 m -16 X s 915 478 m -16 X s 907 488 m -8 X s 907 497 m -8 X s 907 507 m -8 X s 907 516 m -8 X s
 gsave  710 563 779 12 C 875.259 82.4108 t 0 r /Helvetica findfont 25.6068 sf 0 0 m (0) show NC gr 
 gsave  710 563 779 12 C 861.05 130.721 t 0 r /Helvetica findfont 25.6068 sf 0 0 m (50) show NC gr 
 gsave  710 563 779 12 C 846.841 179.03 t 0 r /Helvetica findfont 25.6068 sf 0 0 m (100) show NC gr 
 gsave  710 563 779 12 C 846.841 227.34 t 0 r /Helvetica findfont 25.6068 sf 0 0 m (150) show NC gr 
 gsave  710 563 779 12 C 846.841 275.65 t 0 r /Helvetica findfont 25.6068 sf 0 0 m (200) show NC gr 
 gsave  710 563 779 12 C 846.841 323.96 t 0 r /Helvetica findfont 25.6068 sf 0 0 m (250) show NC gr 
 gsave  710 563 779 12 C 846.841 372.269 t 0 r /Helvetica findfont 25.6068 sf 0 0 m (300) show NC gr 
 gsave  710 563 779 12 C 846.841 420.579 t 0 r /Helvetica findfont 25.6068 sf 0 0 m (350) show NC gr 
 gsave  710 563 779 12 C 846.841 468.889 t 0 r /Helvetica findfont 25.6068 sf 0 0 m (400) show NC gr 
 gsave  710 563 779 12 C 801.374 412.054 t 90 r /Helvetica findfont 28.4519 sf 0 0 m (0.00126 ) show NC gr 
 gsave  710 563 779 12 C 787.165 409.212 t 90 r /Helvetica findfont 19.9164 sf 0 0 m ( ) show NC gr 
 gsave  710 563 779 12 C 801.374 397.845 t 90 r /Helvetica findfont 28.4519 sf 0 0 m (/) show NC gr 
 gsave  710 563 779 12 C 809.899 395.003 t 90 r /Helvetica findfont 19.9164 sf 0 0 m ( ) show NC gr 
 gsave  710 563 779 12 C 801.374 289.858 t 90 r /Helvetica findfont 28.4519 sf 0 0 m (\(1/N\) dN) show NC gr  1447 93 m 426 Y s 1430 93 m 17 X s 1438 102 m 9 X s 1438 112 m 9 X s 1438 122 m 9 X s 1438 131 m 9 X s 1430 141 m 17 X s 1438 151 m 9 X s
 1438 160 m 9 X s 1438 170 m 9 X s 1438 179 m 9 X s 1430 189 m 17 X s 1438 199 m 9 X s 1438 208 m 9 X s 1438 218 m 9 X s 1438 228 m 9 X s 1430 237 m 17 X s 1438 247 m 9 X s 1438 256 m 9 X s 1438 266 m 9 X s 1438 276 m 9 X s 1430 285 m 17 X s 1438 295
 m 9 X s 1438 305 m 9 X s 1438 314 m 9 X s 1438 324 m 9 X s 1430 334 m 17 X s 1438 343 m 9 X s 1438 353 m 9 X s 1438 362 m 9 X s 1438 372 m 9 X s 1430 382 m 17 X s 1438 391 m 9 X s 1438 401 m 9 X s 1438 411 m 9 X s 1438 420 m 9 X s 1430 430 m 17 X s
 1438 439 m 9 X s 1438 449 m 9 X s 1438 459 m 9 X s 1438 468 m 9 X s 1430 478 m 17 X s 1430 478 m 17 X s 1438 488 m 9 X s 1438 497 m 9 X s 1438 507 m 9 X s 1438 516 m 9 X s 0.490196 0.545098 0.615686 c 0.364706 0.419608 0.490196 c 355 37 786 535 bf
 0.490196 0.545098 0.615686 c 786 535 m 355 X s 1141 535 m 37 Y s 1141 572 m -355 X s 786 572 m -37 Y s 1 1 1 c black 1 1 1 c
 gsave  710 563 779 12 C 790.007 545.616 t 0 r /Helvetica-Bold findfont 28.4519 sf 0 0 m (Input variable: Trk1_dPhi) show NC gr  1 0 0 c 6 lw black 3 lw 1 0 0 c 1433 94 m -1 -1 d s 1418 94 m -1 -1 d s 1405 96 m -3 -3 d s 1389 95 m -2 -2 d s 1373 94 m
 -1 -1 d s 1357 94 m -1 Y s 1344 95 m -2 -2 d s 1330 97 m -3 -4 d s 1314 96 m -3 -3 d s 1300 96 m -4 -3 d s 1284 95 m -3 -2 d s 1270 97 m -4 -4 d s 1255 97 m -4 -4 d s 1241 98 m -5 -5 d s 1226 98 m -5 -5 d s 1214 101 m -8 -8 d s 1197 99 m -6 -6 d s
 1182 99 m -6 -6 d s 1170 103 m -9 -10 d s 1156 103 m -10 -10 d s 1141 103 m -10 -10 d s 1125 103 m -9 -10 d s 1111 103 m -11 -10 d s 1096 103 m -11 -10 d s 1088 110 m -18 -17 d s 1076 114 m -21 -21 d s 1059 112 m -19 -19 d s 1048 116 m -23 -23 d s
 1031 114 m -21 -21 d s 1022 121 m -27 -28 d s 1015 128 m -35 -35 d s 1001 130 m -36 -37 d s 990 134 m -40 -41 d s 978 136 m -43 -43 d s 967 141 m -47 -48 d s 954 143 m -49 -50 d s 947 151 m -48 -48 d s 940 159 m -41 -41 d s 936 170 m -37 -37 d s 927
 176 m -28 -28 d s 921 186 m -22 -23 d s 913 192 m -14 -13 d s 6 lw 899 193 m 14 X -7 Y 14 X -16 Y 13 X -19 Y 14 X -10 Y 14 X -5 Y 13 X -2 Y 14 X -4 Y 14 X -2 Y 13 X -14 Y 14 X 2 Y 14 X -4 Y 14 X 2 Y 13 X -4 Y 14 X -7 Y 82 X -4 Y 27 X 2 Y 14 X -3 Y
 41 X -2 Y 14 X 1 Y 13 X -2 Y 14 X 1 Y 27 X 1 Y 14 X -2 Y 14 X -1 Y 27 X 1 Y 14 X 1 Y 13 X -2 Y 42 X s black 3 lw 899 93 m 548 X s 899 106 m -13 Y s 921 99 m -6 Y s 943 99 m -6 Y s 964 99 m -6 Y s 986 99 m -6 Y s 1008 106 m -13 Y s 1030 99 m -6 Y s
 1051 99 m -6 Y s 1073 99 m -6 Y s 1095 99 m -6 Y s 1116 106 m -13 Y s 1138 99 m -6 Y s 1160 99 m -6 Y s 1182 99 m -6 Y s 1203 99 m -6 Y s 1225 106 m -13 Y s 1247 99 m -6 Y s 1268 99 m -6 Y s 1290 99 m -6 Y s 1312 99 m -6 Y s 1333 106 m -13 Y s 1355
 99 m -6 Y s 1377 99 m -6 Y s 1399 99 m -6 Y s 1420 99 m -6 Y s 1442 106 m -13 Y s 899 106 m -13 Y s 1442 106 m -13 Y s 899 519 m 548 X s 899 506 m 13 Y s 921 512 m 7 Y s 943 512 m 7 Y s 964 512 m 7 Y s 986 512 m 7 Y s 1008 506 m 13 Y s 1030 512 m 7
 Y s 1051 512 m 7 Y s 1073 512 m 7 Y s 1095 512 m 7 Y s 1116 506 m 13 Y s 1138 512 m 7 Y s 1160 512 m 7 Y s 1182 512 m 7 Y s 1203 512 m 7 Y s 1225 506 m 13 Y s 1247 512 m 7 Y s 1268 512 m 7 Y s 1290 512 m 7 Y s 1312 512 m 7 Y s 1333 506 m 13 Y s 1355
 512 m 7 Y s 1377 512 m 7 Y s 1399 512 m 7 Y s 1420 512 m 7 Y s 1442 506 m 13 Y s 899 506 m 13 Y s 1442 506 m 13 Y s 899 93 m 426 Y s 915 93 m -16 X s 907 102 m -8 X s 907 112 m -8 X s 907 122 m -8 X s 907 131 m -8 X s 915 141 m -16 X s 907 151 m -8
 X s 907 160 m -8 X s 907 170 m -8 X s 907 179 m -8 X s 915 189 m -16 X s 907 199 m -8 X s 907 208 m -8 X s 907 218 m -8 X s 907 228 m -8 X s 915 237 m -16 X s 907 247 m -8 X s 907 256 m -8 X s 907 266 m -8 X s 907 276 m -8 X s 915 285 m -16 X s 907
 295 m -8 X s 907 305 m -8 X s 907 314 m -8 X s 907 324 m -8 X s 915 334 m -16 X s 907 343 m -8 X s 907 353 m -8 X s 907 362 m -8 X s 907 372 m -8 X s 915 382 m -16 X s 907 391 m -8 X s 907 401 m -8 X s 907 411 m -8 X s 907 420 m -8 X s 915 430 m -16
 X s 907 439 m -8 X s 907 449 m -8 X s 907 459 m -8 X s 907 468 m -8 X s 915 478 m -16 X s 915 478 m -16 X s 907 488 m -8 X s 907 497 m -8 X s 907 507 m -8 X s 907 516 m -8 X s 1447 93 m 426 Y s 1430 93 m 17 X s 1438 102 m 9 X s 1438 112 m 9 X s 1438
 122 m 9 X s 1438 131 m 9 X s 1430 141 m 17 X s 1438 151 m 9 X s 1438 160 m 9 X s 1438 170 m 9 X s 1438 179 m 9 X s 1430 189 m 17 X s 1438 199 m 9 X s 1438 208 m 9 X s 1438 218 m 9 X s 1438 228 m 9 X s 1430 237 m 17 X s 1438 247 m 9 X s 1438 256 m 9
 X s 1438 266 m 9 X s 1438 276 m 9 X s 1430 285 m 17 X s 1438 295 m 9 X s 1438 305 m 9 X s 1438 314 m 9 X s 1438 324 m 9 X s 1430 334 m 17 X s 1438 343 m 9 X s 1438 353 m 9 X s 1438 362 m 9 X s 1438 372 m 9 X s 1430 382 m 17 X s 1438 391 m 9 X s 1438
 401 m 9 X s 1438 411 m 9 X s 1438 420 m 9 X s 1430 430 m 17 X s 1438 439 m 9 X s 1438 449 m 9 X s 1438 459 m 9 X s 1438 468 m 9 X s 1430 478 m 17 X s 1430 478 m 17 X s 1438 488 m 9 X s 1438 497 m 9 X s 1438 507 m 9 X s 1438 516 m 9 X s
 gsave  710 563 779 12 C 1474.92 90.6052 t 90 r /Helvetica-Bold findfont 19.9164 sf 0 0 m (U/O\255flow \(S,B\): \(0.0, 0.0\)% / \(0.0, 1.6\)%) show NC gr  0.490196 0.545098 0.615686 c 0.364706 0.419608 0.490196 c 355 37 786 535 bf 0.490196 0.545098
 0.615686 c 786 535 m 355 X s 1141 535 m 37 Y s 1141 572 m -355 X s 786 572 m -37 Y s 1 1 1 c black 1 1 1 c
 gsave  710 563 779 12 C 790.007 545.616 t 0 r /Helvetica-Bold findfont 28.4519 sf 0 0 m (Input variable: Trk1_dPhi) show NC gr  0.490196 0.545098 0.615686 c 0.941176 0.941176 0.941176 c 711 563 1534 12 bf black 1 1 0.992157 c 547 426 1655 93 bf
 black 547 426 1655 93 bl 0 0 0.933333 c 6 lw 0.49 0.6 0.82 c black 3 lw 0.49 0.6 0.82 c 1655 93 m 296 Y 14 X 91 Y 14 X -305 Y 13 X -66 Y 14 X -12 Y 14 X -3 Y 27 X -1 Y 451 X f 6 lw 0 0 0.933333 c 0.49 0.6 0.82 c 0 0 0.933333 c 1655 389 m 14 X 91 Y
 14 X -305 Y 13 X -66 Y 14 X -12 Y 14 X -3 Y 27 X -1 Y 451 X s black 3 lw 1655 93 m 547 X s 1655 106 m -13 Y s 1670 99 m -6 Y s 1684 99 m -6 Y s 1699 99 m -6 Y s 1713 99 m -6 Y s 1728 106 m -13 Y s 1742 99 m -6 Y s 1757 99 m -6 Y s 1771 99 m -6 Y s
 1786 99 m -6 Y s 1800 106 m -13 Y s 1815 99 m -6 Y s 1829 99 m -6 Y s 1844 99 m -6 Y s 1858 99 m -6 Y s 1873 106 m -13 Y s 1887 99 m -6 Y s 1902 99 m -6 Y s 1916 99 m -6 Y s 1931 99 m -6 Y s 1945 106 m -13 Y s 1960 99 m -6 Y s 1974 99 m -6 Y s 1989
 99 m -6 Y s 2003 99 m -6 Y s 2018 106 m -13 Y s 2032 99 m -6 Y s 2047 99 m -6 Y s 2061 99 m -6 Y s 2076 99 m -6 Y s 2090 106 m -13 Y s 2105 99 m -6 Y s 2119 99 m -6 Y s 2134 99 m -6 Y s 2148 99 m -6 Y s 2163 106 m -13 Y s 1655 106 m -13 Y s 2163 106
 m -13 Y s 2177 99 m -6 Y s 2192 99 m -6 Y s
 gsave  711 563 1534 12 C 1645.37 65.3603 t 0 r /Helvetica findfont 25.6068 sf 0 0 m (0) show NC gr 
 gsave  711 563 1534 12 C 1705.05 65.3603 t 0 r /Helvetica findfont 25.6068 sf 0 0 m (0.01) show NC gr 
 gsave  711 563 1534 12 C 1773.25 65.3603 t 0 r /Helvetica findfont 25.6068 sf 0 0 m (0.02) show NC gr 
 gsave  711 563 1534 12 C 1847.14 65.3603 t 0 r /Helvetica findfont 25.6068 sf 0 0 m (0.03) show NC gr 
 gsave  711 563 1534 12 C 1918.18 65.3603 t 0 r /Helvetica findfont 25.6068 sf 0 0 m (0.04) show NC gr 
 gsave  711 563 1534 12 C 1992.07 65.3603 t 0 r /Helvetica findfont 25.6068 sf 0 0 m (0.05) show NC gr 
 gsave  711 563 1534 12 C 2063.11 65.3603 t 0 r /Helvetica findfont 25.6068 sf 0 0 m (0.06) show NC gr 
 gsave  711 563 1534 12 C 2137 65.3603 t 0 r /Helvetica findfont 25.6068 sf 0 0 m (0.07) show NC gr 
 gsave  711 563 1534 12 C 2074.48 22.734 t 0 r /Helvetica findfont 28.4519 sf 0 0 m (Trk2_dPhi) show NC gr  1655 519 m 547 X s 1655 506 m 13 Y s 1670 512 m 7 Y s 1684 512 m 7 Y s 1699 512 m 7 Y s 1713 512 m 7 Y s 1728 506 m 13 Y s 1742 512 m 7 Y s
 1757 512 m 7 Y s 1771 512 m 7 Y s 1786 512 m 7 Y s 1800 506 m 13 Y s 1815 512 m 7 Y s 1829 512 m 7 Y s 1844 512 m 7 Y s 1858 512 m 7 Y s 1873 506 m 13 Y s 1887 512 m 7 Y s 1902 512 m 7 Y s 1916 512 m 7 Y s 1931 512 m 7 Y s 1945 506 m 13 Y s 1960 512
 m 7 Y s 1974 512 m 7 Y s 1989 512 m 7 Y s 2003 512 m 7 Y s 2018 506 m 13 Y s 2032 512 m 7 Y s 2047 512 m 7 Y s 2061 512 m 7 Y s 2076 512 m 7 Y s 2090 506 m 13 Y s 2105 512 m 7 Y s 2119 512 m 7 Y s 2134 512 m 7 Y s 2148 512 m 7 Y s 2163 506 m 13 Y s
 1655 506 m 13 Y s 2163 506 m 13 Y s 2177 512 m 7 Y s 2192 512 m 7 Y s 1655 93 m 426 Y s 1671 93 m -16 X s 1663 108 m -8 X s 1663 123 m -8 X s 1663 138 m -8 X s 1663 152 m -8 X s 1671 167 m -16 X s 1663 182 m -8 X s 1663 197 m -8 X s 1663 212 m -8 X
 s 1663 227 m -8 X s 1671 242 m -16 X s 1663 257 m -8 X s 1663 272 m -8 X s 1663 286 m -8 X s 1663 301 m -8 X s 1671 316 m -16 X s 1663 331 m -8 X s 1663 346 m -8 X s 1663 361 m -8 X s 1663 376 m -8 X s 1671 391 m -16 X s 1663 406 m -8 X s 1663 421 m
 -8 X s 1663 435 m -8 X s 1663 450 m -8 X s 1671 465 m -16 X s 1671 465 m -16 X s 1663 480 m -8 X s 1663 495 m -8 X s 1663 510 m -8 X s
 gsave  711 563 1534 12 C 1631.16 82.4108 t 0 r /Helvetica findfont 25.6068 sf 0 0 m (0) show NC gr 
 gsave  711 563 1534 12 C 1616.96 156.296 t 0 r /Helvetica findfont 25.6068 sf 0 0 m (50) show NC gr 
 gsave  711 563 1534 12 C 1602.75 233.023 t 0 r /Helvetica findfont 25.6068 sf 0 0 m (100) show NC gr 
 gsave  711 563 1534 12 C 1602.75 306.909 t 0 r /Helvetica findfont 25.6068 sf 0 0 m (150) show NC gr 
 gsave  711 563 1534 12 C 1602.75 380.794 t 0 r /Helvetica findfont 25.6068 sf 0 0 m (200) show NC gr 
 gsave  711 563 1534 12 C 1602.75 454.68 t 0 r /Helvetica findfont 25.6068 sf 0 0 m (250) show NC gr 
 gsave  711 563 1534 12 C 1557.28 412.054 t 90 r /Helvetica findfont 28.4519 sf 0 0 m (0.00189 ) show NC gr 
 gsave  711 563 1534 12 C 1543.07 409.212 t 90 r /Helvetica findfont 19.9164 sf 0 0 m ( ) show NC gr 
 gsave  711 563 1534 12 C 1557.28 397.845 t 90 r /Helvetica findfont 28.4519 sf 0 0 m (/) show NC gr 
 gsave  711 563 1534 12 C 1565.8 395.003 t 90 r /Helvetica findfont 19.9164 sf 0 0 m ( ) show NC gr 
 gsave  711 563 1534 12 C 1557.28 289.858 t 90 r /Helvetica findfont 28.4519 sf 0 0 m (\(1/N\) dN) show NC gr  2202 93 m 426 Y s 2186 93 m 16 X s 2194 108 m 8 X s 2194 123 m 8 X s 2194 138 m 8 X s 2194 152 m 8 X s 2186 167 m 16 X s 2194 182 m 8 X s
 2194 197 m 8 X s 2194 212 m 8 X s 2194 227 m 8 X s 2186 242 m 16 X s 2194 257 m 8 X s 2194 272 m 8 X s 2194 286 m 8 X s 2194 301 m 8 X s 2186 316 m 16 X s 2194 331 m 8 X s 2194 346 m 8 X s 2194 361 m 8 X s 2194 376 m 8 X s 2186 391 m 16 X s 2194 406
 m 8 X s 2194 421 m 8 X s 2194 435 m 8 X s 2194 450 m 8 X s 2186 465 m 16 X s 2186 465 m 16 X s 2194 480 m 8 X s 2194 495 m 8 X s 2194 510 m 8 X s 0.490196 0.545098 0.615686 c 0.364706 0.419608 0.490196 c 355 37 1542 535 bf 0.490196 0.545098 0.615686
 c 1542 535 m 355 X s 1897 535 m 37 Y s 1897 572 m -355 X s 1542 572 m -37 Y s 1 1 1 c black 1 1 1 c
 gsave  711 563 1534 12 C 1545.91 545.616 t 0 r /Helvetica-Bold findfont 28.4519 sf 0 0 m (Input variable: Trk2_dPhi) show NC gr  1 0 0 c 6 lw black 3 lw 1 0 0 c 2189 94 m -1 -1 d s 2174 94 m -1 -1 d s 2159 94 m -1 -1 d s 2144 94 m -1 -1 d s 2130 96
 m -2 -3 d s 2114 94 m -1 -1 d s 2099 94 m -1 -1 d s 2084 95 m -2 -2 d s 2072 97 m -5 -4 d s 2057 98 m -5 -5 d s 2039 95 m -2 -2 d s 2027 98 m -5 -5 d s 2012 98 m -5 -5 d s 1999 100 m -2 -2 d s 1995 96 m -3 -3 d s 1984 99 m -7 -6 d s 1974 105 m -12
 -12 d s 1956 102 m -9 -9 d s 1942 103 m -10 -10 d s 1927 103 m -10 -10 d s 1912 103 m -10 -10 d s 1901 108 m -14 -15 d s 1891 112 m -3 -3 d s 1887 108 m -16 -15 d s 1872 109 m -16 -16 d s 1860 112 m -19 -19 d s 1847 114 m -21 -21 d s 1830 112 m -19
 -19 d s 1816 113 m -20 -20 d s 1806 118 m -25 -25 d s 1800 127 m -34 -34 d s 1782 124 m -31 -31 d s 1778 135 m -42 -42 d s 1759 131 m -38 -38 d s 1747 135 m -41 -42 d s 1732 135 m -41 -42 d s 1724 141 m -49 -48 d s 1714 146 m -54 -53 d s 1701 149 m
 -46 -46 d s 1688 151 m -33 -33 d s 1683 161 m -28 -28 d s 1670 163 m -15 -15 d s 1668 176 m -13 -13 d s 6 lw 1655 176 m 14 X -13 Y 14 X -12 Y 13 X -2 Y 14 X -3 Y 14 X -11 Y 27 X -4 Y 14 X 4 Y 13 X -11 Y 14 X 3 Y 14 X -14 Y 13 X -1 Y 14 X 3 Y 14 X -2
 Y 13 X -4 Y 14 X -1 Y 14 X 4 Y 13 X -9 Y 42 X -1 Y 27 X 3 Y 14 X -9 Y 13 X 4 Y 14 X -2 Y 27 X -3 Y 14 X 3 Y 14 X -1 Y 13 X -2 Y 14 X -1 Y 27 X 2 Y 14 X -2 Y 68 X s black 3 lw 1655 93 m 547 X s 1655 106 m -13 Y s 1670 99 m -6 Y s 1684 99 m -6 Y s
 1699 99 m -6 Y s 1713 99 m -6 Y s 1728 106 m -13 Y s 1742 99 m -6 Y s 1757 99 m -6 Y s 1771 99 m -6 Y s 1786 99 m -6 Y s 1800 106 m -13 Y s 1815 99 m -6 Y s 1829 99 m -6 Y s 1844 99 m -6 Y s 1858 99 m -6 Y s 1873 106 m -13 Y s 1887 99 m -6 Y s 1902
 99 m -6 Y s 1916 99 m -6 Y s 1931 99 m -6 Y s 1945 106 m -13 Y s 1960 99 m -6 Y s 1974 99 m -6 Y s 1989 99 m -6 Y s 2003 99 m -6 Y s 2018 106 m -13 Y s 2032 99 m -6 Y s 2047 99 m -6 Y s 2061 99 m -6 Y s 2076 99 m -6 Y s 2090 106 m -13 Y s 2105 99 m
 -6 Y s 2119 99 m -6 Y s 2134 99 m -6 Y s 2148 99 m -6 Y s 2163 106 m -13 Y s 1655 106 m -13 Y s 2163 106 m -13 Y s 2177 99 m -6 Y s 2192 99 m -6 Y s 1655 519 m 547 X s 1655 506 m 13 Y s 1670 512 m 7 Y s 1684 512 m 7 Y s 1699 512 m 7 Y s 1713 512 m 7
 Y s 1728 506 m 13 Y s 1742 512 m 7 Y s 1757 512 m 7 Y s 1771 512 m 7 Y s 1786 512 m 7 Y s 1800 506 m 13 Y s 1815 512 m 7 Y s 1829 512 m 7 Y s 1844 512 m 7 Y s 1858 512 m 7 Y s 1873 506 m 13 Y s 1887 512 m 7 Y s 1902 512 m 7 Y s 1916 512 m 7 Y s 1931
 512 m 7 Y s 1945 506 m 13 Y s 1960 512 m 7 Y s 1974 512 m 7 Y s 1989 512 m 7 Y s 2003 512 m 7 Y s 2018 506 m 13 Y s 2032 512 m 7 Y s 2047 512 m 7 Y s 2061 512 m 7 Y s 2076 512 m 7 Y s 2090 506 m 13 Y s 2105 512 m 7 Y s 2119 512 m 7 Y s 2134 512 m 7
 Y s 2148 512 m 7 Y s 2163 506 m 13 Y s 1655 506 m 13 Y s 2163 506 m 13 Y s 2177 512 m 7 Y s 2192 512 m 7 Y s 1655 93 m 426 Y s 1671 93 m -16 X s 1663 108 m -8 X s 1663 123 m -8 X s 1663 138 m -8 X s 1663 152 m -8 X s 1671 167 m -16 X s 1663 182 m -8
 X s 1663 197 m -8 X s 1663 212 m -8 X s 1663 227 m -8 X s 1671 242 m -16 X s 1663 257 m -8 X s 1663 272 m -8 X s 1663 286 m -8 X s 1663 301 m -8 X s 1671 316 m -16 X s 1663 331 m -8 X s 1663 346 m -8 X s 1663 361 m -8 X s 1663 376 m -8 X s 1671 391
 m -16 X s 1663 406 m -8 X s 1663 421 m -8 X s 1663 435 m -8 X s 1663 450 m -8 X s 1671 465 m -16 X s 1671 465 m -16 X s 1663 480 m -8 X s 1663 495 m -8 X s 1663 510 m -8 X s 2202 93 m 426 Y s 2186 93 m 16 X s 2194 108 m 8 X s 2194 123 m 8 X s 2194
 138 m 8 X s 2194 152 m 8 X s 2186 167 m 16 X s 2194 182 m 8 X s 2194 197 m 8 X s 2194 212 m 8 X s 2194 227 m 8 X s 2186 242 m 16 X s 2194 257 m 8 X s 2194 272 m 8 X s 2194 286 m 8 X s 2194 301 m 8 X s 2186 316 m 16 X s 2194 331 m 8 X s 2194 346 m 8
 X s 2194 361 m 8 X s 2194 376 m 8 X s 2186 391 m 16 X s 2194 406 m 8 X s 2194 421 m 8 X s 2194 435 m 8 X s 2194 450 m 8 X s 2186 465 m 16 X s 2186 465 m 16 X s 2194 480 m 8 X s 2194 495 m 8 X s 2194 510 m 8 X s
 gsave  711 563 1534 12 C 2230.83 90.6052 t 90 r /Helvetica-Bold findfont 19.9164 sf 0 0 m (U/O\255flow \(S,B\): \(0.0, 0.0\)% / \(0.0, 0.9\)%) show NC gr  0.490196 0.545098 0.615686 c 0.364706 0.419608 0.490196 c 355 37 1542 535 bf 0.490196 0.545098
 0.615686 c 1542 535 m 355 X s 1897 535 m 37 Y s 1897 572 m -355 X s 1542 572 m -37 Y s 1 1 1 c black 1 1 1 c
 gsave  711 563 1534 12 C 1545.91 545.616 t 0 r /Helvetica-Bold findfont 28.4519 sf 0 0 m (Input variable: Trk2_dPhi) show NC gr 
 gr  gr showpage
end
%%EOF
